"ADULT_SYMPTOMATIC_PROB","B0","BREATHING_INHALATION_VOLUME","BREATHING_INTERVAL_TIME","D","DEAD","DIFFERENT_CELL_COMPARISSION","DURATION","EP0","EXECUTABLE","EXPERIMENT_ID","FINAL_EPIDEMIC_SIZE","FORCE_TERMINATION_AT","GRID_SIZE","INCUBATION_TIME_M","INFECTION_RISK","INITIAL_INFECTED","LAMBDA","LOG_LEVEL","MAX_INFECTED","NSUS","OLD_SYMPTOMATIC_PROB","OUTPUT_UPDATE_DT","R0","R0_1third","RANDOM_SEED","SCENARIO","SECONDARY_CASES","SYMPTOMATIC_EMISSION_RATE","V","VOLUME_CONCENTRATION_LAMBDA","YOUNG_SYMPTOMATIC_PROB","fE","fExfI","fI","rB","rE","secondary_cases"
"0","0.57","6.333333333333333E-4","0.0011111111111111111","8","0","0","7.99","5","covid19_N17","run_000004","0.058823529411764705","8","7.67","10000000","3.3073360570319985","1","2.54","0","0.058823529411764705","16","0","0.01","0.0","0.0","4","classroom_post","0.0","5","450.0","2.54","0","1","1","1","1","1","0.019"
"0","0.57","6.333333333333333E-4","0.0011111111111111111","8","0","0","7.99","5","covid19_N17","run_000006","0.058823529411764705","8","7.67","10000000","3.3073360570319985","1","2.54","0","0.058823529411764705","16","0","0.01","0.0","0.0","6","classroom_post","0.0","5","450.0","2.54","0","1","1","1","1","1","0.019"
"0","0.57","6.333333333333333E-4","0.0011111111111111111","8","0","0","7.99","5","covid19_N17","run_000005","0.058823529411764705","8","7.67","10000000","3.3073360570319985","1","2.54","0","0.058823529411764705","16","0","0.01","0.0","0.0","5","classroom_post","0.0","5","450.0","2.54","0","1","1","1","1","1","0.019"
"0","0.57","6.333333333333333E-4","0.0011111111111111111","8","0","0","7.99","5","covid19_N17","run_000000","0.058823529411764705","8","7.67","10000000","3.3073360570319985","1","2.54","0","0.058823529411764705","16","0","0.01","0.0","0.0","0","classroom_post","0.0","5","450.0","2.54","0","1","1","1","1","1","0.019"
"0","0.57","6.333333333333333E-4","0.0011111111111111111","8","0","0","7.99","5","covid19_N17","run_000003","0.058823529411764705","8","7.67","10000000","3.3073360570319985","1","2.54","0","0.058823529411764705","16","0","0.01","0.0","0.0","3","classroom_post","0.0","5","450.0","2.54","0","1","1","1","1","1","0.019"
"0","0.57","6.333333333333333E-4","0.0011111111111111111","8","0","0","7.99","5","covid19_N17","run_000007","0.058823529411764705","8","7.67","10000000","3.3073360570319985","1","2.54","0","0.058823529411764705","16","0","0.01","0.0","0.0","7","classroom_post","0.0","5","450.0","2.54","0","1","1","1","1","1","0.019"
"0","0.57","6.333333333333333E-4","0.0011111111111111111","8","0","-0.0","7.99","5","covid19_N17","run_000001","0.11764705882352941","8","7.67","10000000","3.3073360570319985","1","2.54","0","0.11764705882352941","16","0","0.01","0.0","0.0","1","classroom_post","1.0","5","450.0","2.54","0","1","1","1","1","1","0.019"
"0","0.57","6.333333333333333E-4","0.0011111111111111111","8","0","NaN","7.99","5","covid19_N17","run_000002","0.11764705882352941","8","7.67","10000000","3.3073360570319985","1","2.54","0","0.11764705882352941","16","0","0.01","0.0","0.0","2","classroom_post","1.0","5","450.0","2.54","0","1","1","1","1","1","0.019"
"0","0.57","6.333333333333333E-4","0.0011111111111111111","8","0","0","7.99","5","covid19_N17","run_000012","0.058823529411764705","8","7.67","10000000","3.3073360570319985","1","2.54","0","0.058823529411764705","16","0","0.01","0.0","0.0","12","classroom_post","0.0","5","450.0","2.54","0","1","1","1","1","1","0.019"
"0","0.57","6.333333333333333E-4","0.0011111111111111111","8","0","0","7.99","5","covid19_N17","run_000011","0.058823529411764705","8","7.67","10000000","3.3073360570319985","1","2.54","0","0.058823529411764705","16","0","0.01","0.0","0.0","11","classroom_post","0.0","5","450.0","2.54","0","1","1","1","1","1","0.019"
"0","0.57","6.333333333333333E-4","0.0011111111111111111","8","0","0","7.99","5","covid19_N17","run_000009","0.058823529411764705","8","7.67","10000000","3.3073360570319985","1","2.54","0","0.058823529411764705","16","0","0.01","0.0","0.0","9","classroom_post","0.0","5","450.0","2.54","0","1","1","1","1","1","0.019"
"0","0.57","6.333333333333333E-4","0.0011111111111111111","8","0","0","7.99","5","covid19_N17","run_000013","0.058823529411764705","8","7.67","10000000","3.3073360570319985","1","2.54","0","0.058823529411764705","16","0","0.01","0.0","0.0","13","classroom_post","0.0","5","450.0","2.54","0","1","1","1","1","1","0.019"
"0","0.57","6.333333333333333E-4","0.0011111111111111111","8","0","0","7.99","5","covid19_N17","run_000015","0.058823529411764705","8","7.67","10000000","3.3073360570319985","1","2.54","0","0.058823529411764705","16","0","0.01","0.0","0.0","15","classroom_post","0.0","5","450.0","2.54","0","1","1","1","1","1","0.019"
"0","0.57","6.333333333333333E-4","0.0011111111111111111","8","0","0","7.99","5","covid19_N17","run_000010","0.058823529411764705","8","7.67","10000000","3.3073360570319985","1","2.54","0","0.058823529411764705","16","0","0.01","0.0","0.0","10","classroom_post","0.0","5","450.0","2.54","0","1","1","1","1","1","0.019"
"0","0.57","6.333333333333333E-4","0.0011111111111111111","8","0","NaN","7.99","5","covid19_N17","run_000008","0.11764705882352941","8","7.67","10000000","3.3073360570319985","1","2.54","0","0.11764705882352941","16","0","0.01","0.0","0.0","8","classroom_post","1.0","5","450.0","2.54","0","1","1","1","1","1","0.019"
"0","0.57","6.333333333333333E-4","0.0011111111111111111","8","0","NaN","7.99","5","covid19_N17","run_000017","0.11764705882352941","8","7.67","10000000","3.3073360570319985","1","2.54","0","0.11764705882352941","16","0","0.01","0.0","0.0","17","classroom_post","1.0","5","450.0","2.54","0","1","1","1","1","1","0.019"
"0","0.57","6.333333333333333E-4","0.0011111111111111111","8","0","NaN","7.99","5","covid19_N17","run_000014","0.11764705882352941","8","7.67","10000000","3.3073360570319985","1","2.54","0","0.11764705882352941","16","0","0.01","0.0","0.0","14","classroom_post","1.0","5","450.0","2.54","0","1","1","1","1","1","0.019"
"0","0.57","6.333333333333333E-4","0.0011111111111111111","8","0","0","7.99","5","covid19_N17","run_000016","0.058823529411764705","8","7.67","10000000","3.3073360570319985","1","2.54","0","0.058823529411764705","16","0","0.01","0.0","0.0","16","classroom_post","0.0","5","450.0","2.54","0","1","1","1","1","1","0.019"
"0","0.57","6.333333333333333E-4","0.0011111111111111111","8","0","0","7.99","5","covid19_N17","run_000021","0.058823529411764705","8","7.67","10000000","3.3073360570319985","1","2.54","0","0.058823529411764705","16","0","0.01","0.0","0.0","21","classroom_post","0.0","5","450.0","2.54","0","1","1","1","1","1","0.019"
"0","0.57","6.333333333333333E-4","0.0011111111111111111","8","0","0","7.99","5","covid19_N17","run_000022","0.058823529411764705","8","7.67","10000000","3.3073360570319985","1","2.54","0","0.058823529411764705","16","0","0.01","0.0","0.0","22","classroom_post","0.0","5","450.0","2.54","0","1","1","1","1","1","0.019"
"0","0.57","6.333333333333333E-4","0.0011111111111111111","8","0","0","7.99","5","covid19_N17","run_000018","0.058823529411764705","8","7.67","10000000","3.3073360570319985","1","2.54","0","0.058823529411764705","16","0","0.01","0.0","0.0","18","classroom_post","0.0","5","450.0","2.54","0","1","1","1","1","1","0.019"
"0","0.57","6.333333333333333E-4","0.0011111111111111111","8","0","0","7.99","5","covid19_N17","run_000019","0.058823529411764705","8","7.67","10000000","3.3073360570319985","1","2.54","0","0.058823529411764705","16","0","0.01","0.0","0.0","19","classroom_post","0.0","5","450.0","2.54","0","1","1","1","1","1","0.019"
"0","0.57","6.333333333333333E-4","0.0011111111111111111","8","0","0","7.99","5","covid19_N17","run_000020","0.058823529411764705","8","7.67","10000000","3.3073360570319985","1","2.54","0","0.058823529411764705","16","0","0.01","0.0","0.0","20","classroom_post","0.0","5","450.0","2.54","0","1","1","1","1","1","0.019"
"0","0.57","6.333333333333333E-4","0.0011111111111111111","8","0","0","7.99","5","covid19_N17","run_000024","0.058823529411764705","8","7.67","10000000","3.3073360570319985","1","2.54","0","0.058823529411764705","16","0","0.01","0.0","0.0","24","classroom_post","0.0","5","450.0","2.54","0","1","1","1","1","1","0.019"
"0","0.57","6.333333333333333E-4","0.0011111111111111111","8","0","0","7.99","5","covid19_N17","run_000026","0.058823529411764705","8","7.67","10000000","3.3073360570319985","1","2.54","0","0.058823529411764705","16","0","0.01","0.0","0.0","26","classroom_post","0.0","5","450.0","2.54","0","1","1","1","1","1","0.019"
"0","0.57","6.333333333333333E-4","0.0011111111111111111","8","0","0","7.99","5","covid19_N17","run_000023","0.058823529411764705","8","7.67","10000000","3.3073360570319985","1","2.54","0","0.058823529411764705","16","0","0.01","0.0","0.0","23","classroom_post","0.0","5","450.0","2.54","0","1","1","1","1","1","0.019"
"0","0.57","6.333333333333333E-4","0.0011111111111111111","8","0","0","7.99","5","covid19_N17","run_000033","0.058823529411764705","8","7.67","10000000","3.3073360570319985","1","2.54","0","0.058823529411764705","16","0","0.01","0.0","0.0","33","classroom_post","0.0","5","450.0","2.54","0","1","1","1","1","1","0.019"
"0","0.57","6.333333333333333E-4","0.0011111111111111111","8","0","NaN","7.99","5","covid19_N17","run_000028","0.11764705882352941","8","7.67","10000000","3.3073360570319985","1","2.54","0","0.11764705882352941","16","0","0.01","0.0","0.0","28","classroom_post","1.0","5","450.0","2.54","0","1","1","1","1","1","0.019"
"0","0.57","6.333333333333333E-4","0.0011111111111111111","8","0","0","7.99","5","covid19_N17","run_000025","0.058823529411764705","8","7.67","10000000","3.3073360570319985","1","2.54","0","0.058823529411764705","16","0","0.01","0.0","0.0","25","classroom_post","0.0","5","450.0","2.54","0","1","1","1","1","1","0.019"
"0","0.57","6.333333333333333E-4","0.0011111111111111111","8","0","-0.0","7.99","5","covid19_N17","run_000030","0.11764705882352941","8","7.67","10000000","3.3073360570319985","1","2.54","0","0.11764705882352941","16","0","0.01","0.0","0.0","30","classroom_post","1.0","5","450.0","2.54","0","1","1","1","1","1","0.019"
"0","0.57","6.333333333333333E-4","0.0011111111111111111","8","0","0","7.99","5","covid19_N17","run_000027","0.058823529411764705","8","7.67","10000000","3.3073360570319985","1","2.54","0","0.058823529411764705","16","0","0.01","0.0","0.0","27","classroom_post","0.0","5","450.0","2.54","0","1","1","1","1","1","0.019"
"0","0.57","6.333333333333333E-4","0.0011111111111111111","8","0","0","7.99","5","covid19_N17","run_000036","0.058823529411764705","8","7.67","10000000","3.3073360570319985","1","2.54","0","0.058823529411764705","16","0","0.01","0.0","0.0","36","classroom_post","0.0","5","450.0","2.54","0","1","1","1","1","1","0.019"
"0","0.57","6.333333333333333E-4","0.0011111111111111111","8","0","0","7.99","5","covid19_N17","run_000029","0.058823529411764705","8","7.67","10000000","3.3073360570319985","1","2.54","0","0.058823529411764705","16","0","0.01","0.0","0.0","29","classroom_post","0.0","5","450.0","2.54","0","1","1","1","1","1","0.019"
"0","0.57","6.333333333333333E-4","0.0011111111111111111","8","0","NaN","7.99","5","covid19_N17","run_000035","0.11764705882352941","8","7.67","10000000","3.3073360570319985","1","2.54","0","0.11764705882352941","16","0","0.01","0.0","0.0","35","classroom_post","1.0","5","450.0","2.54","0","1","1","1","1","1","0.019"
"0","0.57","6.333333333333333E-4","0.0011111111111111111","8","0","NaN","7.99","5","covid19_N17","run_000034","0.11764705882352941","8","7.67","10000000","3.3073360570319985","1","2.54","0","0.11764705882352941","16","0","0.01","0.0","0.0","34","classroom_post","1.0","5","450.0","2.54","0","1","1","1","1","1","0.019"
"0","0.57","6.333333333333333E-4","0.0011111111111111111","8","0","0","7.99","5","covid19_N17","run_000038","0.058823529411764705","8","7.67","10000000","3.3073360570319985","1","2.54","0","0.058823529411764705","16","0","0.01","0.0","0.0","38","classroom_post","0.0","5","450.0","2.54","0","1","1","1","1","1","0.019"
"0","0.57","6.333333333333333E-4","0.0011111111111111111","8","0","0","7.99","5","covid19_N17","run_000031","0.058823529411764705","8","7.67","10000000","3.3073360570319985","1","2.54","0","0.058823529411764705","16","0","0.01","0.0","0.0","31","classroom_post","0.0","5","450.0","2.54","0","1","1","1","1","1","0.019"
"0","0.57","6.333333333333333E-4","0.0011111111111111111","8","0","0","7.99","5","covid19_N17","run_000037","0.058823529411764705","8","7.67","10000000","3.3073360570319985","1","2.54","0","0.058823529411764705","16","0","0.01","0.0","0.0","37","classroom_post","0.0","5","450.0","2.54","0","1","1","1","1","1","0.019"
"0","0.57","6.333333333333333E-4","0.0011111111111111111","8","0","NaN","7.99","5","covid19_N17","run_000040","0.11764705882352941","8","7.67","10000000","3.3073360570319985","1","2.54","0","0.11764705882352941","16","0","0.01","0.0","0.0","40","classroom_post","1.0","5","450.0","2.54","0","1","1","1","1","1","0.019"
"0","0.57","6.333333333333333E-4","0.0011111111111111111","8","0","0","7.99","5","covid19_N17","run_000042","0.058823529411764705","8","7.67","10000000","3.3073360570319985","1","2.54","0","0.058823529411764705","16","0","0.01","0.0","0.0","42","classroom_post","0.0","5","450.0","2.54","0","1","1","1","1","1","0.019"
"0","0.57","6.333333333333333E-4","0.0011111111111111111","8","0","0","7.99","5","covid19_N17","run_000032","0.058823529411764705","8","7.67","10000000","3.3073360570319985","1","2.54","0","0.058823529411764705","16","0","0.01","0.0","0.0","32","classroom_post","0.0","5","450.0","2.54","0","1","1","1","1","1","0.019"
"0","0.57","6.333333333333333E-4","0.0011111111111111111","8","0","0","7.99","5","covid19_N17","run_000041","0.058823529411764705","8","7.67","10000000","3.3073360570319985","1","2.54","0","0.058823529411764705","16","0","0.01","0.0","0.0","41","classroom_post","0.0","5","450.0","2.54","0","1","1","1","1","1","0.019"
"0","0.57","6.333333333333333E-4","0.0011111111111111111","8","0","0","7.99","5","covid19_N17","run_000039","0.058823529411764705","8","7.67","10000000","3.3073360570319985","1","2.54","0","0.058823529411764705","16","0","0.01","0.0","0.0","39","classroom_post","0.0","5","450.0","2.54","0","1","1","1","1","1","0.019"
"0","0.57","6.333333333333333E-4","0.0011111111111111111","8","0","0","7.99","5","covid19_N17","run_000043","0.058823529411764705","8","7.67","10000000","3.3073360570319985","1","2.54","0","0.058823529411764705","16","0","0.01","0.0","0.0","43","classroom_post","0.0","5","450.0","2.54","0","1","1","1","1","1","0.019"
"0","0.57","6.333333333333333E-4","0.0011111111111111111","8","0","0","7.99","5","covid19_N17","run_000047","0.058823529411764705","8","7.67","10000000","3.3073360570319985","1","2.54","0","0.058823529411764705","16","0","0.01","0.0","0.0","47","classroom_post","0.0","5","450.0","2.54","0","1","1","1","1","1","0.019"
"0","0.57","6.333333333333333E-4","0.0011111111111111111","8","0","0","7.99","5","covid19_N17","run_000044","0.058823529411764705","8","7.67","10000000","3.3073360570319985","1","2.54","0","0.058823529411764705","16","0","0.01","0.0","0.0","44","classroom_post","0.0","5","450.0","2.54","0","1","1","1","1","1","0.019"
"0","0.57","6.333333333333333E-4","0.0011111111111111111","8","0","0","7.99","5","covid19_N17","run_000045","0.058823529411764705","8","7.67","10000000","3.3073360570319985","1","2.54","0","0.058823529411764705","16","0","0.01","0.0","0.0","45","classroom_post","0.0","5","450.0","2.54","0","1","1","1","1","1","0.019"
"0","0.57","6.333333333333333E-4","0.0011111111111111111","8","0","0","7.99","5","covid19_N17","run_000052","0.058823529411764705","8","7.67","10000000","3.3073360570319985","1","2.54","0","0.058823529411764705","16","0","0.01","0.0","0.0","52","classroom_post","0.0","5","450.0","2.54","0","1","1","1","1","1","0.019"
"0","0.57","6.333333333333333E-4","0.0011111111111111111","8","0","NaN","7.99","5","covid19_N17","run_000053","0.11764705882352941","8","7.67","10000000","3.3073360570319985","1","2.54","0","0.11764705882352941","16","0","0.01","0.0","0.0","53","classroom_post","1.0","5","450.0","2.54","0","1","1","1","1","1","0.019"
"0","0.57","6.333333333333333E-4","0.0011111111111111111","8","0","0","7.99","5","covid19_N17","run_000048","0.058823529411764705","8","7.67","10000000","3.3073360570319985","1","2.54","0","0.058823529411764705","16","0","0.01","0.0","0.0","48","classroom_post","0.0","5","450.0","2.54","0","1","1","1","1","1","0.019"
"0","0.57","6.333333333333333E-4","0.0011111111111111111","8","0","NaN","7.99","5","covid19_N17","run_000055","0.17647058823529413","8","7.67","10000000","3.3073360570319985","1","2.54","0","0.17647058823529413","16","0","0.01","0.0","0.0","55","classroom_post","2.0","5","450.0","2.54","0","1","1","1","1","1","0.019"
"0","0.57","6.333333333333333E-4","0.0011111111111111111","8","0","0","7.99","5","covid19_N17","run_000049","0.058823529411764705","8","7.67","10000000","3.3073360570319985","1","2.54","0","0.058823529411764705","16","0","0.01","0.0","0.0","49","classroom_post","0.0","5","450.0","2.54","0","1","1","1","1","1","0.019"
"0","0.57","6.333333333333333E-4","0.0011111111111111111","8","0","0","7.99","5","covid19_N17","run_000046","0.058823529411764705","8","7.67","10000000","3.3073360570319985","1","2.54","0","0.058823529411764705","16","0","0.01","0.0","0.0","46","classroom_post","0.0","5","450.0","2.54","0","1","1","1","1","1","0.019"
"0","0.57","6.333333333333333E-4","0.0011111111111111111","8","0","0","7.99","5","covid19_N17","run_000051","0.058823529411764705","8","7.67","10000000","3.3073360570319985","1","2.54","0","0.058823529411764705","16","0","0.01","0.0","0.0","51","classroom_post","0.0","5","450.0","2.54","0","1","1","1","1","1","0.019"
"0","0.57","6.333333333333333E-4","0.0011111111111111111","8","0","0","7.99","5","covid19_N17","run_000056","0.058823529411764705","8","7.67","10000000","3.3073360570319985","1","2.54","0","0.058823529411764705","16","0","0.01","0.0","0.0","56","classroom_post","0.0","5","450.0","2.54","0","1","1","1","1","1","0.019"
"0","0.57","6.333333333333333E-4","0.0011111111111111111","8","0","0","7.99","5","covid19_N17","run_000050","0.058823529411764705","8","7.67","10000000","3.3073360570319985","1","2.54","0","0.058823529411764705","16","0","0.01","0.0","0.0","50","classroom_post","0.0","5","450.0","2.54","0","1","1","1","1","1","0.019"
"0","0.57","6.333333333333333E-4","0.0011111111111111111","8","0","NaN","7.99","5","covid19_N17","run_000054","0.11764705882352941","8","7.67","10000000","3.3073360570319985","1","2.54","0","0.11764705882352941","16","0","0.01","0.0","0.0","54","classroom_post","1.0","5","450.0","2.54","0","1","1","1","1","1","0.019"
"0","0.57","6.333333333333333E-4","0.0011111111111111111","8","0","0","7.99","5","covid19_N17","run_000061","0.058823529411764705","8","7.67","10000000","3.3073360570319985","1","2.54","0","0.058823529411764705","16","0","0.01","0.0","0.0","62","classroom_post","0.0","5","450.0","2.54","0","1","1","1","1","1","0.019"
"0","0.57","6.333333333333333E-4","0.0011111111111111111","8","0","0","7.99","5","covid19_N17","run_000058","0.058823529411764705","8","7.67","10000000","3.3073360570319985","1","2.54","0","0.058823529411764705","16","0","0.01","0.0","0.0","59","classroom_post","0.0","5","450.0","2.54","0","1","1","1","1","1","0.019"
"0","0.57","6.333333333333333E-4","0.0011111111111111111","8","0","0","7.99","5","covid19_N17","run_000062","0.058823529411764705","8","7.67","10000000","3.3073360570319985","1","2.54","0","0.058823529411764705","16","0","0.01","0.0","0.0","63","classroom_post","0.0","5","450.0","2.54","0","1","1","1","1","1","0.019"
"0","0.57","6.333333333333333E-4","0.0011111111111111111","8","0","0","7.99","5","covid19_N17","run_000059","0.058823529411764705","8","7.67","10000000","3.3073360570319985","1","2.54","0","0.058823529411764705","16","0","0.01","0.0","0.0","60","classroom_post","0.0","5","450.0","2.54","0","1","1","1","1","1","0.019"
"0","0.57","6.333333333333333E-4","0.0011111111111111111","8","0","16.0","7.99","5","covid19_N17","run_000057","0.17647058823529413","8","7.67","10000000","3.3073360570319985","1","2.54","0","0.17647058823529413","16","0","0.01","0.0","0.0","58","classroom_post","2.0","5","450.0","2.54","0","1","1","1","1","1","0.019"
"0","0.57","6.333333333333333E-4","0.0011111111111111111","8","0","0","7.99","5","covid19_N17","run_000060","0.058823529411764705","8","7.67","10000000","3.3073360570319985","1","2.54","0","0.058823529411764705","16","0","0.01","0.0","0.0","61","classroom_post","0.0","5","450.0","2.54","0","1","1","1","1","1","0.019"
"0","0.57","6.333333333333333E-4","0.0011111111111111111","8","0","0","7.99","5","covid19_N17","run_000063","0.058823529411764705","8","7.67","10000000","3.3073360570319985","1","2.54","0","0.058823529411764705","16","0","0.01","0.0","0.0","64","classroom_post","0.0","5","450.0","2.54","0","1","1","1","1","1","0.019"
"0","0.57","6.333333333333333E-4","0.0011111111111111111","8","0","0","7.99","5","covid19_N17","run_000066","0.058823529411764705","8","7.67","10000000","3.3073360570319985","1","2.54","0","0.058823529411764705","16","0","0.01","0.0","0.0","67","classroom_post","0.0","5","450.0","2.54","0","1","1","1","1","1","0.019"
"0","0.57","6.333333333333333E-4","0.0011111111111111111","8","0","0","7.99","5","covid19_N17","run_000065","0.058823529411764705","8","7.67","10000000","3.3073360570319985","1","2.54","0","0.058823529411764705","16","0","0.01","0.0","0.0","66","classroom_post","0.0","5","450.0","2.54","0","1","1","1","1","1","0.019"
"0","0.57","6.333333333333333E-4","0.0011111111111111111","8","0","NaN","7.99","5","covid19_N17","run_000068","0.11764705882352941","8","7.67","10000000","3.3073360570319985","1","2.54","0","0.11764705882352941","16","0","0.01","0.0","0.0","69","classroom_post","1.0","5","450.0","2.54","0","1","1","1","1","1","0.019"
"0","0.57","6.333333333333333E-4","0.0011111111111111111","8","0","NaN","7.99","5","covid19_N17","run_000064","0.11764705882352941","8","7.67","10000000","3.3073360570319985","1","2.54","0","0.11764705882352941","16","0","0.01","0.0","0.0","65","classroom_post","1.0","5","450.0","2.54","0","1","1","1","1","1","0.019"
"0","0.57","6.333333333333333E-4","0.0011111111111111111","8","0","-Infinity","7.99","5","covid19_N17","run_000067","0.11764705882352941","8","7.67","10000000","3.3073360570319985","1","2.54","0","0.11764705882352941","16","0","0.01","0.0","0.0","68","classroom_post","1.0","5","450.0","2.54","0","1","1","1","1","1","0.019"
"0","0.57","6.333333333333333E-4","0.0011111111111111111","8","0","0","7.99","5","covid19_N17","run_000071","0.058823529411764705","8","7.67","10000000","3.3073360570319985","1","2.54","0","0.058823529411764705","16","0","0.01","0.0","0.0","72","classroom_post","0.0","5","450.0","2.54","0","1","1","1","1","1","0.019"
"0","0.57","6.333333333333333E-4","0.0011111111111111111","8","0","NaN","7.99","5","covid19_N17","run_000069","0.11764705882352941","8","7.67","10000000","3.3073360570319985","1","2.54","0","0.11764705882352941","16","0","0.01","0.0","0.0","70","classroom_post","1.0","5","450.0","2.54","0","1","1","1","1","1","0.019"
"0","0.57","6.333333333333333E-4","0.0011111111111111111","8","0","0","7.99","5","covid19_N17","run_000072","0.058823529411764705","8","7.67","10000000","3.3073360570319985","1","2.54","0","0.058823529411764705","16","0","0.01","0.0","0.0","73","classroom_post","0.0","5","450.0","2.54","0","1","1","1","1","1","0.019"
"0","0.57","6.333333333333333E-4","0.0011111111111111111","8","0","0","7.99","5","covid19_N17","run_000077","0.058823529411764705","8","7.67","10000000","3.3073360570319985","1","2.54","0","0.058823529411764705","16","0","0.01","0.0","0.0","77","classroom_post","0.0","5","450.0","2.54","0","1","1","1","1","1","0.019"
"0","0.57","6.333333333333333E-4","0.0011111111111111111","8","0","NaN","7.99","5","covid19_N17","run_000070","0.11764705882352941","8","7.67","10000000","3.3073360570319985","1","2.54","0","0.11764705882352941","16","0","0.01","0.0","0.0","71","classroom_post","1.0","5","450.0","2.54","0","1","1","1","1","1","0.019"
"0","0.57","6.333333333333333E-4","0.0011111111111111111","8","0","0","7.99","5","covid19_N17","run_000075","0.058823529411764705","8","7.67","10000000","3.3073360570319985","1","2.54","0","0.058823529411764705","16","0","0.01","0.0","0.0","75","classroom_post","0.0","5","450.0","2.54","0","1","1","1","1","1","0.019"
"0","0.57","6.333333333333333E-4","0.0011111111111111111","8","0","0","7.99","5","covid19_N17","run_000074","0.058823529411764705","8","7.67","10000000","3.3073360570319985","1","2.54","0","0.058823529411764705","16","0","0.01","0.0","0.0","75","classroom_post","0.0","5","450.0","2.54","0","1","1","1","1","1","0.019"
"0","0.57","6.333333333333333E-4","0.0011111111111111111","8","0","0","7.99","5","covid19_N17","run_000076","0.058823529411764705","8","7.67","10000000","3.3073360570319985","1","2.54","0","0.058823529411764705","16","0","0.01","0.0","0.0","76","classroom_post","0.0","5","450.0","2.54","0","1","1","1","1","1","0.019"
"0","0.57","6.333333333333333E-4","0.0011111111111111111","8","0","0","7.99","5","covid19_N17","run_000073","0.058823529411764705","8","7.67","10000000","3.3073360570319985","1","2.54","0","0.058823529411764705","16","0","0.01","0.0","0.0","74","classroom_post","0.0","5","450.0","2.54","0","1","1","1","1","1","0.019"
"0","0.57","6.333333333333333E-4","0.0011111111111111111","8","0","0","7.99","5","covid19_N17","run_000078","0.058823529411764705","8","7.67","10000000","3.3073360570319985","1","2.54","0","0.058823529411764705","16","0","0.01","0.0","0.0","78","classroom_post","0.0","5","450.0","2.54","0","1","1","1","1","1","0.019"
"0","0.57","6.333333333333333E-4","0.0011111111111111111","8","0","0","7.99","5","covid19_N17","run_000084","0.058823529411764705","8","7.67","10000000","3.3073360570319985","1","2.54","0","0.058823529411764705","16","0","0.01","0.0","0.0","84","classroom_post","0.0","5","450.0","2.54","0","1","1","1","1","1","0.019"
"0","0.57","6.333333333333333E-4","0.0011111111111111111","8","0","NaN","7.99","5","covid19_N17","run_000080","0.11764705882352941","8","7.67","10000000","3.3073360570319985","1","2.54","0","0.11764705882352941","16","0","0.01","0.0","0.0","80","classroom_post","1.0","5","450.0","2.54","0","1","1","1","1","1","0.019"
"0","0.57","6.333333333333333E-4","0.0011111111111111111","8","0","0","7.99","5","covid19_N17","run_000083","0.058823529411764705","8","7.67","10000000","3.3073360570319985","1","2.54","0","0.058823529411764705","16","0","0.01","0.0","0.0","83","classroom_post","0.0","5","450.0","2.54","0","1","1","1","1","1","0.019"
"0","0.57","6.333333333333333E-4","0.0011111111111111111","8","0","NaN","7.99","5","covid19_N17","run_000081","0.11764705882352941","8","7.67","10000000","3.3073360570319985","1","2.54","0","0.11764705882352941","16","0","0.01","0.0","0.0","81","classroom_post","1.0","5","450.0","2.54","0","1","1","1","1","1","0.019"
"0","0.57","6.333333333333333E-4","0.0011111111111111111","8","0","0","7.99","5","covid19_N17","run_000079","0.058823529411764705","8","7.67","10000000","3.3073360570319985","1","2.54","0","0.058823529411764705","16","0","0.01","0.0","0.0","79","classroom_post","0.0","5","450.0","2.54","0","1","1","1","1","1","0.019"
"0","0.57","6.333333333333333E-4","0.0011111111111111111","8","0","0","7.99","5","covid19_N17","run_000088","0.058823529411764705","8","7.67","10000000","3.3073360570319985","1","2.54","0","0.058823529411764705","16","0","0.01","0.0","0.0","88","classroom_post","0.0","5","450.0","2.54","0","1","1","1","1","1","0.019"
"0","0.57","6.333333333333333E-4","0.0011111111111111111","8","0","0","7.99","5","covid19_N17","run_000085","0.058823529411764705","8","7.67","10000000","3.3073360570319985","1","2.54","0","0.058823529411764705","16","0","0.01","0.0","0.0","85","classroom_post","0.0","5","450.0","2.54","0","1","1","1","1","1","0.019"
"0","0.57","6.333333333333333E-4","0.0011111111111111111","8","0","0","7.99","5","covid19_N17","run_000086","0.058823529411764705","8","7.67","10000000","3.3073360570319985","1","2.54","0","0.058823529411764705","16","0","0.01","0.0","0.0","86","classroom_post","0.0","5","450.0","2.54","0","1","1","1","1","1","0.019"
"0","0.57","6.333333333333333E-4","0.0011111111111111111","8","0","0","7.99","5","covid19_N17","run_000082","0.058823529411764705","8","7.67","10000000","3.3073360570319985","1","2.54","0","0.058823529411764705","16","0","0.01","0.0","0.0","82","classroom_post","0.0","5","450.0","2.54","0","1","1","1","1","1","0.019"
"0","0.57","6.333333333333333E-4","0.0011111111111111111","8","0","0","7.99","5","covid19_N17","run_000092","0.058823529411764705","8","7.67","10000000","3.3073360570319985","1","2.54","0","0.058823529411764705","16","0","0.01","0.0","0.0","92","classroom_post","0.0","5","450.0","2.54","0","1","1","1","1","1","0.019"
"0","0.57","6.333333333333333E-4","0.0011111111111111111","8","0","NaN","7.99","5","covid19_N17","run_000091","0.11764705882352941","8","7.67","10000000","3.3073360570319985","1","2.54","0","0.11764705882352941","16","0","0.01","0.0","0.0","91","classroom_post","1.0","5","450.0","2.54","0","1","1","1","1","1","0.019"
"0","0.57","6.333333333333333E-4","0.0011111111111111111","8","0","0","7.99","5","covid19_N17","run_000093","0.058823529411764705","8","7.67","10000000","3.3073360570319985","1","2.54","0","0.058823529411764705","16","0","0.01","0.0","0.0","93","classroom_post","0.0","5","450.0","2.54","0","1","1","1","1","1","0.019"
"0","0.57","6.333333333333333E-4","0.0011111111111111111","8","0","0","7.99","5","covid19_N17","run_000087","0.058823529411764705","8","7.67","10000000","3.3073360570319985","1","2.54","0","0.058823529411764705","16","0","0.01","0.0","0.0","87","classroom_post","0.0","5","450.0","2.54","0","1","1","1","1","1","0.019"
"0","0.57","6.333333333333333E-4","0.0011111111111111111","8","0","NaN","7.99","5","covid19_N17","run_000095","0.17647058823529413","8","7.67","10000000","3.3073360570319985","1","2.54","0","0.17647058823529413","16","0","0.01","0.0","0.0","95","classroom_post","2.0","5","450.0","2.54","0","1","1","1","1","1","0.019"
"0","0.57","6.333333333333333E-4","0.0011111111111111111","8","0","0","7.99","5","covid19_N17","run_000090","0.058823529411764705","8","7.67","10000000","3.3073360570319985","1","2.54","0","0.058823529411764705","16","0","0.01","0.0","0.0","90","classroom_post","0.0","5","450.0","2.54","0","1","1","1","1","1","0.019"
"0","0.57","6.333333333333333E-4","0.0011111111111111111","8","0","0","7.99","5","covid19_N17","run_000089","0.058823529411764705","8","7.67","10000000","3.3073360570319985","1","2.54","0","0.058823529411764705","16","0","0.01","0.0","0.0","89","classroom_post","0.0","5","450.0","2.54","0","1","1","1","1","1","0.019"
"0","0.57","6.333333333333333E-4","0.0011111111111111111","8","0","NaN","7.99","5","covid19_N17","run_000094","0.11764705882352941","8","7.67","10000000","3.3073360570319985","1","2.54","0","0.11764705882352941","16","0","0.01","0.0","0.0","94","classroom_post","1.0","5","450.0","2.54","0","1","1","1","1","1","0.019"
"0","0.57","6.333333333333333E-4","0.0011111111111111111","8","0","0","7.99","5","covid19_N17","run_000099","0.058823529411764705","8","7.67","10000000","3.3073360570319985","1","2.54","0","0.058823529411764705","16","0","0.01","0.0","0.0","99","classroom_post","0.0","5","450.0","2.54","0","1","1","1","1","1","0.019"
"0","0.57","6.333333333333333E-4","0.0011111111111111111","8","0","NaN","7.99","5","covid19_N17","run_000097","0.11764705882352941","8","7.67","10000000","3.3073360570319985","1","2.54","0","0.11764705882352941","16","0","0.01","0.0","0.0","97","classroom_post","1.0","5","450.0","2.54","0","1","1","1","1","1","0.019"
"0","0.57","6.333333333333333E-4","0.0011111111111111111","8","0","NaN","7.99","5","covid19_N17","run_000098","0.11764705882352941","8","7.67","10000000","3.3073360570319985","1","2.54","0","0.11764705882352941","16","0","0.01","0.0","0.0","98","classroom_post","1.0","5","450.0","2.54","0","1","1","1","1","1","0.019"
"0","0.57","6.333333333333333E-4","0.0011111111111111111","8","0","0","7.99","5","covid19_N17","run_000096","0.058823529411764705","8","7.67","10000000","3.3073360570319985","1","2.54","0","0.058823529411764705","16","0","0.01","0.0","0.0","96","classroom_post","0.0","5","450.0","2.54","0","1","1","1","1","1","0.019"
