"ADULT_SYMPTOMATIC_PROB","B0","BREATHING_INHALATION_VOLUME","BREATHING_INTERVAL_TIME","D","DEAD","DIFFERENT_CELL_COMPARISSION","DURATION","EP0","EXECUTABLE","EXPERIMENT_ID","FINAL_EPIDEMIC_SIZE","FORCE_TERMINATION_AT","GRID_SIZE","H","Hr","INCUBATION_TIME_M","INFECTION_RISK","INITIAL_INFECTED","LAMBDA","LOG_LEVEL","MAX_INFECTED","NSUS","OLD_SYMPTOMATIC_PROB","OUTPUT_UPDATE_DT","R0","R0_1third","RANDOM_SEED","SCENARIO","SECONDARY_CASES","SYMPTOMATIC_EMISSION_RATE","V","VOLUME_CONCENTRATION_LAMBDA","YOUNG_SYMPTOMATIC_PROB","fE","fExfI","fI","rB","rE","secondary_cases"
"0","0.288","2.464E-4","0.0011111111111111111","2.5","0","0","2.49","18.6","covid19_N11","run_000004","0.09090909090909091","2.5","5.54","0.009","9.0E-4","10000000","2.183225231992999","1","5.8","0","0.09090909090909091","10","0","0.01","0.0","0.0","4","classroom_post","0.0","9.3","170.0","5.8","0","0.5","0.35","0.7","1.1","1","0.048"
"0","0.288","2.464E-4","0.0011111111111111111","2.5","0","0","2.49","18.6","covid19_N11","run_000006","0.09090909090909091","2.5","5.54","0.009","9.0E-4","10000000","2.183225231992999","1","5.8","0","0.09090909090909091","10","0","0.01","0.0","0.0","6","classroom_post","0.0","9.3","170.0","5.8","0","0.5","0.35","0.7","1.1","1","0.048"
"0","0.288","2.464E-4","0.0011111111111111111","2.5","0","0","2.49","18.6","covid19_N11","run_000000","0.09090909090909091","2.5","5.54","0.009","9.0E-4","10000000","2.183225231992999","1","5.8","0","0.09090909090909091","10","0","0.01","0.0","0.0","0","classroom_post","0.0","9.3","170.0","5.8","0","0.5","0.35","0.7","1.1","1","0.048"
"0","0.288","2.464E-4","0.0011111111111111111","2.5","0","0","2.49","18.6","covid19_N11","run_000003","0.09090909090909091","2.5","5.54","0.009","9.0E-4","10000000","2.183225231992999","1","5.8","0","0.09090909090909091","10","0","0.01","0.0","0.0","3","classroom_post","0.0","9.3","170.0","5.8","0","0.5","0.35","0.7","1.1","1","0.048"
"0","0.288","2.464E-4","0.0011111111111111111","2.5","0","0","2.49","18.6","covid19_N11","run_000002","0.09090909090909091","2.5","5.54","0.009","9.0E-4","10000000","2.183225231992999","1","5.8","0","0.09090909090909091","10","0","0.01","0.0","0.0","2","classroom_post","0.0","9.3","170.0","5.8","0","0.5","0.35","0.7","1.1","1","0.048"
"0","0.288","2.464E-4","0.0011111111111111111","2.5","0","0","2.49","18.6","covid19_N11","run_000001","0.09090909090909091","2.5","5.54","0.009","9.0E-4","10000000","2.183225231992999","1","5.8","0","0.09090909090909091","10","0","0.01","0.0","0.0","1","classroom_post","0.0","9.3","170.0","5.8","0","0.5","0.35","0.7","1.1","1","0.048"
"0","0.288","2.464E-4","0.0011111111111111111","2.5","0","0","2.49","18.6","covid19_N11","run_000007","0.09090909090909091","2.5","5.54","0.009","9.0E-4","10000000","2.183225231992999","1","5.8","0","0.09090909090909091","10","0","0.01","0.0","0.0","7","classroom_post","0.0","9.3","170.0","5.8","0","0.5","0.35","0.7","1.1","1","0.048"
"0","0.288","2.464E-4","0.0011111111111111111","2.5","0","0","2.49","18.6","covid19_N11","run_000005","0.09090909090909091","2.5","5.54","0.009","9.0E-4","10000000","2.183225231992999","1","5.8","0","0.09090909090909091","10","0","0.01","0.0","0.0","5","classroom_post","0.0","9.3","170.0","5.8","0","0.5","0.35","0.7","1.1","1","0.048"
"0","0.288","2.464E-4","0.0011111111111111111","2.5","0","0","2.49","18.6","covid19_N11","run_000013","0.09090909090909091","2.5","5.54","0.009","9.0E-4","10000000","2.183225231992999","1","5.8","0","0.09090909090909091","10","0","0.01","0.0","0.0","13","classroom_post","0.0","9.3","170.0","5.8","0","0.5","0.35","0.7","1.1","1","0.048"
"0","0.288","2.464E-4","0.0011111111111111111","2.5","0","0","2.49","18.6","covid19_N11","run_000012","0.09090909090909091","2.5","5.54","0.009","9.0E-4","10000000","2.183225231992999","1","5.8","0","0.09090909090909091","10","0","0.01","0.0","0.0","12","classroom_post","0.0","9.3","170.0","5.8","0","0.5","0.35","0.7","1.1","1","0.048"
"0","0.288","2.464E-4","0.0011111111111111111","2.5","0","0","2.49","18.6","covid19_N11","run_000014","0.09090909090909091","2.5","5.54","0.009","9.0E-4","10000000","2.183225231992999","1","5.8","0","0.09090909090909091","10","0","0.01","0.0","0.0","14","classroom_post","0.0","9.3","170.0","5.8","0","0.5","0.35","0.7","1.1","1","0.048"
"0","0.288","2.464E-4","0.0011111111111111111","2.5","0","0","2.49","18.6","covid19_N11","run_000008","0.09090909090909091","2.5","5.54","0.009","9.0E-4","10000000","2.183225231992999","1","5.8","0","0.09090909090909091","10","0","0.01","0.0","0.0","8","classroom_post","0.0","9.3","170.0","5.8","0","0.5","0.35","0.7","1.1","1","0.048"
"0","0.288","2.464E-4","0.0011111111111111111","2.5","0","0","2.49","18.6","covid19_N11","run_000010","0.09090909090909091","2.5","5.54","0.009","9.0E-4","10000000","2.183225231992999","1","5.8","0","0.09090909090909091","10","0","0.01","0.0","0.0","10","classroom_post","0.0","9.3","170.0","5.8","0","0.5","0.35","0.7","1.1","1","0.048"
"0","0.288","2.464E-4","0.0011111111111111111","2.5","0","0","2.49","18.6","covid19_N11","run_000009","0.09090909090909091","2.5","5.54","0.009","9.0E-4","10000000","2.183225231992999","1","5.8","0","0.09090909090909091","10","0","0.01","0.0","0.0","9","classroom_post","0.0","9.3","170.0","5.8","0","0.5","0.35","0.7","1.1","1","0.048"
"0","0.288","2.464E-4","0.0011111111111111111","2.5","0","0","2.49","18.6","covid19_N11","run_000015","0.09090909090909091","2.5","5.54","0.009","9.0E-4","10000000","2.183225231992999","1","5.8","0","0.09090909090909091","10","0","0.01","0.0","0.0","15","classroom_post","0.0","9.3","170.0","5.8","0","0.5","0.35","0.7","1.1","1","0.048"
"0","0.288","2.464E-4","0.0011111111111111111","2.5","0","0","2.49","18.6","covid19_N11","run_000011","0.09090909090909091","2.5","5.54","0.009","9.0E-4","10000000","2.183225231992999","1","5.8","0","0.09090909090909091","10","0","0.01","0.0","0.0","11","classroom_post","0.0","9.3","170.0","5.8","0","0.5","0.35","0.7","1.1","1","0.048"
"0","0.288","2.464E-4","0.0011111111111111111","2.5","0","0","2.49","18.6","covid19_N11","run_000018","0.09090909090909091","2.5","5.54","0.009","9.0E-4","10000000","2.183225231992999","1","5.8","0","0.09090909090909091","10","0","0.01","0.0","0.0","18","classroom_post","0.0","9.3","170.0","5.8","0","0.5","0.35","0.7","1.1","1","0.048"
"0","0.288","2.464E-4","0.0011111111111111111","2.5","0","0","2.49","18.6","covid19_N11","run_000020","0.09090909090909091","2.5","5.54","0.009","9.0E-4","10000000","2.183225231992999","1","5.8","0","0.09090909090909091","10","0","0.01","0.0","0.0","20","classroom_post","0.0","9.3","170.0","5.8","0","0.5","0.35","0.7","1.1","1","0.048"
"0","0.288","2.464E-4","0.0011111111111111111","2.5","0","0","2.49","18.6","covid19_N11","run_000021","0.09090909090909091","2.5","5.54","0.009","9.0E-4","10000000","2.183225231992999","1","5.8","0","0.09090909090909091","10","0","0.01","0.0","0.0","21","classroom_post","0.0","9.3","170.0","5.8","0","0.5","0.35","0.7","1.1","1","0.048"
"0","0.288","2.464E-4","0.0011111111111111111","2.5","0","0","2.49","18.6","covid19_N11","run_000019","0.09090909090909091","2.5","5.54","0.009","9.0E-4","10000000","2.183225231992999","1","5.8","0","0.09090909090909091","10","0","0.01","0.0","0.0","19","classroom_post","0.0","9.3","170.0","5.8","0","0.5","0.35","0.7","1.1","1","0.048"
"0","0.288","2.464E-4","0.0011111111111111111","2.5","0","0","2.49","18.6","covid19_N11","run_000023","0.09090909090909091","2.5","5.54","0.009","9.0E-4","10000000","2.183225231992999","1","5.8","0","0.09090909090909091","10","0","0.01","0.0","0.0","23","classroom_post","0.0","9.3","170.0","5.8","0","0.5","0.35","0.7","1.1","1","0.048"
"0","0.288","2.464E-4","0.0011111111111111111","2.5","0","0","2.49","18.6","covid19_N11","run_000016","0.09090909090909091","2.5","5.54","0.009","9.0E-4","10000000","2.183225231992999","1","5.8","0","0.09090909090909091","10","0","0.01","0.0","0.0","16","classroom_post","0.0","9.3","170.0","5.8","0","0.5","0.35","0.7","1.1","1","0.048"
"0","0.288","2.464E-4","0.0011111111111111111","2.5","0","0","2.49","18.6","covid19_N11","run_000017","0.09090909090909091","2.5","5.54","0.009","9.0E-4","10000000","2.183225231992999","1","5.8","0","0.09090909090909091","10","0","0.01","0.0","0.0","17","classroom_post","0.0","9.3","170.0","5.8","0","0.5","0.35","0.7","1.1","1","0.048"
"0","0.288","2.464E-4","0.0011111111111111111","2.5","0","0","2.49","18.6","covid19_N11","run_000022","0.09090909090909091","2.5","5.54","0.009","9.0E-4","10000000","2.183225231992999","1","5.8","0","0.09090909090909091","10","0","0.01","0.0","0.0","22","classroom_post","0.0","9.3","170.0","5.8","0","0.5","0.35","0.7","1.1","1","0.048"
"0","0.288","2.464E-4","0.0011111111111111111","2.5","0","0","2.49","18.6","covid19_N11","run_000026","0.09090909090909091","2.5","5.54","0.009","9.0E-4","10000000","2.183225231992999","1","5.8","0","0.09090909090909091","10","0","0.01","0.0","0.0","26","classroom_post","0.0","9.3","170.0","5.8","0","0.5","0.35","0.7","1.1","1","0.048"
"0","0.288","2.464E-4","0.0011111111111111111","2.5","0","0","2.49","18.6","covid19_N11","run_000024","0.09090909090909091","2.5","5.54","0.009","9.0E-4","10000000","2.183225231992999","1","5.8","0","0.09090909090909091","10","0","0.01","0.0","0.0","24","classroom_post","0.0","9.3","170.0","5.8","0","0.5","0.35","0.7","1.1","1","0.048"
"0","0.288","2.464E-4","0.0011111111111111111","2.5","0","0","2.49","18.6","covid19_N11","run_000029","0.09090909090909091","2.5","5.54","0.009","9.0E-4","10000000","2.183225231992999","1","5.8","0","0.09090909090909091","10","0","0.01","0.0","0.0","29","classroom_post","0.0","9.3","170.0","5.8","0","0.5","0.35","0.7","1.1","1","0.048"
"0","0.288","2.464E-4","0.0011111111111111111","2.5","0","0","2.49","18.6","covid19_N11","run_000030","0.09090909090909091","2.5","5.54","0.009","9.0E-4","10000000","2.183225231992999","1","5.8","0","0.09090909090909091","10","0","0.01","0.0","0.0","30","classroom_post","0.0","9.3","170.0","5.8","0","0.5","0.35","0.7","1.1","1","0.048"
"0","0.288","2.464E-4","0.0011111111111111111","2.5","0","0","2.49","18.6","covid19_N11","run_000025","0.09090909090909091","2.5","5.54","0.009","9.0E-4","10000000","2.183225231992999","1","5.8","0","0.09090909090909091","10","0","0.01","0.0","0.0","25","classroom_post","0.0","9.3","170.0","5.8","0","0.5","0.35","0.7","1.1","1","0.048"
"0","0.288","2.464E-4","0.0011111111111111111","2.5","0","0","2.49","18.6","covid19_N11","run_000034","0.09090909090909091","2.5","5.54","0.009","9.0E-4","10000000","2.183225231992999","1","5.8","0","0.09090909090909091","10","0","0.01","0.0","0.0","34","classroom_post","0.0","9.3","170.0","5.8","0","0.5","0.35","0.7","1.1","1","0.048"
"0","0.288","2.464E-4","0.0011111111111111111","2.5","0","0","2.49","18.6","covid19_N11","run_000035","0.09090909090909091","2.5","5.54","0.009","9.0E-4","10000000","2.183225231992999","1","5.8","0","0.09090909090909091","10","0","0.01","0.0","0.0","35","classroom_post","0.0","9.3","170.0","5.8","0","0.5","0.35","0.7","1.1","1","0.048"
"0","0.288","2.464E-4","0.0011111111111111111","2.5","0","0","2.49","18.6","covid19_N11","run_000036","0.09090909090909091","2.5","5.54","0.009","9.0E-4","10000000","2.183225231992999","1","5.8","0","0.09090909090909091","10","0","0.01","0.0","0.0","36","classroom_post","0.0","9.3","170.0","5.8","0","0.5","0.35","0.7","1.1","1","0.048"
"0","0.288","2.464E-4","0.0011111111111111111","2.5","0","0","2.49","18.6","covid19_N11","run_000031","0.09090909090909091","2.5","5.54","0.009","9.0E-4","10000000","2.183225231992999","1","5.8","0","0.09090909090909091","10","0","0.01","0.0","0.0","31","classroom_post","0.0","9.3","170.0","5.8","0","0.5","0.35","0.7","1.1","1","0.048"
"0","0.288","2.464E-4","0.0011111111111111111","2.5","0","0","2.49","18.6","covid19_N11","run_000038","0.09090909090909091","2.5","5.54","0.009","9.0E-4","10000000","2.183225231992999","1","5.8","0","0.09090909090909091","10","0","0.01","0.0","0.0","38","classroom_post","0.0","9.3","170.0","5.8","0","0.5","0.35","0.7","1.1","1","0.048"
"0","0.288","2.464E-4","0.0011111111111111111","2.5","0","0","2.49","18.6","covid19_N11","run_000039","0.09090909090909091","2.5","5.54","0.009","9.0E-4","10000000","2.183225231992999","1","5.8","0","0.09090909090909091","10","0","0.01","0.0","0.0","39","classroom_post","0.0","9.3","170.0","5.8","0","0.5","0.35","0.7","1.1","1","0.048"
"0","0.288","2.464E-4","0.0011111111111111111","2.5","0","0","2.49","18.6","covid19_N11","run_000028","0.09090909090909091","2.5","5.54","0.009","9.0E-4","10000000","2.183225231992999","1","5.8","0","0.09090909090909091","10","0","0.01","0.0","0.0","28","classroom_post","0.0","9.3","170.0","5.8","0","0.5","0.35","0.7","1.1","1","0.048"
"0","0.288","2.464E-4","0.0011111111111111111","2.5","0","0","2.49","18.6","covid19_N11","run_000040","0.09090909090909091","2.5","5.54","0.009","9.0E-4","10000000","2.183225231992999","1","5.8","0","0.09090909090909091","10","0","0.01","0.0","0.0","40","classroom_post","0.0","9.3","170.0","5.8","0","0.5","0.35","0.7","1.1","1","0.048"
"0","0.288","2.464E-4","0.0011111111111111111","2.5","0","0","2.49","18.6","covid19_N11","run_000032","0.09090909090909091","2.5","5.54","0.009","9.0E-4","10000000","2.183225231992999","1","5.8","0","0.09090909090909091","10","0","0.01","0.0","0.0","32","classroom_post","0.0","9.3","170.0","5.8","0","0.5","0.35","0.7","1.1","1","0.048"
"0","0.288","2.464E-4","0.0011111111111111111","2.5","0","0","2.49","18.6","covid19_N11","run_000027","0.09090909090909091","2.5","5.54","0.009","9.0E-4","10000000","2.183225231992999","1","5.8","0","0.09090909090909091","10","0","0.01","0.0","0.0","27","classroom_post","0.0","9.3","170.0","5.8","0","0.5","0.35","0.7","1.1","1","0.048"
"0","0.288","2.464E-4","0.0011111111111111111","2.5","0","0","2.49","18.6","covid19_N11","run_000033","0.09090909090909091","2.5","5.54","0.009","9.0E-4","10000000","2.183225231992999","1","5.8","0","0.09090909090909091","10","0","0.01","0.0","0.0","33","classroom_post","0.0","9.3","170.0","5.8","0","0.5","0.35","0.7","1.1","1","0.048"
"0","0.288","2.464E-4","0.0011111111111111111","2.5","0","0","2.49","18.6","covid19_N11","run_000045","0.09090909090909091","2.5","5.54","0.009","9.0E-4","10000000","2.183225231992999","1","5.8","0","0.09090909090909091","10","0","0.01","0.0","0.0","45","classroom_post","0.0","9.3","170.0","5.8","0","0.5","0.35","0.7","1.1","1","0.048"
"0","0.288","2.464E-4","0.0011111111111111111","2.5","0","0","2.49","18.6","covid19_N11","run_000046","0.09090909090909091","2.5","5.54","0.009","9.0E-4","10000000","2.183225231992999","1","5.8","0","0.09090909090909091","10","0","0.01","0.0","0.0","46","classroom_post","0.0","9.3","170.0","5.8","0","0.5","0.35","0.7","1.1","1","0.048"
"0","0.288","2.464E-4","0.0011111111111111111","2.5","0","0","2.49","18.6","covid19_N11","run_000048","0.09090909090909091","2.5","5.54","0.009","9.0E-4","10000000","2.183225231992999","1","5.8","0","0.09090909090909091","10","0","0.01","0.0","0.0","48","classroom_post","0.0","9.3","170.0","5.8","0","0.5","0.35","0.7","1.1","1","0.048"
"0","0.288","2.464E-4","0.0011111111111111111","2.5","0","0","2.49","18.6","covid19_N11","run_000037","0.09090909090909091","2.5","5.54","0.009","9.0E-4","10000000","2.183225231992999","1","5.8","0","0.09090909090909091","10","0","0.01","0.0","0.0","37","classroom_post","0.0","9.3","170.0","5.8","0","0.5","0.35","0.7","1.1","1","0.048"
"0","0.288","2.464E-4","0.0011111111111111111","2.5","0","0","2.49","18.6","covid19_N11","run_000041","0.09090909090909091","2.5","5.54","0.009","9.0E-4","10000000","2.183225231992999","1","5.8","0","0.09090909090909091","10","0","0.01","0.0","0.0","41","classroom_post","0.0","9.3","170.0","5.8","0","0.5","0.35","0.7","1.1","1","0.048"
"0","0.288","2.464E-4","0.0011111111111111111","2.5","0","0","2.49","18.6","covid19_N11","run_000042","0.09090909090909091","2.5","5.54","0.009","9.0E-4","10000000","2.183225231992999","1","5.8","0","0.09090909090909091","10","0","0.01","0.0","0.0","42","classroom_post","0.0","9.3","170.0","5.8","0","0.5","0.35","0.7","1.1","1","0.048"
"0","0.288","2.464E-4","0.0011111111111111111","2.5","0","0","2.49","18.6","covid19_N11","run_000051","0.09090909090909091","2.5","5.54","0.009","9.0E-4","10000000","2.183225231992999","1","5.8","0","0.09090909090909091","10","0","0.01","0.0","0.0","51","classroom_post","0.0","9.3","170.0","5.8","0","0.5","0.35","0.7","1.1","1","0.048"
"0","0.288","2.464E-4","0.0011111111111111111","2.5","0","0","2.49","18.6","covid19_N11","run_000052","0.09090909090909091","2.5","5.54","0.009","9.0E-4","10000000","2.183225231992999","1","5.8","0","0.09090909090909091","10","0","0.01","0.0","0.0","52","classroom_post","0.0","9.3","170.0","5.8","0","0.5","0.35","0.7","1.1","1","0.048"
"0","0.288","2.464E-4","0.0011111111111111111","2.5","0","0","2.49","18.6","covid19_N11","run_000047","0.09090909090909091","2.5","5.54","0.009","9.0E-4","10000000","2.183225231992999","1","5.8","0","0.09090909090909091","10","0","0.01","0.0","0.0","47","classroom_post","0.0","9.3","170.0","5.8","0","0.5","0.35","0.7","1.1","1","0.048"
"0","0.288","2.464E-4","0.0011111111111111111","2.5","0","0","2.49","18.6","covid19_N11","run_000043","0.09090909090909091","2.5","5.54","0.009","9.0E-4","10000000","2.183225231992999","1","5.8","0","0.09090909090909091","10","0","0.01","0.0","0.0","43","classroom_post","0.0","9.3","170.0","5.8","0","0.5","0.35","0.7","1.1","1","0.048"
"0","0.288","2.464E-4","0.0011111111111111111","2.5","0","0","2.49","18.6","covid19_N11","run_000050","0.09090909090909091","2.5","5.54","0.009","9.0E-4","10000000","2.183225231992999","1","5.8","0","0.09090909090909091","10","0","0.01","0.0","0.0","50","classroom_post","0.0","9.3","170.0","5.8","0","0.5","0.35","0.7","1.1","1","0.048"
"0","0.288","2.464E-4","0.0011111111111111111","2.5","0","0","2.49","18.6","covid19_N11","run_000044","0.09090909090909091","2.5","5.54","0.009","9.0E-4","10000000","2.183225231992999","1","5.8","0","0.09090909090909091","10","0","0.01","0.0","0.0","44","classroom_post","0.0","9.3","170.0","5.8","0","0.5","0.35","0.7","1.1","1","0.048"
"0","0.288","2.464E-4","0.0011111111111111111","2.5","0","0","2.49","18.6","covid19_N11","run_000058","0.09090909090909091","2.5","5.54","0.009","9.0E-4","10000000","2.183225231992999","1","5.8","0","0.09090909090909091","10","0","0.01","0.0","0.0","59","classroom_post","0.0","9.3","170.0","5.8","0","0.5","0.35","0.7","1.1","1","0.048"
"0","0.288","2.464E-4","0.0011111111111111111","2.5","0","0","2.49","18.6","covid19_N11","run_000049","0.09090909090909091","2.5","5.54","0.009","9.0E-4","10000000","2.183225231992999","1","5.8","0","0.09090909090909091","10","0","0.01","0.0","0.0","49","classroom_post","0.0","9.3","170.0","5.8","0","0.5","0.35","0.7","1.1","1","0.048"
"0","0.288","2.464E-4","0.0011111111111111111","2.5","0","0","2.49","18.6","covid19_N11","run_000054","0.09090909090909091","2.5","5.54","0.009","9.0E-4","10000000","2.183225231992999","1","5.8","0","0.09090909090909091","10","0","0.01","0.0","0.0","54","classroom_post","0.0","9.3","170.0","5.8","0","0.5","0.35","0.7","1.1","1","0.048"
"0","0.288","2.464E-4","0.0011111111111111111","2.5","0","0","2.49","18.6","covid19_N11","run_000053","0.09090909090909091","2.5","5.54","0.009","9.0E-4","10000000","2.183225231992999","1","5.8","0","0.09090909090909091","10","0","0.01","0.0","0.0","53","classroom_post","0.0","9.3","170.0","5.8","0","0.5","0.35","0.7","1.1","1","0.048"
"0","0.288","2.464E-4","0.0011111111111111111","2.5","0","0","2.49","18.6","covid19_N11","run_000060","0.09090909090909091","2.5","5.54","0.009","9.0E-4","10000000","2.183225231992999","1","5.8","0","0.09090909090909091","10","0","0.01","0.0","0.0","61","classroom_post","0.0","9.3","170.0","5.8","0","0.5","0.35","0.7","1.1","1","0.048"
"0","0.288","2.464E-4","0.0011111111111111111","2.5","0","0","2.49","18.6","covid19_N11","run_000056","0.09090909090909091","2.5","5.54","0.009","9.0E-4","10000000","2.183225231992999","1","5.8","0","0.09090909090909091","10","0","0.01","0.0","0.0","56","classroom_post","0.0","9.3","170.0","5.8","0","0.5","0.35","0.7","1.1","1","0.048"
"0","0.288","2.464E-4","0.0011111111111111111","2.5","0","0","2.49","18.6","covid19_N11","run_000059","0.09090909090909091","2.5","5.54","0.009","9.0E-4","10000000","2.183225231992999","1","5.8","0","0.09090909090909091","10","0","0.01","0.0","0.0","60","classroom_post","0.0","9.3","170.0","5.8","0","0.5","0.35","0.7","1.1","1","0.048"
"0","0.288","2.464E-4","0.0011111111111111111","2.5","0","0","2.49","18.6","covid19_N11","run_000057","0.09090909090909091","2.5","5.54","0.009","9.0E-4","10000000","2.183225231992999","1","5.8","0","0.09090909090909091","10","0","0.01","0.0","0.0","58","classroom_post","0.0","9.3","170.0","5.8","0","0.5","0.35","0.7","1.1","1","0.048"
"0","0.288","2.464E-4","0.0011111111111111111","2.5","0","0","2.49","18.6","covid19_N11","run_000063","0.09090909090909091","2.5","5.54","0.009","9.0E-4","10000000","2.183225231992999","1","5.8","0","0.09090909090909091","10","0","0.01","0.0","0.0","64","classroom_post","0.0","9.3","170.0","5.8","0","0.5","0.35","0.7","1.1","1","0.048"
"0","0.288","2.464E-4","0.0011111111111111111","2.5","0","0","2.49","18.6","covid19_N11","run_000061","0.09090909090909091","2.5","5.54","0.009","9.0E-4","10000000","2.183225231992999","1","5.8","0","0.09090909090909091","10","0","0.01","0.0","0.0","62","classroom_post","0.0","9.3","170.0","5.8","0","0.5","0.35","0.7","1.1","1","0.048"
"0","0.288","2.464E-4","0.0011111111111111111","2.5","0","0","2.49","18.6","covid19_N11","run_000067","0.09090909090909091","2.5","5.54","0.009","9.0E-4","10000000","2.183225231992999","1","5.8","0","0.09090909090909091","10","0","0.01","0.0","0.0","68","classroom_post","0.0","9.3","170.0","5.8","0","0.5","0.35","0.7","1.1","1","0.048"
"0","0.288","2.464E-4","0.0011111111111111111","2.5","0","0","2.49","18.6","covid19_N11","run_000068","0.09090909090909091","2.5","5.54","0.009","9.0E-4","10000000","2.183225231992999","1","5.8","0","0.09090909090909091","10","0","0.01","0.0","0.0","69","classroom_post","0.0","9.3","170.0","5.8","0","0.5","0.35","0.7","1.1","1","0.048"
"0","0.288","2.464E-4","0.0011111111111111111","2.5","0","0","2.49","18.6","covid19_N11","run_000069","0.09090909090909091","2.5","5.54","0.009","9.0E-4","10000000","2.183225231992999","1","5.8","0","0.09090909090909091","10","0","0.01","0.0","0.0","70","classroom_post","0.0","9.3","170.0","5.8","0","0.5","0.35","0.7","1.1","1","0.048"
"0","0.288","2.464E-4","0.0011111111111111111","2.5","0","0","2.49","18.6","covid19_N11","run_000070","0.09090909090909091","2.5","5.54","0.009","9.0E-4","10000000","2.183225231992999","1","5.8","0","0.09090909090909091","10","0","0.01","0.0","0.0","71","classroom_post","0.0","9.3","170.0","5.8","0","0.5","0.35","0.7","1.1","1","0.048"
"0","0.288","2.464E-4","0.0011111111111111111","2.5","0","0","2.49","18.6","covid19_N11","run_000072","0.09090909090909091","2.5","5.54","0.009","9.0E-4","10000000","2.183225231992999","1","5.8","0","0.09090909090909091","10","0","0.01","0.0","0.0","73","classroom_post","0.0","9.3","170.0","5.8","0","0.5","0.35","0.7","1.1","1","0.048"
"0","0.288","2.464E-4","0.0011111111111111111","2.5","0","0","2.49","18.6","covid19_N11","run_000064","0.09090909090909091","2.5","5.54","0.009","9.0E-4","10000000","2.183225231992999","1","5.8","0","0.09090909090909091","10","0","0.01","0.0","0.0","65","classroom_post","0.0","9.3","170.0","5.8","0","0.5","0.35","0.7","1.1","1","0.048"
"0","0.288","2.464E-4","0.0011111111111111111","2.5","0","0","2.49","18.6","covid19_N11","run_000062","0.09090909090909091","2.5","5.54","0.009","9.0E-4","10000000","2.183225231992999","1","5.8","0","0.09090909090909091","10","0","0.01","0.0","0.0","63","classroom_post","0.0","9.3","170.0","5.8","0","0.5","0.35","0.7","1.1","1","0.048"
"0","0.288","2.464E-4","0.0011111111111111111","2.5","0","0","2.49","18.6","covid19_N11","run_000065","0.09090909090909091","2.5","5.54","0.009","9.0E-4","10000000","2.183225231992999","1","5.8","0","0.09090909090909091","10","0","0.01","0.0","0.0","66","classroom_post","0.0","9.3","170.0","5.8","0","0.5","0.35","0.7","1.1","1","0.048"
"0","0.288","2.464E-4","0.0011111111111111111","2.5","0","0","2.49","18.6","covid19_N11","run_000055","0.09090909090909091","2.5","5.54","0.009","9.0E-4","10000000","2.183225231992999","1","5.8","0","0.09090909090909091","10","0","0.01","0.0","0.0","55","classroom_post","0.0","9.3","170.0","5.8","0","0.5","0.35","0.7","1.1","1","0.048"
"0","0.288","2.464E-4","0.0011111111111111111","2.5","0","0","2.49","18.6","covid19_N11","run_000074","0.09090909090909091","2.5","5.54","0.009","9.0E-4","10000000","2.183225231992999","1","5.8","0","0.09090909090909091","10","0","0.01","0.0","0.0","75","classroom_post","0.0","9.3","170.0","5.8","0","0.5","0.35","0.7","1.1","1","0.048"
"0","0.288","2.464E-4","0.0011111111111111111","2.5","0","0","2.49","18.6","covid19_N11","run_000076","0.09090909090909091","2.5","5.54","0.009","9.0E-4","10000000","2.183225231992999","1","5.8","0","0.09090909090909091","10","0","0.01","0.0","0.0","76","classroom_post","0.0","9.3","170.0","5.8","0","0.5","0.35","0.7","1.1","1","0.048"
"0","0.288","2.464E-4","0.0011111111111111111","2.5","0","0","2.49","18.6","covid19_N11","run_000077","0.09090909090909091","2.5","5.54","0.009","9.0E-4","10000000","2.183225231992999","1","5.8","0","0.09090909090909091","10","0","0.01","0.0","0.0","77","classroom_post","0.0","9.3","170.0","5.8","0","0.5","0.35","0.7","1.1","1","0.048"
"0","0.288","2.464E-4","0.0011111111111111111","2.5","0","0","2.49","18.6","covid19_N11","run_000079","0.09090909090909091","2.5","5.54","0.009","9.0E-4","10000000","2.183225231992999","1","5.8","0","0.09090909090909091","10","0","0.01","0.0","0.0","79","classroom_post","0.0","9.3","170.0","5.8","0","0.5","0.35","0.7","1.1","1","0.048"
"0","0.288","2.464E-4","0.0011111111111111111","2.5","0","0","2.49","18.6","covid19_N11","run_000073","0.09090909090909091","2.5","5.54","0.009","9.0E-4","10000000","2.183225231992999","1","5.8","0","0.09090909090909091","10","0","0.01","0.0","0.0","74","classroom_post","0.0","9.3","170.0","5.8","0","0.5","0.35","0.7","1.1","1","0.048"
"0","0.288","2.464E-4","0.0011111111111111111","2.5","0","0","2.49","18.6","covid19_N11","run_000080","0.09090909090909091","2.5","5.54","0.009","9.0E-4","10000000","2.183225231992999","1","5.8","0","0.09090909090909091","10","0","0.01","0.0","0.0","80","classroom_post","0.0","9.3","170.0","5.8","0","0.5","0.35","0.7","1.1","1","0.048"
"0","0.288","2.464E-4","0.0011111111111111111","2.5","0","0","2.49","18.6","covid19_N11","run_000081","0.09090909090909091","2.5","5.54","0.009","9.0E-4","10000000","2.183225231992999","1","5.8","0","0.09090909090909091","10","0","0.01","0.0","0.0","81","classroom_post","0.0","9.3","170.0","5.8","0","0.5","0.35","0.7","1.1","1","0.048"
"0","0.288","2.464E-4","0.0011111111111111111","2.5","0","0","2.49","18.6","covid19_N11","run_000071","0.09090909090909091","2.5","5.54","0.009","9.0E-4","10000000","2.183225231992999","1","5.8","0","0.09090909090909091","10","0","0.01","0.0","0.0","72","classroom_post","0.0","9.3","170.0","5.8","0","0.5","0.35","0.7","1.1","1","0.048"
"0","0.288","2.464E-4","0.0011111111111111111","2.5","0","0","2.49","18.6","covid19_N11","run_000083","0.09090909090909091","2.5","5.54","0.009","9.0E-4","10000000","2.183225231992999","1","5.8","0","0.09090909090909091","10","0","0.01","0.0","0.0","83","classroom_post","0.0","9.3","170.0","5.8","0","0.5","0.35","0.7","1.1","1","0.048"
"0","0.288","2.464E-4","0.0011111111111111111","2.5","0","0","2.49","18.6","covid19_N11","run_000086","0.09090909090909091","2.5","5.54","0.009","9.0E-4","10000000","2.183225231992999","1","5.8","0","0.09090909090909091","10","0","0.01","0.0","0.0","86","classroom_post","0.0","9.3","170.0","5.8","0","0.5","0.35","0.7","1.1","1","0.048"
"0","0.288","2.464E-4","0.0011111111111111111","2.5","0","0","2.49","18.6","covid19_N11","run_000066","0.09090909090909091","2.5","5.54","0.009","9.0E-4","10000000","2.183225231992999","1","5.8","0","0.09090909090909091","10","0","0.01","0.0","0.0","67","classroom_post","0.0","9.3","170.0","5.8","0","0.5","0.35","0.7","1.1","1","0.048"
"0","0.288","2.464E-4","0.0011111111111111111","2.5","0","0","2.49","18.6","covid19_N11","run_000089","0.09090909090909091","2.5","5.54","0.009","9.0E-4","10000000","2.183225231992999","1","5.8","0","0.09090909090909091","10","0","0.01","0.0","0.0","89","classroom_post","0.0","9.3","170.0","5.8","0","0.5","0.35","0.7","1.1","1","0.048"
"0","0.288","2.464E-4","0.0011111111111111111","2.5","0","0","2.49","18.6","covid19_N11","run_000078","0.09090909090909091","2.5","5.54","0.009","9.0E-4","10000000","2.183225231992999","1","5.8","0","0.09090909090909091","10","0","0.01","0.0","0.0","78","classroom_post","0.0","9.3","170.0","5.8","0","0.5","0.35","0.7","1.1","1","0.048"
"0","0.288","2.464E-4","0.0011111111111111111","2.5","0","0","2.49","18.6","covid19_N11","run_000075","0.09090909090909091","2.5","5.54","0.009","9.0E-4","10000000","2.183225231992999","1","5.8","0","0.09090909090909091","10","0","0.01","0.0","0.0","75","classroom_post","0.0","9.3","170.0","5.8","0","0.5","0.35","0.7","1.1","1","0.048"
"0","0.288","2.464E-4","0.0011111111111111111","2.5","0","0","2.49","18.6","covid19_N11","run_000085","0.09090909090909091","2.5","5.54","0.009","9.0E-4","10000000","2.183225231992999","1","5.8","0","0.09090909090909091","10","0","0.01","0.0","0.0","85","classroom_post","0.0","9.3","170.0","5.8","0","0.5","0.35","0.7","1.1","1","0.048"
"0","0.288","2.464E-4","0.0011111111111111111","2.5","0","0","2.49","18.6","covid19_N11","run_000090","0.09090909090909091","2.5","5.54","0.009","9.0E-4","10000000","2.183225231992999","1","5.8","0","0.09090909090909091","10","0","0.01","0.0","0.0","90","classroom_post","0.0","9.3","170.0","5.8","0","0.5","0.35","0.7","1.1","1","0.048"
"0","0.288","2.464E-4","0.0011111111111111111","2.5","0","0","2.49","18.6","covid19_N11","run_000091","0.09090909090909091","2.5","5.54","0.009","9.0E-4","10000000","2.183225231992999","1","5.8","0","0.09090909090909091","10","0","0.01","0.0","0.0","91","classroom_post","0.0","9.3","170.0","5.8","0","0.5","0.35","0.7","1.1","1","0.048"
"0","0.288","2.464E-4","0.0011111111111111111","2.5","0","0","2.49","18.6","covid19_N11","run_000092","0.09090909090909091","2.5","5.54","0.009","9.0E-4","10000000","2.183225231992999","1","5.8","0","0.09090909090909091","10","0","0.01","0.0","0.0","92","classroom_post","0.0","9.3","170.0","5.8","0","0.5","0.35","0.7","1.1","1","0.048"
"0","0.288","2.464E-4","0.0011111111111111111","2.5","0","0","2.49","18.6","covid19_N11","run_000084","0.09090909090909091","2.5","5.54","0.009","9.0E-4","10000000","2.183225231992999","1","5.8","0","0.09090909090909091","10","0","0.01","0.0","0.0","84","classroom_post","0.0","9.3","170.0","5.8","0","0.5","0.35","0.7","1.1","1","0.048"
"0","0.288","2.464E-4","0.0011111111111111111","2.5","0","0","2.49","18.6","covid19_N11","run_000093","0.09090909090909091","2.5","5.54","0.009","9.0E-4","10000000","2.183225231992999","1","5.8","0","0.09090909090909091","10","0","0.01","0.0","0.0","93","classroom_post","0.0","9.3","170.0","5.8","0","0.5","0.35","0.7","1.1","1","0.048"
"0","0.288","2.464E-4","0.0011111111111111111","2.5","0","NaN","2.49","18.6","covid19_N11","run_000097","0.18181818181818182","2.5","5.54","0.009","9.0E-4","10000000","2.183225231992999","1","5.8","0","0.18181818181818182","10","0","0.01","0.0","0.0","97","classroom_post","1.0","9.3","170.0","5.8","0","0.5","0.35","0.7","1.1","1","0.048"
"0","0.288","2.464E-4","0.0011111111111111111","2.5","0","0","2.49","18.6","covid19_N11","run_000088","0.09090909090909091","2.5","5.54","0.009","9.0E-4","10000000","2.183225231992999","1","5.8","0","0.09090909090909091","10","0","0.01","0.0","0.0","88","classroom_post","0.0","9.3","170.0","5.8","0","0.5","0.35","0.7","1.1","1","0.048"
"0","0.288","2.464E-4","0.0011111111111111111","2.5","0","0","2.49","18.6","covid19_N11","run_000094","0.09090909090909091","2.5","5.54","0.009","9.0E-4","10000000","2.183225231992999","1","5.8","0","0.09090909090909091","10","0","0.01","0.0","0.0","94","classroom_post","0.0","9.3","170.0","5.8","0","0.5","0.35","0.7","1.1","1","0.048"
"0","0.288","2.464E-4","0.0011111111111111111","2.5","0","0","2.49","18.6","covid19_N11","run_000087","0.09090909090909091","2.5","5.54","0.009","9.0E-4","10000000","2.183225231992999","1","5.8","0","0.09090909090909091","10","0","0.01","0.0","0.0","87","classroom_post","0.0","9.3","170.0","5.8","0","0.5","0.35","0.7","1.1","1","0.048"
"0","0.288","2.464E-4","0.0011111111111111111","2.5","0","0","2.49","18.6","covid19_N11","run_000096","0.09090909090909091","2.5","5.54","0.009","9.0E-4","10000000","2.183225231992999","1","5.8","0","0.09090909090909091","10","0","0.01","0.0","0.0","96","classroom_post","0.0","9.3","170.0","5.8","0","0.5","0.35","0.7","1.1","1","0.048"
"0","0.288","2.464E-4","0.0011111111111111111","2.5","0","0","2.49","18.6","covid19_N11","run_000098","0.09090909090909091","2.5","5.54","0.009","9.0E-4","10000000","2.183225231992999","1","5.8","0","0.09090909090909091","10","0","0.01","0.0","0.0","98","classroom_post","0.0","9.3","170.0","5.8","0","0.5","0.35","0.7","1.1","1","0.048"
"0","0.288","2.464E-4","0.0011111111111111111","2.5","0","0","2.49","18.6","covid19_N11","run_000095","0.09090909090909091","2.5","5.54","0.009","9.0E-4","10000000","2.183225231992999","1","5.8","0","0.09090909090909091","10","0","0.01","0.0","0.0","95","classroom_post","0.0","9.3","170.0","5.8","0","0.5","0.35","0.7","1.1","1","0.048"
"0","0.288","2.464E-4","0.0011111111111111111","2.5","0","0","2.49","18.6","covid19_N11","run_000099","0.09090909090909091","2.5","5.54","0.009","9.0E-4","10000000","2.183225231992999","1","5.8","0","0.09090909090909091","10","0","0.01","0.0","0.0","99","classroom_post","0.0","9.3","170.0","5.8","0","0.5","0.35","0.7","1.1","1","0.048"
"0","0.288","2.464E-4","0.0011111111111111111","2.5","0","0","2.49","18.6","covid19_N11","run_000082","0.09090909090909091","2.5","5.54","0.009","9.0E-4","10000000","2.183225231992999","1","5.8","0","0.09090909090909091","10","0","0.01","0.0","0.0","82","classroom_post","0.0","9.3","170.0","5.8","0","0.5","0.35","0.7","1.1","1","0.048"
