"ADULT_SYMPTOMATIC_PROB","B0","BREATHING_INHALATION_VOLUME","BREATHING_INTERVAL_TIME","D","DEAD","DIFFERENT_CELL_COMPARISSION","DURATION","EP0","EXECUTABLE","EXPERIMENT_ID","FINAL_EPIDEMIC_SIZE","FORCE_TERMINATION_AT","GRID_SIZE","H","Hr","INCUBATION_TIME_M","INFECTION_RISK","INITIAL_INFECTED","LAMBDA","LOG_LEVEL","MAX_INFECTED","NSUS","OLD_SYMPTOMATIC_PROB","OUTPUT_UPDATE_DT","R0","R0_1third","RANDOM_SEED","SCENARIO","SECONDARY_CASES","SYMPTOMATIC_EMISSION_RATE","V","VOLUME_CONCENTRATION_LAMBDA","YOUNG_SYMPTOMATIC_PROB","fE","fExfI","fI","rB","rE","secondary_cases"
"0","0.288","0.0020159999999999996","0.0011111111111111111","0.5","0","0","0.49","18.6","covid19_N51","run_000005","0.0196078431372549","0.5","24.1","0.0056","1.1E-4","10000000","0.03305845763","1","3.6","0","0.0196078431372549","50","0","0.01","0.0","0.0","5","gym_post","0.0","63.24","14000.0","3.6","0","0.5","0.35","0.7","9","6.8","0.03"
"0","0.288","0.0020159999999999996","0.0011111111111111111","0.5","0","0","0.49","18.6","covid19_N51","run_000007","0.0196078431372549","0.5","24.1","0.0056","1.1E-4","10000000","0.03305845763","1","3.6","0","0.0196078431372549","50","0","0.01","0.0","0.0","7","gym_post","0.0","63.24","14000.0","3.6","0","0.5","0.35","0.7","9","6.8","0.03"
"0","0.288","0.0020159999999999996","0.0011111111111111111","0.5","0","0","0.49","18.6","covid19_N51","run_000000","0.0196078431372549","0.5","24.1","0.0056","1.1E-4","10000000","0.03305845763","1","3.6","0","0.0196078431372549","50","0","0.01","0.0","0.0","0","gym_post","0.0","63.24","14000.0","3.6","0","0.5","0.35","0.7","9","6.8","0.03"
"0","0.288","0.0020159999999999996","0.0011111111111111111","0.5","0","0","0.49","18.6","covid19_N51","run_000003","0.0196078431372549","0.5","24.1","0.0056","1.1E-4","10000000","0.03305845763","1","3.6","0","0.0196078431372549","50","0","0.01","0.0","0.0","3","gym_post","0.0","63.24","14000.0","3.6","0","0.5","0.35","0.7","9","6.8","0.03"
"0","0.288","0.0020159999999999996","0.0011111111111111111","0.5","0","0","0.49","18.6","covid19_N51","run_000004","0.0196078431372549","0.5","24.1","0.0056","1.1E-4","10000000","0.03305845763","1","3.6","0","0.0196078431372549","50","0","0.01","0.0","0.0","4","gym_post","0.0","63.24","14000.0","3.6","0","0.5","0.35","0.7","9","6.8","0.03"
"0","0.288","0.0020159999999999996","0.0011111111111111111","0.5","0","0","0.49","18.6","covid19_N51","run_000002","0.0196078431372549","0.5","24.1","0.0056","1.1E-4","10000000","0.03305845763","1","3.6","0","0.0196078431372549","50","0","0.01","0.0","0.0","2","gym_post","0.0","63.24","14000.0","3.6","0","0.5","0.35","0.7","9","6.8","0.03"
"0","0.288","0.0020159999999999996","0.0011111111111111111","0.5","0","0","0.49","18.6","covid19_N51","run_000008","0.0196078431372549","0.5","24.1","0.0056","1.1E-4","10000000","0.03305845763","1","3.6","0","0.0196078431372549","50","0","0.01","0.0","0.0","8","gym_post","0.0","63.24","14000.0","3.6","0","0.5","0.35","0.7","9","6.8","0.03"
"0","0.288","0.0020159999999999996","0.0011111111111111111","0.5","0","0","0.49","18.6","covid19_N51","run_000010","0.0196078431372549","0.5","24.1","0.0056","1.1E-4","10000000","0.03305845763","1","3.6","0","0.0196078431372549","50","0","0.01","0.0","0.0","10","gym_post","0.0","63.24","14000.0","3.6","0","0.5","0.35","0.7","9","6.8","0.03"
"0","0.288","0.0020159999999999996","0.0011111111111111111","0.5","0","0","0.49","18.6","covid19_N51","run_000006","0.0196078431372549","0.5","24.1","0.0056","1.1E-4","10000000","0.03305845763","1","3.6","0","0.0196078431372549","50","0","0.01","0.0","0.0","6","gym_post","0.0","63.24","14000.0","3.6","0","0.5","0.35","0.7","9","6.8","0.03"
"0","0.288","0.0020159999999999996","0.0011111111111111111","0.5","0","0","0.49","18.6","covid19_N51","run_000012","0.0196078431372549","0.5","24.1","0.0056","1.1E-4","10000000","0.03305845763","1","3.6","0","0.0196078431372549","50","0","0.01","0.0","0.0","12","gym_post","0.0","63.24","14000.0","3.6","0","0.5","0.35","0.7","9","6.8","0.03"
"0","0.288","0.0020159999999999996","0.0011111111111111111","0.5","0","0","0.49","18.6","covid19_N51","run_000001","0.0196078431372549","0.5","24.1","0.0056","1.1E-4","10000000","0.03305845763","1","3.6","0","0.0196078431372549","50","0","0.01","0.0","0.0","1","gym_post","0.0","63.24","14000.0","3.6","0","0.5","0.35","0.7","9","6.8","0.03"
"0","0.288","0.0020159999999999996","0.0011111111111111111","0.5","0","0","0.49","18.6","covid19_N51","run_000011","0.0196078431372549","0.5","24.1","0.0056","1.1E-4","10000000","0.03305845763","1","3.6","0","0.0196078431372549","50","0","0.01","0.0","0.0","11","gym_post","0.0","63.24","14000.0","3.6","0","0.5","0.35","0.7","9","6.8","0.03"
"0","0.288","0.0020159999999999996","0.0011111111111111111","0.5","0","0","0.49","18.6","covid19_N51","run_000013","0.0196078431372549","0.5","24.1","0.0056","1.1E-4","10000000","0.03305845763","1","3.6","0","0.0196078431372549","50","0","0.01","0.0","0.0","13","gym_post","0.0","63.24","14000.0","3.6","0","0.5","0.35","0.7","9","6.8","0.03"
"0","0.288","0.0020159999999999996","0.0011111111111111111","0.5","0","0","0.49","18.6","covid19_N51","run_000017","0.0196078431372549","0.5","24.1","0.0056","1.1E-4","10000000","0.03305845763","1","3.6","0","0.0196078431372549","50","0","0.01","0.0","0.0","17","gym_post","0.0","63.24","14000.0","3.6","0","0.5","0.35","0.7","9","6.8","0.03"
"0","0.288","0.0020159999999999996","0.0011111111111111111","0.5","0","0","0.49","18.6","covid19_N51","run_000014","0.0196078431372549","0.5","24.1","0.0056","1.1E-4","10000000","0.03305845763","1","3.6","0","0.0196078431372549","50","0","0.01","0.0","0.0","14","gym_post","0.0","63.24","14000.0","3.6","0","0.5","0.35","0.7","9","6.8","0.03"
"0","0.288","0.0020159999999999996","0.0011111111111111111","0.5","0","0","0.49","18.6","covid19_N51","run_000009","0.0196078431372549","0.5","24.1","0.0056","1.1E-4","10000000","0.03305845763","1","3.6","0","0.0196078431372549","50","0","0.01","0.0","0.0","9","gym_post","0.0","63.24","14000.0","3.6","0","0.5","0.35","0.7","9","6.8","0.03"
"0","0.288","0.0020159999999999996","0.0011111111111111111","0.5","0","0","0.49","18.6","covid19_N51","run_000016","0.0196078431372549","0.5","24.1","0.0056","1.1E-4","10000000","0.03305845763","1","3.6","0","0.0196078431372549","50","0","0.01","0.0","0.0","16","gym_post","0.0","63.24","14000.0","3.6","0","0.5","0.35","0.7","9","6.8","0.03"
"0","0.288","0.0020159999999999996","0.0011111111111111111","0.5","0","0","0.49","18.6","covid19_N51","run_000019","0.0196078431372549","0.5","24.1","0.0056","1.1E-4","10000000","0.03305845763","1","3.6","0","0.0196078431372549","50","0","0.01","0.0","0.0","19","gym_post","0.0","63.24","14000.0","3.6","0","0.5","0.35","0.7","9","6.8","0.03"
"0","0.288","0.0020159999999999996","0.0011111111111111111","0.5","0","0","0.49","18.6","covid19_N51","run_000018","0.0196078431372549","0.5","24.1","0.0056","1.1E-4","10000000","0.03305845763","1","3.6","0","0.0196078431372549","50","0","0.01","0.0","0.0","18","gym_post","0.0","63.24","14000.0","3.6","0","0.5","0.35","0.7","9","6.8","0.03"
"0","0.288","0.0020159999999999996","0.0011111111111111111","0.5","0","0","0.49","18.6","covid19_N51","run_000023","0.0196078431372549","0.5","24.1","0.0056","1.1E-4","10000000","0.03305845763","1","3.6","0","0.0196078431372549","50","0","0.01","0.0","0.0","23","gym_post","0.0","63.24","14000.0","3.6","0","0.5","0.35","0.7","9","6.8","0.03"
"0","0.288","0.0020159999999999996","0.0011111111111111111","0.5","0","0","0.49","18.6","covid19_N51","run_000020","0.0196078431372549","0.5","24.1","0.0056","1.1E-4","10000000","0.03305845763","1","3.6","0","0.0196078431372549","50","0","0.01","0.0","0.0","20","gym_post","0.0","63.24","14000.0","3.6","0","0.5","0.35","0.7","9","6.8","0.03"
"0","0.288","0.0020159999999999996","0.0011111111111111111","0.5","0","0","0.49","18.6","covid19_N51","run_000024","0.0196078431372549","0.5","24.1","0.0056","1.1E-4","10000000","0.03305845763","1","3.6","0","0.0196078431372549","50","0","0.01","0.0","0.0","24","gym_post","0.0","63.24","14000.0","3.6","0","0.5","0.35","0.7","9","6.8","0.03"
"0","0.288","0.0020159999999999996","0.0011111111111111111","0.5","0","0","0.49","18.6","covid19_N51","run_000015","0.0196078431372549","0.5","24.1","0.0056","1.1E-4","10000000","0.03305845763","1","3.6","0","0.0196078431372549","50","0","0.01","0.0","0.0","15","gym_post","0.0","63.24","14000.0","3.6","0","0.5","0.35","0.7","9","6.8","0.03"
"0","0.288","0.0020159999999999996","0.0011111111111111111","0.5","0","0","0.49","18.6","covid19_N51","run_000021","0.0196078431372549","0.5","24.1","0.0056","1.1E-4","10000000","0.03305845763","1","3.6","0","0.0196078431372549","50","0","0.01","0.0","0.0","21","gym_post","0.0","63.24","14000.0","3.6","0","0.5","0.35","0.7","9","6.8","0.03"
"0","0.288","0.0020159999999999996","0.0011111111111111111","0.5","0","0","0.49","18.6","covid19_N51","run_000026","0.0196078431372549","0.5","24.1","0.0056","1.1E-4","10000000","0.03305845763","1","3.6","0","0.0196078431372549","50","0","0.01","0.0","0.0","26","gym_post","0.0","63.24","14000.0","3.6","0","0.5","0.35","0.7","9","6.8","0.03"
"0","0.288","0.0020159999999999996","0.0011111111111111111","0.5","0","0","0.49","18.6","covid19_N51","run_000022","0.0196078431372549","0.5","24.1","0.0056","1.1E-4","10000000","0.03305845763","1","3.6","0","0.0196078431372549","50","0","0.01","0.0","0.0","22","gym_post","0.0","63.24","14000.0","3.6","0","0.5","0.35","0.7","9","6.8","0.03"
"0","0.288","0.0020159999999999996","0.0011111111111111111","0.5","0","0","0.49","18.6","covid19_N51","run_000025","0.0196078431372549","0.5","24.1","0.0056","1.1E-4","10000000","0.03305845763","1","3.6","0","0.0196078431372549","50","0","0.01","0.0","0.0","25","gym_post","0.0","63.24","14000.0","3.6","0","0.5","0.35","0.7","9","6.8","0.03"
"0","0.288","0.0020159999999999996","0.0011111111111111111","0.5","0","0","0.49","18.6","covid19_N51","run_000033","0.0196078431372549","0.5","24.1","0.0056","1.1E-4","10000000","0.03305845763","1","3.6","0","0.0196078431372549","50","0","0.01","0.0","0.0","33","gym_post","0.0","63.24","14000.0","3.6","0","0.5","0.35","0.7","9","6.8","0.03"
"0","0.288","0.0020159999999999996","0.0011111111111111111","0.5","0","0","0.49","18.6","covid19_N51","run_000028","0.0196078431372549","0.5","24.1","0.0056","1.1E-4","10000000","0.03305845763","1","3.6","0","0.0196078431372549","50","0","0.01","0.0","0.0","28","gym_post","0.0","63.24","14000.0","3.6","0","0.5","0.35","0.7","9","6.8","0.03"
"0","0.288","0.0020159999999999996","0.0011111111111111111","0.5","0","0","0.49","18.6","covid19_N51","run_000027","0.0196078431372549","0.5","24.1","0.0056","1.1E-4","10000000","0.03305845763","1","3.6","0","0.0196078431372549","50","0","0.01","0.0","0.0","27","gym_post","0.0","63.24","14000.0","3.6","0","0.5","0.35","0.7","9","6.8","0.03"
"0","0.288","0.0020159999999999996","0.0011111111111111111","0.5","0","0","0.49","18.6","covid19_N51","run_000032","0.0196078431372549","0.5","24.1","0.0056","1.1E-4","10000000","0.03305845763","1","3.6","0","0.0196078431372549","50","0","0.01","0.0","0.0","32","gym_post","0.0","63.24","14000.0","3.6","0","0.5","0.35","0.7","9","6.8","0.03"
"0","0.288","0.0020159999999999996","0.0011111111111111111","0.5","0","0","0.49","18.6","covid19_N51","run_000030","0.0196078431372549","0.5","24.1","0.0056","1.1E-4","10000000","0.03305845763","1","3.6","0","0.0196078431372549","50","0","0.01","0.0","0.0","30","gym_post","0.0","63.24","14000.0","3.6","0","0.5","0.35","0.7","9","6.8","0.03"
"0","0.288","0.0020159999999999996","0.0011111111111111111","0.5","0","0","0.49","18.6","covid19_N51","run_000031","0.0196078431372549","0.5","24.1","0.0056","1.1E-4","10000000","0.03305845763","1","3.6","0","0.0196078431372549","50","0","0.01","0.0","0.0","31","gym_post","0.0","63.24","14000.0","3.6","0","0.5","0.35","0.7","9","6.8","0.03"
"0","0.288","0.0020159999999999996","0.0011111111111111111","0.5","0","0","0.49","18.6","covid19_N51","run_000029","0.0196078431372549","0.5","24.1","0.0056","1.1E-4","10000000","0.03305845763","1","3.6","0","0.0196078431372549","50","0","0.01","0.0","0.0","29","gym_post","0.0","63.24","14000.0","3.6","0","0.5","0.35","0.7","9","6.8","0.03"
"0","0.288","0.0020159999999999996","0.0011111111111111111","0.5","0","0","0.49","18.6","covid19_N51","run_000035","0.0196078431372549","0.5","24.1","0.0056","1.1E-4","10000000","0.03305845763","1","3.6","0","0.0196078431372549","50","0","0.01","0.0","0.0","35","gym_post","0.0","63.24","14000.0","3.6","0","0.5","0.35","0.7","9","6.8","0.03"
"0","0.288","0.0020159999999999996","0.0011111111111111111","0.5","0","0","0.49","18.6","covid19_N51","run_000037","0.0196078431372549","0.5","24.1","0.0056","1.1E-4","10000000","0.03305845763","1","3.6","0","0.0196078431372549","50","0","0.01","0.0","0.0","37","gym_post","0.0","63.24","14000.0","3.6","0","0.5","0.35","0.7","9","6.8","0.03"
"0","0.288","0.0020159999999999996","0.0011111111111111111","0.5","0","0","0.49","18.6","covid19_N51","run_000038","0.0196078431372549","0.5","24.1","0.0056","1.1E-4","10000000","0.03305845763","1","3.6","0","0.0196078431372549","50","0","0.01","0.0","0.0","38","gym_post","0.0","63.24","14000.0","3.6","0","0.5","0.35","0.7","9","6.8","0.03"
"0","0.288","0.0020159999999999996","0.0011111111111111111","0.5","0","0","0.49","18.6","covid19_N51","run_000036","0.0196078431372549","0.5","24.1","0.0056","1.1E-4","10000000","0.03305845763","1","3.6","0","0.0196078431372549","50","0","0.01","0.0","0.0","36","gym_post","0.0","63.24","14000.0","3.6","0","0.5","0.35","0.7","9","6.8","0.03"
"0","0.288","0.0020159999999999996","0.0011111111111111111","0.5","0","0","0.49","18.6","covid19_N51","run_000044","0.0196078431372549","0.5","24.1","0.0056","1.1E-4","10000000","0.03305845763","1","3.6","0","0.0196078431372549","50","0","0.01","0.0","0.0","44","gym_post","0.0","63.24","14000.0","3.6","0","0.5","0.35","0.7","9","6.8","0.03"
"0","0.288","0.0020159999999999996","0.0011111111111111111","0.5","0","0","0.49","18.6","covid19_N51","run_000041","0.0196078431372549","0.5","24.1","0.0056","1.1E-4","10000000","0.03305845763","1","3.6","0","0.0196078431372549","50","0","0.01","0.0","0.0","41","gym_post","0.0","63.24","14000.0","3.6","0","0.5","0.35","0.7","9","6.8","0.03"
"0","0.288","0.0020159999999999996","0.0011111111111111111","0.5","0","0","0.49","18.6","covid19_N51","run_000045","0.0196078431372549","0.5","24.1","0.0056","1.1E-4","10000000","0.03305845763","1","3.6","0","0.0196078431372549","50","0","0.01","0.0","0.0","45","gym_post","0.0","63.24","14000.0","3.6","0","0.5","0.35","0.7","9","6.8","0.03"
"0","0.288","0.0020159999999999996","0.0011111111111111111","0.5","0","0","0.49","18.6","covid19_N51","run_000046","0.0196078431372549","0.5","24.1","0.0056","1.1E-4","10000000","0.03305845763","1","3.6","0","0.0196078431372549","50","0","0.01","0.0","0.0","46","gym_post","0.0","63.24","14000.0","3.6","0","0.5","0.35","0.7","9","6.8","0.03"
"0","0.288","0.0020159999999999996","0.0011111111111111111","0.5","0","0","0.49","18.6","covid19_N51","run_000047","0.0196078431372549","0.5","24.1","0.0056","1.1E-4","10000000","0.03305845763","1","3.6","0","0.0196078431372549","50","0","0.01","0.0","0.0","47","gym_post","0.0","63.24","14000.0","3.6","0","0.5","0.35","0.7","9","6.8","0.03"
"0","0.288","0.0020159999999999996","0.0011111111111111111","0.5","0","0","0.49","18.6","covid19_N51","run_000039","0.0196078431372549","0.5","24.1","0.0056","1.1E-4","10000000","0.03305845763","1","3.6","0","0.0196078431372549","50","0","0.01","0.0","0.0","39","gym_post","0.0","63.24","14000.0","3.6","0","0.5","0.35","0.7","9","6.8","0.03"
"0","0.288","0.0020159999999999996","0.0011111111111111111","0.5","0","0","0.49","18.6","covid19_N51","run_000034","0.0196078431372549","0.5","24.1","0.0056","1.1E-4","10000000","0.03305845763","1","3.6","0","0.0196078431372549","50","0","0.01","0.0","0.0","34","gym_post","0.0","63.24","14000.0","3.6","0","0.5","0.35","0.7","9","6.8","0.03"
"0","0.288","0.0020159999999999996","0.0011111111111111111","0.5","0","0","0.49","18.6","covid19_N51","run_000040","0.0196078431372549","0.5","24.1","0.0056","1.1E-4","10000000","0.03305845763","1","3.6","0","0.0196078431372549","50","0","0.01","0.0","0.0","40","gym_post","0.0","63.24","14000.0","3.6","0","0.5","0.35","0.7","9","6.8","0.03"
"0","0.288","0.0020159999999999996","0.0011111111111111111","0.5","0","0","0.49","18.6","covid19_N51","run_000042","0.0196078431372549","0.5","24.1","0.0056","1.1E-4","10000000","0.03305845763","1","3.6","0","0.0196078431372549","50","0","0.01","0.0","0.0","42","gym_post","0.0","63.24","14000.0","3.6","0","0.5","0.35","0.7","9","6.8","0.03"
"0","0.288","0.0020159999999999996","0.0011111111111111111","0.5","0","0","0.49","18.6","covid19_N51","run_000052","0.0196078431372549","0.5","24.1","0.0056","1.1E-4","10000000","0.03305845763","1","3.6","0","0.0196078431372549","50","0","0.01","0.0","0.0","52","gym_post","0.0","63.24","14000.0","3.6","0","0.5","0.35","0.7","9","6.8","0.03"
"0","0.288","0.0020159999999999996","0.0011111111111111111","0.5","0","0","0.49","18.6","covid19_N51","run_000053","0.0196078431372549","0.5","24.1","0.0056","1.1E-4","10000000","0.03305845763","1","3.6","0","0.0196078431372549","50","0","0.01","0.0","0.0","53","gym_post","0.0","63.24","14000.0","3.6","0","0.5","0.35","0.7","9","6.8","0.03"
"0","0.288","0.0020159999999999996","0.0011111111111111111","0.5","0","0","0.49","18.6","covid19_N51","run_000054","0.0196078431372549","0.5","24.1","0.0056","1.1E-4","10000000","0.03305845763","1","3.6","0","0.0196078431372549","50","0","0.01","0.0","0.0","54","gym_post","0.0","63.24","14000.0","3.6","0","0.5","0.35","0.7","9","6.8","0.03"
"0","0.288","0.0020159999999999996","0.0011111111111111111","0.5","0","0","0.49","18.6","covid19_N51","run_000043","0.0196078431372549","0.5","24.1","0.0056","1.1E-4","10000000","0.03305845763","1","3.6","0","0.0196078431372549","50","0","0.01","0.0","0.0","43","gym_post","0.0","63.24","14000.0","3.6","0","0.5","0.35","0.7","9","6.8","0.03"
"0","0.288","0.0020159999999999996","0.0011111111111111111","0.5","0","0","0.49","18.6","covid19_N51","run_000051","0.0196078431372549","0.5","24.1","0.0056","1.1E-4","10000000","0.03305845763","1","3.6","0","0.0196078431372549","50","0","0.01","0.0","0.0","51","gym_post","0.0","63.24","14000.0","3.6","0","0.5","0.35","0.7","9","6.8","0.03"
"0","0.288","0.0020159999999999996","0.0011111111111111111","0.5","0","0","0.49","18.6","covid19_N51","run_000057","0.0196078431372549","0.5","24.1","0.0056","1.1E-4","10000000","0.03305845763","1","3.6","0","0.0196078431372549","50","0","0.01","0.0","0.0","58","gym_post","0.0","63.24","14000.0","3.6","0","0.5","0.35","0.7","9","6.8","0.03"
"0","0.288","0.0020159999999999996","0.0011111111111111111","0.5","0","0","0.49","18.6","covid19_N51","run_000058","0.0196078431372549","0.5","24.1","0.0056","1.1E-4","10000000","0.03305845763","1","3.6","0","0.0196078431372549","50","0","0.01","0.0","0.0","59","gym_post","0.0","63.24","14000.0","3.6","0","0.5","0.35","0.7","9","6.8","0.03"
"0","0.288","0.0020159999999999996","0.0011111111111111111","0.5","0","0","0.49","18.6","covid19_N51","run_000048","0.0196078431372549","0.5","24.1","0.0056","1.1E-4","10000000","0.03305845763","1","3.6","0","0.0196078431372549","50","0","0.01","0.0","0.0","48","gym_post","0.0","63.24","14000.0","3.6","0","0.5","0.35","0.7","9","6.8","0.03"
"0","0.288","0.0020159999999999996","0.0011111111111111111","0.5","0","0","0.49","18.6","covid19_N51","run_000055","0.0196078431372549","0.5","24.1","0.0056","1.1E-4","10000000","0.03305845763","1","3.6","0","0.0196078431372549","50","0","0.01","0.0","0.0","55","gym_post","0.0","63.24","14000.0","3.6","0","0.5","0.35","0.7","9","6.8","0.03"
"0","0.288","0.0020159999999999996","0.0011111111111111111","0.5","0","0","0.49","18.6","covid19_N51","run_000050","0.0196078431372549","0.5","24.1","0.0056","1.1E-4","10000000","0.03305845763","1","3.6","0","0.0196078431372549","50","0","0.01","0.0","0.0","50","gym_post","0.0","63.24","14000.0","3.6","0","0.5","0.35","0.7","9","6.8","0.03"
"0","0.288","0.0020159999999999996","0.0011111111111111111","0.5","0","0","0.49","18.6","covid19_N51","run_000062","0.0196078431372549","0.5","24.1","0.0056","1.1E-4","10000000","0.03305845763","1","3.6","0","0.0196078431372549","50","0","0.01","0.0","0.0","63","gym_post","0.0","63.24","14000.0","3.6","0","0.5","0.35","0.7","9","6.8","0.03"
"0","0.288","0.0020159999999999996","0.0011111111111111111","0.5","0","0","0.49","18.6","covid19_N51","run_000063","0.0196078431372549","0.5","24.1","0.0056","1.1E-4","10000000","0.03305845763","1","3.6","0","0.0196078431372549","50","0","0.01","0.0","0.0","64","gym_post","0.0","63.24","14000.0","3.6","0","0.5","0.35","0.7","9","6.8","0.03"
"0","0.288","0.0020159999999999996","0.0011111111111111111","0.5","0","0","0.49","18.6","covid19_N51","run_000065","0.0196078431372549","0.5","24.1","0.0056","1.1E-4","10000000","0.03305845763","1","3.6","0","0.0196078431372549","50","0","0.01","0.0","0.0","66","gym_post","0.0","63.24","14000.0","3.6","0","0.5","0.35","0.7","9","6.8","0.03"
"0","0.288","0.0020159999999999996","0.0011111111111111111","0.5","0","0","0.49","18.6","covid19_N51","run_000064","0.0196078431372549","0.5","24.1","0.0056","1.1E-4","10000000","0.03305845763","1","3.6","0","0.0196078431372549","50","0","0.01","0.0","0.0","65","gym_post","0.0","63.24","14000.0","3.6","0","0.5","0.35","0.7","9","6.8","0.03"
"0","0.288","0.0020159999999999996","0.0011111111111111111","0.5","0","0","0.49","18.6","covid19_N51","run_000060","0.0196078431372549","0.5","24.1","0.0056","1.1E-4","10000000","0.03305845763","1","3.6","0","0.0196078431372549","50","0","0.01","0.0","0.0","61","gym_post","0.0","63.24","14000.0","3.6","0","0.5","0.35","0.7","9","6.8","0.03"
"0","0.288","0.0020159999999999996","0.0011111111111111111","0.5","0","0","0.49","18.6","covid19_N51","run_000049","0.0196078431372549","0.5","24.1","0.0056","1.1E-4","10000000","0.03305845763","1","3.6","0","0.0196078431372549","50","0","0.01","0.0","0.0","49","gym_post","0.0","63.24","14000.0","3.6","0","0.5","0.35","0.7","9","6.8","0.03"
"0","0.288","0.0020159999999999996","0.0011111111111111111","0.5","0","0","0.49","18.6","covid19_N51","run_000056","0.0196078431372549","0.5","24.1","0.0056","1.1E-4","10000000","0.03305845763","1","3.6","0","0.0196078431372549","50","0","0.01","0.0","0.0","56","gym_post","0.0","63.24","14000.0","3.6","0","0.5","0.35","0.7","9","6.8","0.03"
"0","0.288","0.0020159999999999996","0.0011111111111111111","0.5","0","0","0.49","18.6","covid19_N51","run_000066","0.0196078431372549","0.5","24.1","0.0056","1.1E-4","10000000","0.03305845763","1","3.6","0","0.0196078431372549","50","0","0.01","0.0","0.0","67","gym_post","0.0","63.24","14000.0","3.6","0","0.5","0.35","0.7","9","6.8","0.03"
"0","0.288","0.0020159999999999996","0.0011111111111111111","0.5","0","0","0.49","18.6","covid19_N51","run_000068","0.0196078431372549","0.5","24.1","0.0056","1.1E-4","10000000","0.03305845763","1","3.6","0","0.0196078431372549","50","0","0.01","0.0","0.0","69","gym_post","0.0","63.24","14000.0","3.6","0","0.5","0.35","0.7","9","6.8","0.03"
"0","0.288","0.0020159999999999996","0.0011111111111111111","0.5","0","0","0.49","18.6","covid19_N51","run_000059","0.0196078431372549","0.5","24.1","0.0056","1.1E-4","10000000","0.03305845763","1","3.6","0","0.0196078431372549","50","0","0.01","0.0","0.0","60","gym_post","0.0","63.24","14000.0","3.6","0","0.5","0.35","0.7","9","6.8","0.03"
"0","0.288","0.0020159999999999996","0.0011111111111111111","0.5","0","0","0.49","18.6","covid19_N51","run_000069","0.0196078431372549","0.5","24.1","0.0056","1.1E-4","10000000","0.03305845763","1","3.6","0","0.0196078431372549","50","0","0.01","0.0","0.0","70","gym_post","0.0","63.24","14000.0","3.6","0","0.5","0.35","0.7","9","6.8","0.03"
"0","0.288","0.0020159999999999996","0.0011111111111111111","0.5","0","0","0.49","18.6","covid19_N51","run_000071","0.0196078431372549","0.5","24.1","0.0056","1.1E-4","10000000","0.03305845763","1","3.6","0","0.0196078431372549","50","0","0.01","0.0","0.0","72","gym_post","0.0","63.24","14000.0","3.6","0","0.5","0.35","0.7","9","6.8","0.03"
"0","0.288","0.0020159999999999996","0.0011111111111111111","0.5","0","0","0.49","18.6","covid19_N51","run_000070","0.0196078431372549","0.5","24.1","0.0056","1.1E-4","10000000","0.03305845763","1","3.6","0","0.0196078431372549","50","0","0.01","0.0","0.0","71","gym_post","0.0","63.24","14000.0","3.6","0","0.5","0.35","0.7","9","6.8","0.03"
"0","0.288","0.0020159999999999996","0.0011111111111111111","0.5","0","0","0.49","18.6","covid19_N51","run_000073","0.0196078431372549","0.5","24.1","0.0056","1.1E-4","10000000","0.03305845763","1","3.6","0","0.0196078431372549","50","0","0.01","0.0","0.0","74","gym_post","0.0","63.24","14000.0","3.6","0","0.5","0.35","0.7","9","6.8","0.03"
"0","0.288","0.0020159999999999996","0.0011111111111111111","0.5","0","0","0.49","18.6","covid19_N51","run_000061","0.0196078431372549","0.5","24.1","0.0056","1.1E-4","10000000","0.03305845763","1","3.6","0","0.0196078431372549","50","0","0.01","0.0","0.0","62","gym_post","0.0","63.24","14000.0","3.6","0","0.5","0.35","0.7","9","6.8","0.03"
"0","0.288","0.0020159999999999996","0.0011111111111111111","0.5","0","0","0.49","18.6","covid19_N51","run_000075","0.0196078431372549","0.5","24.1","0.0056","1.1E-4","10000000","0.03305845763","1","3.6","0","0.0196078431372549","50","0","0.01","0.0","0.0","75","gym_post","0.0","63.24","14000.0","3.6","0","0.5","0.35","0.7","9","6.8","0.03"
"0","0.288","0.0020159999999999996","0.0011111111111111111","0.5","0","0","0.49","18.6","covid19_N51","run_000076","0.0196078431372549","0.5","24.1","0.0056","1.1E-4","10000000","0.03305845763","1","3.6","0","0.0196078431372549","50","0","0.01","0.0","0.0","76","gym_post","0.0","63.24","14000.0","3.6","0","0.5","0.35","0.7","9","6.8","0.03"
"0","0.288","0.0020159999999999996","0.0011111111111111111","0.5","0","0","0.49","18.6","covid19_N51","run_000077","0.0196078431372549","0.5","24.1","0.0056","1.1E-4","10000000","0.03305845763","1","3.6","0","0.0196078431372549","50","0","0.01","0.0","0.0","77","gym_post","0.0","63.24","14000.0","3.6","0","0.5","0.35","0.7","9","6.8","0.03"
"0","0.288","0.0020159999999999996","0.0011111111111111111","0.5","0","0","0.49","18.6","covid19_N51","run_000078","0.0196078431372549","0.5","24.1","0.0056","1.1E-4","10000000","0.03305845763","1","3.6","0","0.0196078431372549","50","0","0.01","0.0","0.0","78","gym_post","0.0","63.24","14000.0","3.6","0","0.5","0.35","0.7","9","6.8","0.03"
"0","0.288","0.0020159999999999996","0.0011111111111111111","0.5","0","0","0.49","18.6","covid19_N51","run_000072","0.0196078431372549","0.5","24.1","0.0056","1.1E-4","10000000","0.03305845763","1","3.6","0","0.0196078431372549","50","0","0.01","0.0","0.0","73","gym_post","0.0","63.24","14000.0","3.6","0","0.5","0.35","0.7","9","6.8","0.03"
"0","0.288","0.0020159999999999996","0.0011111111111111111","0.5","0","0","0.49","18.6","covid19_N51","run_000067","0.0196078431372549","0.5","24.1","0.0056","1.1E-4","10000000","0.03305845763","1","3.6","0","0.0196078431372549","50","0","0.01","0.0","0.0","68","gym_post","0.0","63.24","14000.0","3.6","0","0.5","0.35","0.7","9","6.8","0.03"
"0","0.288","0.0020159999999999996","0.0011111111111111111","0.5","0","0","0.49","18.6","covid19_N51","run_000082","0.0196078431372549","0.5","24.1","0.0056","1.1E-4","10000000","0.03305845763","1","3.6","0","0.0196078431372549","50","0","0.01","0.0","0.0","82","gym_post","0.0","63.24","14000.0","3.6","0","0.5","0.35","0.7","9","6.8","0.03"
"0","0.288","0.0020159999999999996","0.0011111111111111111","0.5","0","0","0.49","18.6","covid19_N51","run_000084","0.0196078431372549","0.5","24.1","0.0056","1.1E-4","10000000","0.03305845763","1","3.6","0","0.0196078431372549","50","0","0.01","0.0","0.0","84","gym_post","0.0","63.24","14000.0","3.6","0","0.5","0.35","0.7","9","6.8","0.03"
"0","0.288","0.0020159999999999996","0.0011111111111111111","0.5","0","0","0.49","18.6","covid19_N51","run_000083","0.0196078431372549","0.5","24.1","0.0056","1.1E-4","10000000","0.03305845763","1","3.6","0","0.0196078431372549","50","0","0.01","0.0","0.0","83","gym_post","0.0","63.24","14000.0","3.6","0","0.5","0.35","0.7","9","6.8","0.03"
"0","0.288","0.0020159999999999996","0.0011111111111111111","0.5","0","0","0.49","18.6","covid19_N51","run_000081","0.0196078431372549","0.5","24.1","0.0056","1.1E-4","10000000","0.03305845763","1","3.6","0","0.0196078431372549","50","0","0.01","0.0","0.0","81","gym_post","0.0","63.24","14000.0","3.6","0","0.5","0.35","0.7","9","6.8","0.03"
"0","0.288","0.0020159999999999996","0.0011111111111111111","0.5","0","0","0.49","18.6","covid19_N51","run_000087","0.0196078431372549","0.5","24.1","0.0056","1.1E-4","10000000","0.03305845763","1","3.6","0","0.0196078431372549","50","0","0.01","0.0","0.0","87","gym_post","0.0","63.24","14000.0","3.6","0","0.5","0.35","0.7","9","6.8","0.03"
"0","0.288","0.0020159999999999996","0.0011111111111111111","0.5","0","0","0.49","18.6","covid19_N51","run_000088","0.0196078431372549","0.5","24.1","0.0056","1.1E-4","10000000","0.03305845763","1","3.6","0","0.0196078431372549","50","0","0.01","0.0","0.0","88","gym_post","0.0","63.24","14000.0","3.6","0","0.5","0.35","0.7","9","6.8","0.03"
"0","0.288","0.0020159999999999996","0.0011111111111111111","0.5","0","0","0.49","18.6","covid19_N51","run_000091","0.0196078431372549","0.5","24.1","0.0056","1.1E-4","10000000","0.03305845763","1","3.6","0","0.0196078431372549","50","0","0.01","0.0","0.0","91","gym_post","0.0","63.24","14000.0","3.6","0","0.5","0.35","0.7","9","6.8","0.03"
"0","0.288","0.0020159999999999996","0.0011111111111111111","0.5","0","0","0.49","18.6","covid19_N51","run_000080","0.0196078431372549","0.5","24.1","0.0056","1.1E-4","10000000","0.03305845763","1","3.6","0","0.0196078431372549","50","0","0.01","0.0","0.0","80","gym_post","0.0","63.24","14000.0","3.6","0","0.5","0.35","0.7","9","6.8","0.03"
"0","0.288","0.0020159999999999996","0.0011111111111111111","0.5","0","0","0.49","18.6","covid19_N51","run_000089","0.0196078431372549","0.5","24.1","0.0056","1.1E-4","10000000","0.03305845763","1","3.6","0","0.0196078431372549","50","0","0.01","0.0","0.0","89","gym_post","0.0","63.24","14000.0","3.6","0","0.5","0.35","0.7","9","6.8","0.03"
"0","0.288","0.0020159999999999996","0.0011111111111111111","0.5","0","0","0.49","18.6","covid19_N51","run_000093","0.0196078431372549","0.5","24.1","0.0056","1.1E-4","10000000","0.03305845763","1","3.6","0","0.0196078431372549","50","0","0.01","0.0","0.0","93","gym_post","0.0","63.24","14000.0","3.6","0","0.5","0.35","0.7","9","6.8","0.03"
"0","0.288","0.0020159999999999996","0.0011111111111111111","0.5","0","0","0.49","18.6","covid19_N51","run_000086","0.0196078431372549","0.5","24.1","0.0056","1.1E-4","10000000","0.03305845763","1","3.6","0","0.0196078431372549","50","0","0.01","0.0","0.0","86","gym_post","0.0","63.24","14000.0","3.6","0","0.5","0.35","0.7","9","6.8","0.03"
"0","0.288","0.0020159999999999996","0.0011111111111111111","0.5","0","0","0.49","18.6","covid19_N51","run_000094","0.0196078431372549","0.5","24.1","0.0056","1.1E-4","10000000","0.03305845763","1","3.6","0","0.0196078431372549","50","0","0.01","0.0","0.0","94","gym_post","0.0","63.24","14000.0","3.6","0","0.5","0.35","0.7","9","6.8","0.03"
"0","0.288","0.0020159999999999996","0.0011111111111111111","0.5","0","0","0.49","18.6","covid19_N51","run_000095","0.0196078431372549","0.5","24.1","0.0056","1.1E-4","10000000","0.03305845763","1","3.6","0","0.0196078431372549","50","0","0.01","0.0","0.0","95","gym_post","0.0","63.24","14000.0","3.6","0","0.5","0.35","0.7","9","6.8","0.03"
"0","0.288","0.0020159999999999996","0.0011111111111111111","0.5","0","0","0.49","18.6","covid19_N51","run_000090","0.0196078431372549","0.5","24.1","0.0056","1.1E-4","10000000","0.03305845763","1","3.6","0","0.0196078431372549","50","0","0.01","0.0","0.0","90","gym_post","0.0","63.24","14000.0","3.6","0","0.5","0.35","0.7","9","6.8","0.03"
"0","0.288","0.0020159999999999996","0.0011111111111111111","0.5","0","0","0.49","18.6","covid19_N51","run_000085","0.0196078431372549","0.5","24.1","0.0056","1.1E-4","10000000","0.03305845763","1","3.6","0","0.0196078431372549","50","0","0.01","0.0","0.0","85","gym_post","0.0","63.24","14000.0","3.6","0","0.5","0.35","0.7","9","6.8","0.03"
"0","0.288","0.0020159999999999996","0.0011111111111111111","0.5","0","0","0.49","18.6","covid19_N51","run_000092","0.0196078431372549","0.5","24.1","0.0056","1.1E-4","10000000","0.03305845763","1","3.6","0","0.0196078431372549","50","0","0.01","0.0","0.0","92","gym_post","0.0","63.24","14000.0","3.6","0","0.5","0.35","0.7","9","6.8","0.03"
"0","0.288","0.0020159999999999996","0.0011111111111111111","0.5","0","0","0.49","18.6","covid19_N51","run_000079","0.0196078431372549","0.5","24.1","0.0056","1.1E-4","10000000","0.03305845763","1","3.6","0","0.0196078431372549","50","0","0.01","0.0","0.0","79","gym_post","0.0","63.24","14000.0","3.6","0","0.5","0.35","0.7","9","6.8","0.03"
"0","0.288","0.0020159999999999996","0.0011111111111111111","0.5","0","0","0.49","18.6","covid19_N51","run_000074","0.0196078431372549","0.5","24.1","0.0056","1.1E-4","10000000","0.03305845763","1","3.6","0","0.0196078431372549","50","0","0.01","0.0","0.0","75","gym_post","0.0","63.24","14000.0","3.6","0","0.5","0.35","0.7","9","6.8","0.03"
"0","0.288","0.0020159999999999996","0.0011111111111111111","0.5","0","0","0.49","18.6","covid19_N51","run_000098","0.0196078431372549","0.5","24.1","0.0056","1.1E-4","10000000","0.03305845763","1","3.6","0","0.0196078431372549","50","0","0.01","0.0","0.0","98","gym_post","0.0","63.24","14000.0","3.6","0","0.5","0.35","0.7","9","6.8","0.03"
"0","0.288","0.0020159999999999996","0.0011111111111111111","0.5","0","0","0.49","18.6","covid19_N51","run_000099","0.0196078431372549","0.5","24.1","0.0056","1.1E-4","10000000","0.03305845763","1","3.6","0","0.0196078431372549","50","0","0.01","0.0","0.0","99","gym_post","0.0","63.24","14000.0","3.6","0","0.5","0.35","0.7","9","6.8","0.03"
"0","0.288","0.0020159999999999996","0.0011111111111111111","0.5","0","-Infinity","0.49","18.6","covid19_N51","run_000097","0.0392156862745098","0.5","24.1","0.0056","1.1E-4","10000000","0.03305845763","1","3.6","0","0.0392156862745098","50","0","0.01","0.0","0.0","97","gym_post","1.0","63.24","14000.0","3.6","0","0.5","0.35","0.7","9","6.8","0.03"
"0","0.288","0.0020159999999999996","0.0011111111111111111","0.5","0","0","0.49","18.6","covid19_N51","run_000096","0.0196078431372549","0.5","24.1","0.0056","1.1E-4","10000000","0.03305845763","1","3.6","0","0.0196078431372549","50","0","0.01","0.0","0.0","96","gym_post","0.0","63.24","14000.0","3.6","0","0.5","0.35","0.7","9","6.8","0.03"
