"ADULT_SYMPTOMATIC_PROB","B0","BREATHING_INHALATION_VOLUME","BREATHING_INTERVAL_TIME","D","DEAD","DIFFERENT_CELL_COMPARISSION","DURATION","EP0","EXECUTABLE","EXPERIMENT_ID","FINAL_EPIDEMIC_SIZE","FORCE_TERMINATION_AT","GRID_SIZE","H","Hr","INCUBATION_TIME_M","INFECTION_RISK","INITIAL_INFECTED","LAMBDA","LOG_LEVEL","MAX_INFECTED","NSUS","OLD_SYMPTOMATIC_PROB","OUTPUT_UPDATE_DT","R0","R0_1third","RANDOM_SEED","SCENARIO","SECONDARY_CASES","SYMPTOMATIC_EMISSION_RATE","V","VOLUME_CONCENTRATION_LAMBDA","YOUNG_SYMPTOMATIC_PROB","fE","fExfI","fI","rB","rE","secondary_cases"
"0","0.288","5.376E-4","0.0011111111111111111","1","0","0","0.99","18.6","covid19_N251","run_000002","0.00398406374501992","1","19.57","0.015","5.8E-5","10000000","0.06379326114800002","1","4.1","0","0.00398406374501992","250","0","0.01","0.0","0.0","2","mall_post","0.0","26.04","7500.0","4.1","0","0.5","0.35","0.7","2.4","2.8","0.078"
"0","0.288","5.376E-4","0.0011111111111111111","1","0","0","0.99","18.6","covid19_N251","run_000005","0.00398406374501992","1","19.57","0.015","5.8E-5","10000000","0.06379326114800002","1","4.1","0","0.00398406374501992","250","0","0.01","0.0","0.0","5","mall_post","0.0","26.04","7500.0","4.1","0","0.5","0.35","0.7","2.4","2.8","0.078"
"0","0.288","5.376E-4","0.0011111111111111111","1","0","0","0.99","18.6","covid19_N251","run_000004","0.00398406374501992","1","19.57","0.015","5.8E-5","10000000","0.06379326114800002","1","4.1","0","0.00398406374501992","250","0","0.01","0.0","0.0","4","mall_post","0.0","26.04","7500.0","4.1","0","0.5","0.35","0.7","2.4","2.8","0.078"
"0","0.288","5.376E-4","0.0011111111111111111","1","0","0","0.99","18.6","covid19_N251","run_000000","0.00398406374501992","1","19.57","0.015","5.8E-5","10000000","0.06379326114800002","1","4.1","0","0.00398406374501992","250","0","0.01","0.0","0.0","0","mall_post","0.0","26.04","7500.0","4.1","0","0.5","0.35","0.7","2.4","2.8","0.078"
"0","0.288","5.376E-4","0.0011111111111111111","1","0","0","0.99","18.6","covid19_N251","run_000007","0.00398406374501992","1","19.57","0.015","5.8E-5","10000000","0.06379326114800002","1","4.1","0","0.00398406374501992","250","0","0.01","0.0","0.0","7","mall_post","0.0","26.04","7500.0","4.1","0","0.5","0.35","0.7","2.4","2.8","0.078"
"0","0.288","5.376E-4","0.0011111111111111111","1","0","0","0.99","18.6","covid19_N251","run_000001","0.00398406374501992","1","19.57","0.015","5.8E-5","10000000","0.06379326114800002","1","4.1","0","0.00398406374501992","250","0","0.01","0.0","0.0","1","mall_post","0.0","26.04","7500.0","4.1","0","0.5","0.35","0.7","2.4","2.8","0.078"
"0","0.288","5.376E-4","0.0011111111111111111","1","0","0","0.99","18.6","covid19_N251","run_000003","0.00398406374501992","1","19.57","0.015","5.8E-5","10000000","0.06379326114800002","1","4.1","0","0.00398406374501992","250","0","0.01","0.0","0.0","3","mall_post","0.0","26.04","7500.0","4.1","0","0.5","0.35","0.7","2.4","2.8","0.078"
"0","0.288","5.376E-4","0.0011111111111111111","1","0","0","0.99","18.6","covid19_N251","run_000006","0.00398406374501992","1","19.57","0.015","5.8E-5","10000000","0.06379326114800002","1","4.1","0","0.00398406374501992","250","0","0.01","0.0","0.0","6","mall_post","0.0","26.04","7500.0","4.1","0","0.5","0.35","0.7","2.4","2.8","0.078"
"0","0.288","5.376E-4","0.0011111111111111111","1","0","0","0.99","18.6","covid19_N251","run_000008","0.00398406374501992","1","19.57","0.015","5.8E-5","10000000","0.06379326114800002","1","4.1","0","0.00398406374501992","250","0","0.01","0.0","0.0","8","mall_post","0.0","26.04","7500.0","4.1","0","0.5","0.35","0.7","2.4","2.8","0.078"
"0","0.288","5.376E-4","0.0011111111111111111","1","0","0","0.99","18.6","covid19_N251","run_000011","0.00398406374501992","1","19.57","0.015","5.8E-5","10000000","0.06379326114800002","1","4.1","0","0.00398406374501992","250","0","0.01","0.0","0.0","11","mall_post","0.0","26.04","7500.0","4.1","0","0.5","0.35","0.7","2.4","2.8","0.078"
"0","0.288","5.376E-4","0.0011111111111111111","1","0","0","0.99","18.6","covid19_N251","run_000013","0.00398406374501992","1","19.57","0.015","5.8E-5","10000000","0.06379326114800002","1","4.1","0","0.00398406374501992","250","0","0.01","0.0","0.0","13","mall_post","0.0","26.04","7500.0","4.1","0","0.5","0.35","0.7","2.4","2.8","0.078"
"0","0.288","5.376E-4","0.0011111111111111111","1","0","0","0.99","18.6","covid19_N251","run_000014","0.00398406374501992","1","19.57","0.015","5.8E-5","10000000","0.06379326114800002","1","4.1","0","0.00398406374501992","250","0","0.01","0.0","0.0","14","mall_post","0.0","26.04","7500.0","4.1","0","0.5","0.35","0.7","2.4","2.8","0.078"
"0","0.288","5.376E-4","0.0011111111111111111","1","0","0","0.99","18.6","covid19_N251","run_000009","0.00398406374501992","1","19.57","0.015","5.8E-5","10000000","0.06379326114800002","1","4.1","0","0.00398406374501992","250","0","0.01","0.0","0.0","9","mall_post","0.0","26.04","7500.0","4.1","0","0.5","0.35","0.7","2.4","2.8","0.078"
"0","0.288","5.376E-4","0.0011111111111111111","1","0","0","0.99","18.6","covid19_N251","run_000012","0.00398406374501992","1","19.57","0.015","5.8E-5","10000000","0.06379326114800002","1","4.1","0","0.00398406374501992","250","0","0.01","0.0","0.0","12","mall_post","0.0","26.04","7500.0","4.1","0","0.5","0.35","0.7","2.4","2.8","0.078"
"0","0.288","5.376E-4","0.0011111111111111111","1","0","0","0.99","18.6","covid19_N251","run_000010","0.00398406374501992","1","19.57","0.015","5.8E-5","10000000","0.06379326114800002","1","4.1","0","0.00398406374501992","250","0","0.01","0.0","0.0","10","mall_post","0.0","26.04","7500.0","4.1","0","0.5","0.35","0.7","2.4","2.8","0.078"
"0","0.288","5.376E-4","0.0011111111111111111","1","0","0","0.99","18.6","covid19_N251","run_000017","0.00398406374501992","1","19.57","0.015","5.8E-5","10000000","0.06379326114800002","1","4.1","0","0.00398406374501992","250","0","0.01","0.0","0.0","17","mall_post","0.0","26.04","7500.0","4.1","0","0.5","0.35","0.7","2.4","2.8","0.078"
"0","0.288","5.376E-4","0.0011111111111111111","1","0","0","0.99","18.6","covid19_N251","run_000020","0.00398406374501992","1","19.57","0.015","5.8E-5","10000000","0.06379326114800002","1","4.1","0","0.00398406374501992","250","0","0.01","0.0","0.0","20","mall_post","0.0","26.04","7500.0","4.1","0","0.5","0.35","0.7","2.4","2.8","0.078"
"0","0.288","5.376E-4","0.0011111111111111111","1","0","0","0.99","18.6","covid19_N251","run_000021","0.00398406374501992","1","19.57","0.015","5.8E-5","10000000","0.06379326114800002","1","4.1","0","0.00398406374501992","250","0","0.01","0.0","0.0","21","mall_post","0.0","26.04","7500.0","4.1","0","0.5","0.35","0.7","2.4","2.8","0.078"
"0","0.288","5.376E-4","0.0011111111111111111","1","0","0","0.99","18.6","covid19_N251","run_000016","0.00398406374501992","1","19.57","0.015","5.8E-5","10000000","0.06379326114800002","1","4.1","0","0.00398406374501992","250","0","0.01","0.0","0.0","16","mall_post","0.0","26.04","7500.0","4.1","0","0.5","0.35","0.7","2.4","2.8","0.078"
"0","0.288","5.376E-4","0.0011111111111111111","1","0","0","0.99","18.6","covid19_N251","run_000015","0.00398406374501992","1","19.57","0.015","5.8E-5","10000000","0.06379326114800002","1","4.1","0","0.00398406374501992","250","0","0.01","0.0","0.0","15","mall_post","0.0","26.04","7500.0","4.1","0","0.5","0.35","0.7","2.4","2.8","0.078"
"0","0.288","5.376E-4","0.0011111111111111111","1","0","0","0.99","18.6","covid19_N251","run_000019","0.00398406374501992","1","19.57","0.015","5.8E-5","10000000","0.06379326114800002","1","4.1","0","0.00398406374501992","250","0","0.01","0.0","0.0","19","mall_post","0.0","26.04","7500.0","4.1","0","0.5","0.35","0.7","2.4","2.8","0.078"
"0","0.288","5.376E-4","0.0011111111111111111","1","0","0","0.99","18.6","covid19_N251","run_000025","0.00398406374501992","1","19.57","0.015","5.8E-5","10000000","0.06379326114800002","1","4.1","0","0.00398406374501992","250","0","0.01","0.0","0.0","25","mall_post","0.0","26.04","7500.0","4.1","0","0.5","0.35","0.7","2.4","2.8","0.078"
"0","0.288","5.376E-4","0.0011111111111111111","1","0","0","0.99","18.6","covid19_N251","run_000023","0.00398406374501992","1","19.57","0.015","5.8E-5","10000000","0.06379326114800002","1","4.1","0","0.00398406374501992","250","0","0.01","0.0","0.0","23","mall_post","0.0","26.04","7500.0","4.1","0","0.5","0.35","0.7","2.4","2.8","0.078"
"0","0.288","5.376E-4","0.0011111111111111111","1","0","0","0.99","18.6","covid19_N251","run_000018","0.00398406374501992","1","19.57","0.015","5.8E-5","10000000","0.06379326114800002","1","4.1","0","0.00398406374501992","250","0","0.01","0.0","0.0","18","mall_post","0.0","26.04","7500.0","4.1","0","0.5","0.35","0.7","2.4","2.8","0.078"
"0","0.288","5.376E-4","0.0011111111111111111","1","0","0","0.99","18.6","covid19_N251","run_000027","0.00398406374501992","1","19.57","0.015","5.8E-5","10000000","0.06379326114800002","1","4.1","0","0.00398406374501992","250","0","0.01","0.0","0.0","27","mall_post","0.0","26.04","7500.0","4.1","0","0.5","0.35","0.7","2.4","2.8","0.078"
"0","0.288","5.376E-4","0.0011111111111111111","1","0","0","0.99","18.6","covid19_N251","run_000028","0.00398406374501992","1","19.57","0.015","5.8E-5","10000000","0.06379326114800002","1","4.1","0","0.00398406374501992","250","0","0.01","0.0","0.0","28","mall_post","0.0","26.04","7500.0","4.1","0","0.5","0.35","0.7","2.4","2.8","0.078"
"0","0.288","5.376E-4","0.0011111111111111111","1","0","0","0.99","18.6","covid19_N251","run_000022","0.00398406374501992","1","19.57","0.015","5.8E-5","10000000","0.06379326114800002","1","4.1","0","0.00398406374501992","250","0","0.01","0.0","0.0","22","mall_post","0.0","26.04","7500.0","4.1","0","0.5","0.35","0.7","2.4","2.8","0.078"
"0","0.288","5.376E-4","0.0011111111111111111","1","0","0","0.99","18.6","covid19_N251","run_000029","0.00398406374501992","1","19.57","0.015","5.8E-5","10000000","0.06379326114800002","1","4.1","0","0.00398406374501992","250","0","0.01","0.0","0.0","29","mall_post","0.0","26.04","7500.0","4.1","0","0.5","0.35","0.7","2.4","2.8","0.078"
"0","0.288","5.376E-4","0.0011111111111111111","1","0","0","0.99","18.6","covid19_N251","run_000024","0.00398406374501992","1","19.57","0.015","5.8E-5","10000000","0.06379326114800002","1","4.1","0","0.00398406374501992","250","0","0.01","0.0","0.0","24","mall_post","0.0","26.04","7500.0","4.1","0","0.5","0.35","0.7","2.4","2.8","0.078"
"0","0.288","5.376E-4","0.0011111111111111111","1","0","0","0.99","18.6","covid19_N251","run_000031","0.00398406374501992","1","19.57","0.015","5.8E-5","10000000","0.06379326114800002","1","4.1","0","0.00398406374501992","250","0","0.01","0.0","0.0","31","mall_post","0.0","26.04","7500.0","4.1","0","0.5","0.35","0.7","2.4","2.8","0.078"
"0","0.288","5.376E-4","0.0011111111111111111","1","0","0","0.99","18.6","covid19_N251","run_000030","0.00398406374501992","1","19.57","0.015","5.8E-5","10000000","0.06379326114800002","1","4.1","0","0.00398406374501992","250","0","0.01","0.0","0.0","30","mall_post","0.0","26.04","7500.0","4.1","0","0.5","0.35","0.7","2.4","2.8","0.078"
"0","0.288","5.376E-4","0.0011111111111111111","1","0","0","0.99","18.6","covid19_N251","run_000026","0.00398406374501992","1","19.57","0.015","5.8E-5","10000000","0.06379326114800002","1","4.1","0","0.00398406374501992","250","0","0.01","0.0","0.0","26","mall_post","0.0","26.04","7500.0","4.1","0","0.5","0.35","0.7","2.4","2.8","0.078"
"0","0.288","5.376E-4","0.0011111111111111111","1","0","0","0.99","18.6","covid19_N251","run_000033","0.00398406374501992","1","19.57","0.015","5.8E-5","10000000","0.06379326114800002","1","4.1","0","0.00398406374501992","250","0","0.01","0.0","0.0","33","mall_post","0.0","26.04","7500.0","4.1","0","0.5","0.35","0.7","2.4","2.8","0.078"
"0","0.288","5.376E-4","0.0011111111111111111","1","0","0","0.99","18.6","covid19_N251","run_000035","0.00398406374501992","1","19.57","0.015","5.8E-5","10000000","0.06379326114800002","1","4.1","0","0.00398406374501992","250","0","0.01","0.0","0.0","35","mall_post","0.0","26.04","7500.0","4.1","0","0.5","0.35","0.7","2.4","2.8","0.078"
"0","0.288","5.376E-4","0.0011111111111111111","1","0","0","0.99","18.6","covid19_N251","run_000032","0.00398406374501992","1","19.57","0.015","5.8E-5","10000000","0.06379326114800002","1","4.1","0","0.00398406374501992","250","0","0.01","0.0","0.0","32","mall_post","0.0","26.04","7500.0","4.1","0","0.5","0.35","0.7","2.4","2.8","0.078"
"0","0.288","5.376E-4","0.0011111111111111111","1","0","0","0.99","18.6","covid19_N251","run_000036","0.00398406374501992","1","19.57","0.015","5.8E-5","10000000","0.06379326114800002","1","4.1","0","0.00398406374501992","250","0","0.01","0.0","0.0","36","mall_post","0.0","26.04","7500.0","4.1","0","0.5","0.35","0.7","2.4","2.8","0.078"
"0","0.288","5.376E-4","0.0011111111111111111","1","0","0","0.99","18.6","covid19_N251","run_000034","0.00398406374501992","1","19.57","0.015","5.8E-5","10000000","0.06379326114800002","1","4.1","0","0.00398406374501992","250","0","0.01","0.0","0.0","34","mall_post","0.0","26.04","7500.0","4.1","0","0.5","0.35","0.7","2.4","2.8","0.078"
"0","0.288","5.376E-4","0.0011111111111111111","1","0","0","0.99","18.6","covid19_N251","run_000041","0.00398406374501992","1","19.57","0.015","5.8E-5","10000000","0.06379326114800002","1","4.1","0","0.00398406374501992","250","0","0.01","0.0","0.0","41","mall_post","0.0","26.04","7500.0","4.1","0","0.5","0.35","0.7","2.4","2.8","0.078"
"0","0.288","5.376E-4","0.0011111111111111111","1","0","0","0.99","18.6","covid19_N251","run_000037","0.00398406374501992","1","19.57","0.015","5.8E-5","10000000","0.06379326114800002","1","4.1","0","0.00398406374501992","250","0","0.01","0.0","0.0","37","mall_post","0.0","26.04","7500.0","4.1","0","0.5","0.35","0.7","2.4","2.8","0.078"
"0","0.288","5.376E-4","0.0011111111111111111","1","0","-0.0","0.99","18.6","covid19_N251","run_000040","0.00796812749003984","1","19.57","0.015","5.8E-5","10000000","0.06379326114800002","1","4.1","0","0.00796812749003984","250","0","0.01","0.0","0.0","40","mall_post","1.0","26.04","7500.0","4.1","0","0.5","0.35","0.7","2.4","2.8","0.078"
"0","0.288","5.376E-4","0.0011111111111111111","1","0","0","0.99","18.6","covid19_N251","run_000039","0.00398406374501992","1","19.57","0.015","5.8E-5","10000000","0.06379326114800002","1","4.1","0","0.00398406374501992","250","0","0.01","0.0","0.0","39","mall_post","0.0","26.04","7500.0","4.1","0","0.5","0.35","0.7","2.4","2.8","0.078"
"0","0.288","5.376E-4","0.0011111111111111111","1","0","0","0.99","18.6","covid19_N251","run_000038","0.00398406374501992","1","19.57","0.015","5.8E-5","10000000","0.06379326114800002","1","4.1","0","0.00398406374501992","250","0","0.01","0.0","0.0","38","mall_post","0.0","26.04","7500.0","4.1","0","0.5","0.35","0.7","2.4","2.8","0.078"
"0","0.288","5.376E-4","0.0011111111111111111","1","0","0","0.99","18.6","covid19_N251","run_000044","0.00398406374501992","1","19.57","0.015","5.8E-5","10000000","0.06379326114800002","1","4.1","0","0.00398406374501992","250","0","0.01","0.0","0.0","44","mall_post","0.0","26.04","7500.0","4.1","0","0.5","0.35","0.7","2.4","2.8","0.078"
"0","0.288","5.376E-4","0.0011111111111111111","1","0","0","0.99","18.6","covid19_N251","run_000043","0.00398406374501992","1","19.57","0.015","5.8E-5","10000000","0.06379326114800002","1","4.1","0","0.00398406374501992","250","0","0.01","0.0","0.0","43","mall_post","0.0","26.04","7500.0","4.1","0","0.5","0.35","0.7","2.4","2.8","0.078"
"0","0.288","5.376E-4","0.0011111111111111111","1","0","0","0.99","18.6","covid19_N251","run_000042","0.00398406374501992","1","19.57","0.015","5.8E-5","10000000","0.06379326114800002","1","4.1","0","0.00398406374501992","250","0","0.01","0.0","0.0","42","mall_post","0.0","26.04","7500.0","4.1","0","0.5","0.35","0.7","2.4","2.8","0.078"
"0","0.288","5.376E-4","0.0011111111111111111","1","0","0","0.99","18.6","covid19_N251","run_000046","0.00398406374501992","1","19.57","0.015","5.8E-5","10000000","0.06379326114800002","1","4.1","0","0.00398406374501992","250","0","0.01","0.0","0.0","46","mall_post","0.0","26.04","7500.0","4.1","0","0.5","0.35","0.7","2.4","2.8","0.078"
"0","0.288","5.376E-4","0.0011111111111111111","1","0","0","0.99","18.6","covid19_N251","run_000049","0.00398406374501992","1","19.57","0.015","5.8E-5","10000000","0.06379326114800002","1","4.1","0","0.00398406374501992","250","0","0.01","0.0","0.0","49","mall_post","0.0","26.04","7500.0","4.1","0","0.5","0.35","0.7","2.4","2.8","0.078"
"0","0.288","5.376E-4","0.0011111111111111111","1","0","0","0.99","18.6","covid19_N251","run_000048","0.00398406374501992","1","19.57","0.015","5.8E-5","10000000","0.06379326114800002","1","4.1","0","0.00398406374501992","250","0","0.01","0.0","0.0","48","mall_post","0.0","26.04","7500.0","4.1","0","0.5","0.35","0.7","2.4","2.8","0.078"
"0","0.288","5.376E-4","0.0011111111111111111","1","0","0","0.99","18.6","covid19_N251","run_000045","0.00398406374501992","1","19.57","0.015","5.8E-5","10000000","0.06379326114800002","1","4.1","0","0.00398406374501992","250","0","0.01","0.0","0.0","45","mall_post","0.0","26.04","7500.0","4.1","0","0.5","0.35","0.7","2.4","2.8","0.078"
"0","0.288","5.376E-4","0.0011111111111111111","1","0","0","0.99","18.6","covid19_N251","run_000047","0.00398406374501992","1","19.57","0.015","5.8E-5","10000000","0.06379326114800002","1","4.1","0","0.00398406374501992","250","0","0.01","0.0","0.0","47","mall_post","0.0","26.04","7500.0","4.1","0","0.5","0.35","0.7","2.4","2.8","0.078"
"0","0.288","5.376E-4","0.0011111111111111111","1","0","0","0.99","18.6","covid19_N251","run_000053","0.00398406374501992","1","19.57","0.015","5.8E-5","10000000","0.06379326114800002","1","4.1","0","0.00398406374501992","250","0","0.01","0.0","0.0","53","mall_post","0.0","26.04","7500.0","4.1","0","0.5","0.35","0.7","2.4","2.8","0.078"
"0","0.288","5.376E-4","0.0011111111111111111","1","0","0","0.99","18.6","covid19_N251","run_000051","0.00398406374501992","1","19.57","0.015","5.8E-5","10000000","0.06379326114800002","1","4.1","0","0.00398406374501992","250","0","0.01","0.0","0.0","51","mall_post","0.0","26.04","7500.0","4.1","0","0.5","0.35","0.7","2.4","2.8","0.078"
"0","0.288","5.376E-4","0.0011111111111111111","1","0","0","0.99","18.6","covid19_N251","run_000054","0.00398406374501992","1","19.57","0.015","5.8E-5","10000000","0.06379326114800002","1","4.1","0","0.00398406374501992","250","0","0.01","0.0","0.0","54","mall_post","0.0","26.04","7500.0","4.1","0","0.5","0.35","0.7","2.4","2.8","0.078"
"0","0.288","5.376E-4","0.0011111111111111111","1","0","0","0.99","18.6","covid19_N251","run_000052","0.00398406374501992","1","19.57","0.015","5.8E-5","10000000","0.06379326114800002","1","4.1","0","0.00398406374501992","250","0","0.01","0.0","0.0","52","mall_post","0.0","26.04","7500.0","4.1","0","0.5","0.35","0.7","2.4","2.8","0.078"
"0","0.288","5.376E-4","0.0011111111111111111","1","0","0","0.99","18.6","covid19_N251","run_000055","0.00398406374501992","1","19.57","0.015","5.8E-5","10000000","0.06379326114800002","1","4.1","0","0.00398406374501992","250","0","0.01","0.0","0.0","55","mall_post","0.0","26.04","7500.0","4.1","0","0.5","0.35","0.7","2.4","2.8","0.078"
"0","0.288","5.376E-4","0.0011111111111111111","1","0","0","0.99","18.6","covid19_N251","run_000050","0.00398406374501992","1","19.57","0.015","5.8E-5","10000000","0.06379326114800002","1","4.1","0","0.00398406374501992","250","0","0.01","0.0","0.0","50","mall_post","0.0","26.04","7500.0","4.1","0","0.5","0.35","0.7","2.4","2.8","0.078"
"0","0.288","5.376E-4","0.0011111111111111111","1","0","0","0.99","18.6","covid19_N251","run_000061","0.00398406374501992","1","19.57","0.015","5.8E-5","10000000","0.06379326114800002","1","4.1","0","0.00398406374501992","250","0","0.01","0.0","0.0","62","mall_post","0.0","26.04","7500.0","4.1","0","0.5","0.35","0.7","2.4","2.8","0.078"
"0","0.288","5.376E-4","0.0011111111111111111","1","0","0","0.99","18.6","covid19_N251","run_000060","0.00398406374501992","1","19.57","0.015","5.8E-5","10000000","0.06379326114800002","1","4.1","0","0.00398406374501992","250","0","0.01","0.0","0.0","61","mall_post","0.0","26.04","7500.0","4.1","0","0.5","0.35","0.7","2.4","2.8","0.078"
"0","0.288","5.376E-4","0.0011111111111111111","1","0","0","0.99","18.6","covid19_N251","run_000059","0.00398406374501992","1","19.57","0.015","5.8E-5","10000000","0.06379326114800002","1","4.1","0","0.00398406374501992","250","0","0.01","0.0","0.0","60","mall_post","0.0","26.04","7500.0","4.1","0","0.5","0.35","0.7","2.4","2.8","0.078"
"0","0.288","5.376E-4","0.0011111111111111111","1","0","-0.0","0.99","18.6","covid19_N251","run_000057","0.00796812749003984","1","19.57","0.015","5.8E-5","10000000","0.06379326114800002","1","4.1","0","0.00796812749003984","250","0","0.01","0.0","0.0","58","mall_post","1.0","26.04","7500.0","4.1","0","0.5","0.35","0.7","2.4","2.8","0.078"
"0","0.288","5.376E-4","0.0011111111111111111","1","0","0","0.99","18.6","covid19_N251","run_000062","0.00398406374501992","1","19.57","0.015","5.8E-5","10000000","0.06379326114800002","1","4.1","0","0.00398406374501992","250","0","0.01","0.0","0.0","63","mall_post","0.0","26.04","7500.0","4.1","0","0.5","0.35","0.7","2.4","2.8","0.078"
"0","0.288","5.376E-4","0.0011111111111111111","1","0","0","0.99","18.6","covid19_N251","run_000056","0.00398406374501992","1","19.57","0.015","5.8E-5","10000000","0.06379326114800002","1","4.1","0","0.00398406374501992","250","0","0.01","0.0","0.0","56","mall_post","0.0","26.04","7500.0","4.1","0","0.5","0.35","0.7","2.4","2.8","0.078"
"0","0.288","5.376E-4","0.0011111111111111111","1","0","0","0.99","18.6","covid19_N251","run_000063","0.00398406374501992","1","19.57","0.015","5.8E-5","10000000","0.06379326114800002","1","4.1","0","0.00398406374501992","250","0","0.01","0.0","0.0","64","mall_post","0.0","26.04","7500.0","4.1","0","0.5","0.35","0.7","2.4","2.8","0.078"
"0","0.288","5.376E-4","0.0011111111111111111","1","0","0","0.99","18.6","covid19_N251","run_000058","0.00398406374501992","1","19.57","0.015","5.8E-5","10000000","0.06379326114800002","1","4.1","0","0.00398406374501992","250","0","0.01","0.0","0.0","59","mall_post","0.0","26.04","7500.0","4.1","0","0.5","0.35","0.7","2.4","2.8","0.078"
"0","0.288","5.376E-4","0.0011111111111111111","1","0","0","0.99","18.6","covid19_N251","run_000069","0.00398406374501992","1","19.57","0.015","5.8E-5","10000000","0.06379326114800002","1","4.1","0","0.00398406374501992","250","0","0.01","0.0","0.0","70","mall_post","0.0","26.04","7500.0","4.1","0","0.5","0.35","0.7","2.4","2.8","0.078"
"0","0.288","5.376E-4","0.0011111111111111111","1","0","0","0.99","18.6","covid19_N251","run_000065","0.00398406374501992","1","19.57","0.015","5.8E-5","10000000","0.06379326114800002","1","4.1","0","0.00398406374501992","250","0","0.01","0.0","0.0","66","mall_post","0.0","26.04","7500.0","4.1","0","0.5","0.35","0.7","2.4","2.8","0.078"
"0","0.288","5.376E-4","0.0011111111111111111","1","0","-0.0","0.99","18.6","covid19_N251","run_000072","0.00796812749003984","1","19.57","0.015","5.8E-5","10000000","0.06379326114800002","1","4.1","0","0.00796812749003984","250","0","0.01","0.0","0.0","73","mall_post","1.0","26.04","7500.0","4.1","0","0.5","0.35","0.7","2.4","2.8","0.078"
"0","0.288","5.376E-4","0.0011111111111111111","1","0","0","0.99","18.6","covid19_N251","run_000070","0.00398406374501992","1","19.57","0.015","5.8E-5","10000000","0.06379326114800002","1","4.1","0","0.00398406374501992","250","0","0.01","0.0","0.0","71","mall_post","0.0","26.04","7500.0","4.1","0","0.5","0.35","0.7","2.4","2.8","0.078"
"0","0.288","5.376E-4","0.0011111111111111111","1","0","0","0.99","18.6","covid19_N251","run_000067","0.00398406374501992","1","19.57","0.015","5.8E-5","10000000","0.06379326114800002","1","4.1","0","0.00398406374501992","250","0","0.01","0.0","0.0","68","mall_post","0.0","26.04","7500.0","4.1","0","0.5","0.35","0.7","2.4","2.8","0.078"
"0","0.288","5.376E-4","0.0011111111111111111","1","0","0","0.99","18.6","covid19_N251","run_000068","0.00398406374501992","1","19.57","0.015","5.8E-5","10000000","0.06379326114800002","1","4.1","0","0.00398406374501992","250","0","0.01","0.0","0.0","69","mall_post","0.0","26.04","7500.0","4.1","0","0.5","0.35","0.7","2.4","2.8","0.078"
"0","0.288","5.376E-4","0.0011111111111111111","1","0","0","0.99","18.6","covid19_N251","run_000071","0.00398406374501992","1","19.57","0.015","5.8E-5","10000000","0.06379326114800002","1","4.1","0","0.00398406374501992","250","0","0.01","0.0","0.0","72","mall_post","0.0","26.04","7500.0","4.1","0","0.5","0.35","0.7","2.4","2.8","0.078"
"0","0.288","5.376E-4","0.0011111111111111111","1","0","-0.0","0.99","18.6","covid19_N251","run_000064","0.00796812749003984","1","19.57","0.015","5.8E-5","10000000","0.06379326114800002","1","4.1","0","0.00796812749003984","250","0","0.01","0.0","0.0","65","mall_post","1.0","26.04","7500.0","4.1","0","0.5","0.35","0.7","2.4","2.8","0.078"
"0","0.288","5.376E-4","0.0011111111111111111","1","0","0","0.99","18.6","covid19_N251","run_000066","0.00398406374501992","1","19.57","0.015","5.8E-5","10000000","0.06379326114800002","1","4.1","0","0.00398406374501992","250","0","0.01","0.0","0.0","67","mall_post","0.0","26.04","7500.0","4.1","0","0.5","0.35","0.7","2.4","2.8","0.078"
"0","0.288","5.376E-4","0.0011111111111111111","1","0","0","0.99","18.6","covid19_N251","run_000076","0.00398406374501992","1","19.57","0.015","5.8E-5","10000000","0.06379326114800002","1","4.1","0","0.00398406374501992","250","0","0.01","0.0","0.0","76","mall_post","0.0","26.04","7500.0","4.1","0","0.5","0.35","0.7","2.4","2.8","0.078"
"0","0.288","5.376E-4","0.0011111111111111111","1","0","0","0.99","18.6","covid19_N251","run_000078","0.00398406374501992","1","19.57","0.015","5.8E-5","10000000","0.06379326114800002","1","4.1","0","0.00398406374501992","250","0","0.01","0.0","0.0","78","mall_post","0.0","26.04","7500.0","4.1","0","0.5","0.35","0.7","2.4","2.8","0.078"
"0","0.288","5.376E-4","0.0011111111111111111","1","0","0","0.99","18.6","covid19_N251","run_000074","0.00398406374501992","1","19.57","0.015","5.8E-5","10000000","0.06379326114800002","1","4.1","0","0.00398406374501992","250","0","0.01","0.0","0.0","75","mall_post","0.0","26.04","7500.0","4.1","0","0.5","0.35","0.7","2.4","2.8","0.078"
"0","0.288","5.376E-4","0.0011111111111111111","1","0","0","0.99","18.6","covid19_N251","run_000077","0.00398406374501992","1","19.57","0.015","5.8E-5","10000000","0.06379326114800002","1","4.1","0","0.00398406374501992","250","0","0.01","0.0","0.0","77","mall_post","0.0","26.04","7500.0","4.1","0","0.5","0.35","0.7","2.4","2.8","0.078"
"0","0.288","5.376E-4","0.0011111111111111111","1","0","0","0.99","18.6","covid19_N251","run_000075","0.00398406374501992","1","19.57","0.015","5.8E-5","10000000","0.06379326114800002","1","4.1","0","0.00398406374501992","250","0","0.01","0.0","0.0","75","mall_post","0.0","26.04","7500.0","4.1","0","0.5","0.35","0.7","2.4","2.8","0.078"
"0","0.288","5.376E-4","0.0011111111111111111","1","0","0","0.99","18.6","covid19_N251","run_000079","0.00398406374501992","1","19.57","0.015","5.8E-5","10000000","0.06379326114800002","1","4.1","0","0.00398406374501992","250","0","0.01","0.0","0.0","79","mall_post","0.0","26.04","7500.0","4.1","0","0.5","0.35","0.7","2.4","2.8","0.078"
"0","0.288","5.376E-4","0.0011111111111111111","1","0","0","0.99","18.6","covid19_N251","run_000073","0.00398406374501992","1","19.57","0.015","5.8E-5","10000000","0.06379326114800002","1","4.1","0","0.00398406374501992","250","0","0.01","0.0","0.0","74","mall_post","0.0","26.04","7500.0","4.1","0","0.5","0.35","0.7","2.4","2.8","0.078"
"0","0.288","5.376E-4","0.0011111111111111111","1","0","0","0.99","18.6","covid19_N251","run_000080","0.00398406374501992","1","19.57","0.015","5.8E-5","10000000","0.06379326114800002","1","4.1","0","0.00398406374501992","250","0","0.01","0.0","0.0","80","mall_post","0.0","26.04","7500.0","4.1","0","0.5","0.35","0.7","2.4","2.8","0.078"
"0","0.288","5.376E-4","0.0011111111111111111","1","0","0","0.99","18.6","covid19_N251","run_000083","0.00398406374501992","1","19.57","0.015","5.8E-5","10000000","0.06379326114800002","1","4.1","0","0.00398406374501992","250","0","0.01","0.0","0.0","83","mall_post","0.0","26.04","7500.0","4.1","0","0.5","0.35","0.7","2.4","2.8","0.078"
"0","0.288","5.376E-4","0.0011111111111111111","1","0","0","0.99","18.6","covid19_N251","run_000081","0.00398406374501992","1","19.57","0.015","5.8E-5","10000000","0.06379326114800002","1","4.1","0","0.00398406374501992","250","0","0.01","0.0","0.0","81","mall_post","0.0","26.04","7500.0","4.1","0","0.5","0.35","0.7","2.4","2.8","0.078"
"0","0.288","5.376E-4","0.0011111111111111111","1","0","0","0.99","18.6","covid19_N251","run_000085","0.00398406374501992","1","19.57","0.015","5.8E-5","10000000","0.06379326114800002","1","4.1","0","0.00398406374501992","250","0","0.01","0.0","0.0","85","mall_post","0.0","26.04","7500.0","4.1","0","0.5","0.35","0.7","2.4","2.8","0.078"
"0","0.288","5.376E-4","0.0011111111111111111","1","0","0","0.99","18.6","covid19_N251","run_000086","0.00398406374501992","1","19.57","0.015","5.8E-5","10000000","0.06379326114800002","1","4.1","0","0.00398406374501992","250","0","0.01","0.0","0.0","86","mall_post","0.0","26.04","7500.0","4.1","0","0.5","0.35","0.7","2.4","2.8","0.078"
"0","0.288","5.376E-4","0.0011111111111111111","1","0","0","0.99","18.6","covid19_N251","run_000082","0.00398406374501992","1","19.57","0.015","5.8E-5","10000000","0.06379326114800002","1","4.1","0","0.00398406374501992","250","0","0.01","0.0","0.0","82","mall_post","0.0","26.04","7500.0","4.1","0","0.5","0.35","0.7","2.4","2.8","0.078"
"0","0.288","5.376E-4","0.0011111111111111111","1","0","0","0.99","18.6","covid19_N251","run_000084","0.00398406374501992","1","19.57","0.015","5.8E-5","10000000","0.06379326114800002","1","4.1","0","0.00398406374501992","250","0","0.01","0.0","0.0","84","mall_post","0.0","26.04","7500.0","4.1","0","0.5","0.35","0.7","2.4","2.8","0.078"
"0","0.288","5.376E-4","0.0011111111111111111","1","0","-0.0","0.99","18.6","covid19_N251","run_000087","0.00796812749003984","1","19.57","0.015","5.8E-5","10000000","0.06379326114800002","1","4.1","0","0.00796812749003984","250","0","0.01","0.0","0.0","87","mall_post","1.0","26.04","7500.0","4.1","0","0.5","0.35","0.7","2.4","2.8","0.078"
"0","0.288","5.376E-4","0.0011111111111111111","1","0","0","0.99","18.6","covid19_N251","run_000090","0.00398406374501992","1","19.57","0.015","5.8E-5","10000000","0.06379326114800002","1","4.1","0","0.00398406374501992","250","0","0.01","0.0","0.0","90","mall_post","0.0","26.04","7500.0","4.1","0","0.5","0.35","0.7","2.4","2.8","0.078"
"0","0.288","5.376E-4","0.0011111111111111111","1","0","0","0.99","18.6","covid19_N251","run_000088","0.00398406374501992","1","19.57","0.015","5.8E-5","10000000","0.06379326114800002","1","4.1","0","0.00398406374501992","250","0","0.01","0.0","0.0","88","mall_post","0.0","26.04","7500.0","4.1","0","0.5","0.35","0.7","2.4","2.8","0.078"
"0","0.288","5.376E-4","0.0011111111111111111","1","0","0","0.99","18.6","covid19_N251","run_000089","0.00398406374501992","1","19.57","0.015","5.8E-5","10000000","0.06379326114800002","1","4.1","0","0.00398406374501992","250","0","0.01","0.0","0.0","89","mall_post","0.0","26.04","7500.0","4.1","0","0.5","0.35","0.7","2.4","2.8","0.078"
"0","0.288","5.376E-4","0.0011111111111111111","1","0","0","0.99","18.6","covid19_N251","run_000094","0.00398406374501992","1","19.57","0.015","5.8E-5","10000000","0.06379326114800002","1","4.1","0","0.00398406374501992","250","0","0.01","0.0","0.0","94","mall_post","0.0","26.04","7500.0","4.1","0","0.5","0.35","0.7","2.4","2.8","0.078"
"0","0.288","5.376E-4","0.0011111111111111111","1","0","0","0.99","18.6","covid19_N251","run_000092","0.00398406374501992","1","19.57","0.015","5.8E-5","10000000","0.06379326114800002","1","4.1","0","0.00398406374501992","250","0","0.01","0.0","0.0","92","mall_post","0.0","26.04","7500.0","4.1","0","0.5","0.35","0.7","2.4","2.8","0.078"
"0","0.288","5.376E-4","0.0011111111111111111","1","0","0","0.99","18.6","covid19_N251","run_000093","0.00398406374501992","1","19.57","0.015","5.8E-5","10000000","0.06379326114800002","1","4.1","0","0.00398406374501992","250","0","0.01","0.0","0.0","93","mall_post","0.0","26.04","7500.0","4.1","0","0.5","0.35","0.7","2.4","2.8","0.078"
"0","0.288","5.376E-4","0.0011111111111111111","1","0","0","0.99","18.6","covid19_N251","run_000096","0.00398406374501992","1","19.57","0.015","5.8E-5","10000000","0.06379326114800002","1","4.1","0","0.00398406374501992","250","0","0.01","0.0","0.0","96","mall_post","0.0","26.04","7500.0","4.1","0","0.5","0.35","0.7","2.4","2.8","0.078"
"0","0.288","5.376E-4","0.0011111111111111111","1","0","0","0.99","18.6","covid19_N251","run_000097","0.00398406374501992","1","19.57","0.015","5.8E-5","10000000","0.06379326114800002","1","4.1","0","0.00398406374501992","250","0","0.01","0.0","0.0","97","mall_post","0.0","26.04","7500.0","4.1","0","0.5","0.35","0.7","2.4","2.8","0.078"
"0","0.288","5.376E-4","0.0011111111111111111","1","0","-0.0","0.99","18.6","covid19_N251","run_000095","0.01195219123505976","1","19.57","0.015","5.8E-5","10000000","0.06379326114800002","1","4.1","0","0.01195219123505976","250","0","0.01","0.0","0.0","95","mall_post","2.0","26.04","7500.0","4.1","0","0.5","0.35","0.7","2.4","2.8","0.078"
"0","0.288","5.376E-4","0.0011111111111111111","1","0","-0.0","0.99","18.6","covid19_N251","run_000098","0.01195219123505976","1","19.57","0.015","5.8E-5","10000000","0.06379326114800002","1","4.1","0","0.01195219123505976","250","0","0.01","0.0","0.0","98","mall_post","2.0","26.04","7500.0","4.1","0","0.5","0.35","0.7","2.4","2.8","0.078"
"0","0.288","5.376E-4","0.0011111111111111111","1","0","0","0.99","18.6","covid19_N251","run_000091","0.00398406374501992","1","19.57","0.015","5.8E-5","10000000","0.06379326114800002","1","4.1","0","0.00398406374501992","250","0","0.01","0.0","0.0","91","mall_post","0.0","26.04","7500.0","4.1","0","0.5","0.35","0.7","2.4","2.8","0.078"
"0","0.288","5.376E-4","0.0011111111111111111","1","0","0","0.99","18.6","covid19_N251","run_000099","0.00398406374501992","1","19.57","0.015","5.8E-5","10000000","0.06379326114800002","1","4.1","0","0.00398406374501992","250","0","0.01","0.0","0.0","99","mall_post","0.0","26.04","7500.0","4.1","0","0.5","0.35","0.7","2.4","2.8","0.078"
