"ADULT_SYMPTOMATIC_PROB","B0","BREATHING_INHALATION_VOLUME","BREATHING_INTERVAL_TIME","D","DEAD","DIFFERENT_CELL_COMPARISSION","DURATION","EP0","EXECUTABLE","EXPERIMENT_ID","FINAL_EPIDEMIC_SIZE","FORCE_TERMINATION_AT","GRID_SIZE","H","Hr","INCUBATION_TIME_M","INFECTION_RISK","INITIAL_INFECTED","LAMBDA","LOG_LEVEL","MAX_INFECTED","NSUS","OLD_SYMPTOMATIC_PROB","OUTPUT_UPDATE_DT","R0","R0_1third","RANDOM_SEED","SCENARIO","SECONDARY_CASES","SYMPTOMATIC_EMISSION_RATE","V","VOLUME_CONCENTRATION_LAMBDA","YOUNG_SYMPTOMATIC_PROB","fE","fExfI","fI","rB","rE","secondary_cases"
"0","0.288","3.1999999999999997E-4","0.0011111111111111111","1","0","0","0.99","18.6","covid19_N26","run_000006","0.038461538461538464","1","5.94","0.04","0.0016","10000000","3.0125052296670005","1","7.3","0","0.038461538461538464","25","0","0.01","0.0","0.0","6","restaurant_post","0.0","53.940000000000005","210.0","7.3","0","1","1","1","1","2.9","0.21"
"0","0.288","3.1999999999999997E-4","0.0011111111111111111","1","0","0","0.99","18.6","covid19_N26","run_000005","0.038461538461538464","1","5.94","0.04","0.0016","10000000","3.0125052296670005","1","7.3","0","0.038461538461538464","25","0","0.01","0.0","0.0","5","restaurant_post","0.0","53.940000000000005","210.0","7.3","0","1","1","1","1","2.9","0.21"
"0","0.288","3.1999999999999997E-4","0.0011111111111111111","1","0","0","0.99","18.6","covid19_N26","run_000007","0.038461538461538464","1","5.94","0.04","0.0016","10000000","3.0125052296670005","1","7.3","0","0.038461538461538464","25","0","0.01","0.0","0.0","7","restaurant_post","0.0","53.940000000000005","210.0","7.3","0","1","1","1","1","2.9","0.21"
"0","0.288","3.1999999999999997E-4","0.0011111111111111111","1","0","NaN","0.99","18.6","covid19_N26","run_000000","0.07692307692307693","1","5.94","0.04","0.0016","10000000","3.0125052296670005","1","7.3","0","0.07692307692307693","25","0","0.01","0.0","0.0","0","restaurant_post","1.0","53.940000000000005","210.0","7.3","0","1","1","1","1","2.9","0.21"
"0","0.288","3.1999999999999997E-4","0.0011111111111111111","1","0","0","0.99","18.6","covid19_N26","run_000001","0.038461538461538464","1","5.94","0.04","0.0016","10000000","3.0125052296670005","1","7.3","0","0.038461538461538464","25","0","0.01","0.0","0.0","1","restaurant_post","0.0","53.940000000000005","210.0","7.3","0","1","1","1","1","2.9","0.21"
"0","0.288","3.1999999999999997E-4","0.0011111111111111111","1","0","0","0.99","18.6","covid19_N26","run_000004","0.038461538461538464","1","5.94","0.04","0.0016","10000000","3.0125052296670005","1","7.3","0","0.038461538461538464","25","0","0.01","0.0","0.0","4","restaurant_post","0.0","53.940000000000005","210.0","7.3","0","1","1","1","1","2.9","0.21"
"0","0.288","3.1999999999999997E-4","0.0011111111111111111","1","0","0","0.99","18.6","covid19_N26","run_000003","0.038461538461538464","1","5.94","0.04","0.0016","10000000","3.0125052296670005","1","7.3","0","0.038461538461538464","25","0","0.01","0.0","0.0","3","restaurant_post","0.0","53.940000000000005","210.0","7.3","0","1","1","1","1","2.9","0.21"
"0","0.288","3.1999999999999997E-4","0.0011111111111111111","1","0","0","0.99","18.6","covid19_N26","run_000002","0.038461538461538464","1","5.94","0.04","0.0016","10000000","3.0125052296670005","1","7.3","0","0.038461538461538464","25","0","0.01","0.0","0.0","2","restaurant_post","0.0","53.940000000000005","210.0","7.3","0","1","1","1","1","2.9","0.21"
"0","0.288","3.1999999999999997E-4","0.0011111111111111111","1","0","0","0.99","18.6","covid19_N26","run_000010","0.038461538461538464","1","5.94","0.04","0.0016","10000000","3.0125052296670005","1","7.3","0","0.038461538461538464","25","0","0.01","0.0","0.0","10","restaurant_post","0.0","53.940000000000005","210.0","7.3","0","1","1","1","1","2.9","0.21"
"0","0.288","3.1999999999999997E-4","0.0011111111111111111","1","0","0","0.99","18.6","covid19_N26","run_000014","0.038461538461538464","1","5.94","0.04","0.0016","10000000","3.0125052296670005","1","7.3","0","0.038461538461538464","25","0","0.01","0.0","0.0","14","restaurant_post","0.0","53.940000000000005","210.0","7.3","0","1","1","1","1","2.9","0.21"
"0","0.288","3.1999999999999997E-4","0.0011111111111111111","1","0","NaN","0.99","18.6","covid19_N26","run_000009","0.07692307692307693","1","5.94","0.04","0.0016","10000000","3.0125052296670005","1","7.3","0","0.07692307692307693","25","0","0.01","0.0","0.0","9","restaurant_post","1.0","53.940000000000005","210.0","7.3","0","1","1","1","1","2.9","0.21"
"0","0.288","3.1999999999999997E-4","0.0011111111111111111","1","0","0","0.99","18.6","covid19_N26","run_000016","0.038461538461538464","1","5.94","0.04","0.0016","10000000","3.0125052296670005","1","7.3","0","0.038461538461538464","25","0","0.01","0.0","0.0","16","restaurant_post","0.0","53.940000000000005","210.0","7.3","0","1","1","1","1","2.9","0.21"
"0","0.288","3.1999999999999997E-4","0.0011111111111111111","1","0","0","0.99","18.6","covid19_N26","run_000012","0.038461538461538464","1","5.94","0.04","0.0016","10000000","3.0125052296670005","1","7.3","0","0.038461538461538464","25","0","0.01","0.0","0.0","12","restaurant_post","0.0","53.940000000000005","210.0","7.3","0","1","1","1","1","2.9","0.21"
"0","0.288","3.1999999999999997E-4","0.0011111111111111111","1","0","0","0.99","18.6","covid19_N26","run_000008","0.038461538461538464","1","5.94","0.04","0.0016","10000000","3.0125052296670005","1","7.3","0","0.038461538461538464","25","0","0.01","0.0","0.0","8","restaurant_post","0.0","53.940000000000005","210.0","7.3","0","1","1","1","1","2.9","0.21"
"0","0.288","3.1999999999999997E-4","0.0011111111111111111","1","0","NaN","0.99","18.6","covid19_N26","run_000015","0.07692307692307693","1","5.94","0.04","0.0016","10000000","3.0125052296670005","1","7.3","0","0.07692307692307693","25","0","0.01","0.0","0.0","15","restaurant_post","1.0","53.940000000000005","210.0","7.3","0","1","1","1","1","2.9","0.21"
"0","0.288","3.1999999999999997E-4","0.0011111111111111111","1","0","0","0.99","18.6","covid19_N26","run_000013","0.038461538461538464","1","5.94","0.04","0.0016","10000000","3.0125052296670005","1","7.3","0","0.038461538461538464","25","0","0.01","0.0","0.0","13","restaurant_post","0.0","53.940000000000005","210.0","7.3","0","1","1","1","1","2.9","0.21"
"0","0.288","3.1999999999999997E-4","0.0011111111111111111","1","0","0","0.99","18.6","covid19_N26","run_000011","0.038461538461538464","1","5.94","0.04","0.0016","10000000","3.0125052296670005","1","7.3","0","0.038461538461538464","25","0","0.01","0.0","0.0","11","restaurant_post","0.0","53.940000000000005","210.0","7.3","0","1","1","1","1","2.9","0.21"
"0","0.288","3.1999999999999997E-4","0.0011111111111111111","1","0","0","0.99","18.6","covid19_N26","run_000017","0.038461538461538464","1","5.94","0.04","0.0016","10000000","3.0125052296670005","1","7.3","0","0.038461538461538464","25","0","0.01","0.0","0.0","17","restaurant_post","0.0","53.940000000000005","210.0","7.3","0","1","1","1","1","2.9","0.21"
"0","0.288","3.1999999999999997E-4","0.0011111111111111111","1","0","0","0.99","18.6","covid19_N26","run_000022","0.038461538461538464","1","5.94","0.04","0.0016","10000000","3.0125052296670005","1","7.3","0","0.038461538461538464","25","0","0.01","0.0","0.0","22","restaurant_post","0.0","53.940000000000005","210.0","7.3","0","1","1","1","1","2.9","0.21"
"0","0.288","3.1999999999999997E-4","0.0011111111111111111","1","0","0","0.99","18.6","covid19_N26","run_000023","0.038461538461538464","1","5.94","0.04","0.0016","10000000","3.0125052296670005","1","7.3","0","0.038461538461538464","25","0","0.01","0.0","0.0","23","restaurant_post","0.0","53.940000000000005","210.0","7.3","0","1","1","1","1","2.9","0.21"
"0","0.288","3.1999999999999997E-4","0.0011111111111111111","1","0","NaN","0.99","18.6","covid19_N26","run_000018","0.07692307692307693","1","5.94","0.04","0.0016","10000000","3.0125052296670005","1","7.3","0","0.07692307692307693","25","0","0.01","0.0","0.0","18","restaurant_post","1.0","53.940000000000005","210.0","7.3","0","1","1","1","1","2.9","0.21"
"0","0.288","3.1999999999999997E-4","0.0011111111111111111","1","0","0","0.99","18.6","covid19_N26","run_000021","0.038461538461538464","1","5.94","0.04","0.0016","10000000","3.0125052296670005","1","7.3","0","0.038461538461538464","25","0","0.01","0.0","0.0","21","restaurant_post","0.0","53.940000000000005","210.0","7.3","0","1","1","1","1","2.9","0.21"
"0","0.288","3.1999999999999997E-4","0.0011111111111111111","1","0","0","0.99","18.6","covid19_N26","run_000019","0.038461538461538464","1","5.94","0.04","0.0016","10000000","3.0125052296670005","1","7.3","0","0.038461538461538464","25","0","0.01","0.0","0.0","19","restaurant_post","0.0","53.940000000000005","210.0","7.3","0","1","1","1","1","2.9","0.21"
"0","0.288","3.1999999999999997E-4","0.0011111111111111111","1","0","0","0.99","18.6","covid19_N26","run_000020","0.038461538461538464","1","5.94","0.04","0.0016","10000000","3.0125052296670005","1","7.3","0","0.038461538461538464","25","0","0.01","0.0","0.0","20","restaurant_post","0.0","53.940000000000005","210.0","7.3","0","1","1","1","1","2.9","0.21"
"0","0.288","3.1999999999999997E-4","0.0011111111111111111","1","0","0","0.99","18.6","covid19_N26","run_000024","0.038461538461538464","1","5.94","0.04","0.0016","10000000","3.0125052296670005","1","7.3","0","0.038461538461538464","25","0","0.01","0.0","0.0","24","restaurant_post","0.0","53.940000000000005","210.0","7.3","0","1","1","1","1","2.9","0.21"
"0","0.288","3.1999999999999997E-4","0.0011111111111111111","1","0","0","0.99","18.6","covid19_N26","run_000026","0.038461538461538464","1","5.94","0.04","0.0016","10000000","3.0125052296670005","1","7.3","0","0.038461538461538464","25","0","0.01","0.0","0.0","26","restaurant_post","0.0","53.940000000000005","210.0","7.3","0","1","1","1","1","2.9","0.21"
"0","0.288","3.1999999999999997E-4","0.0011111111111111111","1","0","0","0.99","18.6","covid19_N26","run_000033","0.038461538461538464","1","5.94","0.04","0.0016","10000000","3.0125052296670005","1","7.3","0","0.038461538461538464","25","0","0.01","0.0","0.0","33","restaurant_post","0.0","53.940000000000005","210.0","7.3","0","1","1","1","1","2.9","0.21"
"0","0.288","3.1999999999999997E-4","0.0011111111111111111","1","0","NaN","0.99","18.6","covid19_N26","run_000025","0.07692307692307693","1","5.94","0.04","0.0016","10000000","3.0125052296670005","1","7.3","0","0.07692307692307693","25","0","0.01","0.0","0.0","25","restaurant_post","1.0","53.940000000000005","210.0","7.3","0","1","1","1","1","2.9","0.21"
"0","0.288","3.1999999999999997E-4","0.0011111111111111111","1","0","0","0.99","18.6","covid19_N26","run_000031","0.038461538461538464","1","5.94","0.04","0.0016","10000000","3.0125052296670005","1","7.3","0","0.038461538461538464","25","0","0.01","0.0","0.0","31","restaurant_post","0.0","53.940000000000005","210.0","7.3","0","1","1","1","1","2.9","0.21"
"0","0.288","3.1999999999999997E-4","0.0011111111111111111","1","0","0","0.99","18.6","covid19_N26","run_000027","0.038461538461538464","1","5.94","0.04","0.0016","10000000","3.0125052296670005","1","7.3","0","0.038461538461538464","25","0","0.01","0.0","0.0","27","restaurant_post","0.0","53.940000000000005","210.0","7.3","0","1","1","1","1","2.9","0.21"
"0","0.288","3.1999999999999997E-4","0.0011111111111111111","1","0","0","0.99","18.6","covid19_N26","run_000028","0.038461538461538464","1","5.94","0.04","0.0016","10000000","3.0125052296670005","1","7.3","0","0.038461538461538464","25","0","0.01","0.0","0.0","28","restaurant_post","0.0","53.940000000000005","210.0","7.3","0","1","1","1","1","2.9","0.21"
"0","0.288","3.1999999999999997E-4","0.0011111111111111111","1","0","0","0.99","18.6","covid19_N26","run_000034","0.038461538461538464","1","5.94","0.04","0.0016","10000000","3.0125052296670005","1","7.3","0","0.038461538461538464","25","0","0.01","0.0","0.0","34","restaurant_post","0.0","53.940000000000005","210.0","7.3","0","1","1","1","1","2.9","0.21"
"0","0.288","3.1999999999999997E-4","0.0011111111111111111","1","0","0","0.99","18.6","covid19_N26","run_000029","0.038461538461538464","1","5.94","0.04","0.0016","10000000","3.0125052296670005","1","7.3","0","0.038461538461538464","25","0","0.01","0.0","0.0","29","restaurant_post","0.0","53.940000000000005","210.0","7.3","0","1","1","1","1","2.9","0.21"
"0","0.288","3.1999999999999997E-4","0.0011111111111111111","1","0","0","0.99","18.6","covid19_N26","run_000032","0.038461538461538464","1","5.94","0.04","0.0016","10000000","3.0125052296670005","1","7.3","0","0.038461538461538464","25","0","0.01","0.0","0.0","32","restaurant_post","0.0","53.940000000000005","210.0","7.3","0","1","1","1","1","2.9","0.21"
"0","0.288","3.1999999999999997E-4","0.0011111111111111111","1","0","NaN","0.99","18.6","covid19_N26","run_000038","0.07692307692307693","1","5.94","0.04","0.0016","10000000","3.0125052296670005","1","7.3","0","0.07692307692307693","25","0","0.01","0.0","0.0","38","restaurant_post","1.0","53.940000000000005","210.0","7.3","0","1","1","1","1","2.9","0.21"
"0","0.288","3.1999999999999997E-4","0.0011111111111111111","1","0","0","0.99","18.6","covid19_N26","run_000035","0.038461538461538464","1","5.94","0.04","0.0016","10000000","3.0125052296670005","1","7.3","0","0.038461538461538464","25","0","0.01","0.0","0.0","35","restaurant_post","0.0","53.940000000000005","210.0","7.3","0","1","1","1","1","2.9","0.21"
"0","0.288","3.1999999999999997E-4","0.0011111111111111111","1","0","NaN","0.99","18.6","covid19_N26","run_000037","0.07692307692307693","1","5.94","0.04","0.0016","10000000","3.0125052296670005","1","7.3","0","0.07692307692307693","25","0","0.01","0.0","0.0","37","restaurant_post","1.0","53.940000000000005","210.0","7.3","0","1","1","1","1","2.9","0.21"
"0","0.288","3.1999999999999997E-4","0.0011111111111111111","1","0","0","0.99","18.6","covid19_N26","run_000041","0.038461538461538464","1","5.94","0.04","0.0016","10000000","3.0125052296670005","1","7.3","0","0.038461538461538464","25","0","0.01","0.0","0.0","41","restaurant_post","0.0","53.940000000000005","210.0","7.3","0","1","1","1","1","2.9","0.21"
"0","0.288","3.1999999999999997E-4","0.0011111111111111111","1","0","NaN","0.99","18.6","covid19_N26","run_000042","0.07692307692307693","1","5.94","0.04","0.0016","10000000","3.0125052296670005","1","7.3","0","0.07692307692307693","25","0","0.01","0.0","0.0","42","restaurant_post","1.0","53.940000000000005","210.0","7.3","0","1","1","1","1","2.9","0.21"
"0","0.288","3.1999999999999997E-4","0.0011111111111111111","1","0","0","0.99","18.6","covid19_N26","run_000036","0.038461538461538464","1","5.94","0.04","0.0016","10000000","3.0125052296670005","1","7.3","0","0.038461538461538464","25","0","0.01","0.0","0.0","36","restaurant_post","0.0","53.940000000000005","210.0","7.3","0","1","1","1","1","2.9","0.21"
"0","0.288","3.1999999999999997E-4","0.0011111111111111111","1","0","0","0.99","18.6","covid19_N26","run_000039","0.038461538461538464","1","5.94","0.04","0.0016","10000000","3.0125052296670005","1","7.3","0","0.038461538461538464","25","0","0.01","0.0","0.0","39","restaurant_post","0.0","53.940000000000005","210.0","7.3","0","1","1","1","1","2.9","0.21"
"0","0.288","3.1999999999999997E-4","0.0011111111111111111","1","0","NaN","0.99","18.6","covid19_N26","run_000030","0.07692307692307693","1","5.94","0.04","0.0016","10000000","3.0125052296670005","1","7.3","0","0.07692307692307693","25","0","0.01","0.0","0.0","30","restaurant_post","1.0","53.940000000000005","210.0","7.3","0","1","1","1","1","2.9","0.21"
"0","0.288","3.1999999999999997E-4","0.0011111111111111111","1","0","NaN","0.99","18.6","covid19_N26","run_000045","0.07692307692307693","1","5.94","0.04","0.0016","10000000","3.0125052296670005","1","7.3","0","0.07692307692307693","25","0","0.01","0.0","0.0","45","restaurant_post","1.0","53.940000000000005","210.0","7.3","0","1","1","1","1","2.9","0.21"
"0","0.288","3.1999999999999997E-4","0.0011111111111111111","1","0","NaN","0.99","18.6","covid19_N26","run_000044","0.07692307692307693","1","5.94","0.04","0.0016","10000000","3.0125052296670005","1","7.3","0","0.07692307692307693","25","0","0.01","0.0","0.0","44","restaurant_post","1.0","53.940000000000005","210.0","7.3","0","1","1","1","1","2.9","0.21"
"0","0.288","3.1999999999999997E-4","0.0011111111111111111","1","0","NaN","0.99","18.6","covid19_N26","run_000040","0.07692307692307693","1","5.94","0.04","0.0016","10000000","3.0125052296670005","1","7.3","0","0.07692307692307693","25","0","0.01","0.0","0.0","40","restaurant_post","1.0","53.940000000000005","210.0","7.3","0","1","1","1","1","2.9","0.21"
"0","0.288","3.1999999999999997E-4","0.0011111111111111111","1","0","0","0.99","18.6","covid19_N26","run_000043","0.038461538461538464","1","5.94","0.04","0.0016","10000000","3.0125052296670005","1","7.3","0","0.038461538461538464","25","0","0.01","0.0","0.0","43","restaurant_post","0.0","53.940000000000005","210.0","7.3","0","1","1","1","1","2.9","0.21"
"0","0.288","3.1999999999999997E-4","0.0011111111111111111","1","0","0","0.99","18.6","covid19_N26","run_000048","0.038461538461538464","1","5.94","0.04","0.0016","10000000","3.0125052296670005","1","7.3","0","0.038461538461538464","25","0","0.01","0.0","0.0","48","restaurant_post","0.0","53.940000000000005","210.0","7.3","0","1","1","1","1","2.9","0.21"
"0","0.288","3.1999999999999997E-4","0.0011111111111111111","1","0","0","0.99","18.6","covid19_N26","run_000049","0.038461538461538464","1","5.94","0.04","0.0016","10000000","3.0125052296670005","1","7.3","0","0.038461538461538464","25","0","0.01","0.0","0.0","49","restaurant_post","0.0","53.940000000000005","210.0","7.3","0","1","1","1","1","2.9","0.21"
"0","0.288","3.1999999999999997E-4","0.0011111111111111111","1","0","0","0.99","18.6","covid19_N26","run_000047","0.038461538461538464","1","5.94","0.04","0.0016","10000000","3.0125052296670005","1","7.3","0","0.038461538461538464","25","0","0.01","0.0","0.0","47","restaurant_post","0.0","53.940000000000005","210.0","7.3","0","1","1","1","1","2.9","0.21"
"0","0.288","3.1999999999999997E-4","0.0011111111111111111","1","0","0","0.99","18.6","covid19_N26","run_000046","0.038461538461538464","1","5.94","0.04","0.0016","10000000","3.0125052296670005","1","7.3","0","0.038461538461538464","25","0","0.01","0.0","0.0","46","restaurant_post","0.0","53.940000000000005","210.0","7.3","0","1","1","1","1","2.9","0.21"
"0","0.288","3.1999999999999997E-4","0.0011111111111111111","1","0","0","0.99","18.6","covid19_N26","run_000055","0.038461538461538464","1","5.94","0.04","0.0016","10000000","3.0125052296670005","1","7.3","0","0.038461538461538464","25","0","0.01","0.0","0.0","55","restaurant_post","0.0","53.940000000000005","210.0","7.3","0","1","1","1","1","2.9","0.21"
"0","0.288","3.1999999999999997E-4","0.0011111111111111111","1","0","0","0.99","18.6","covid19_N26","run_000050","0.038461538461538464","1","5.94","0.04","0.0016","10000000","3.0125052296670005","1","7.3","0","0.038461538461538464","25","0","0.01","0.0","0.0","50","restaurant_post","0.0","53.940000000000005","210.0","7.3","0","1","1","1","1","2.9","0.21"
"0","0.288","3.1999999999999997E-4","0.0011111111111111111","1","0","0","0.99","18.6","covid19_N26","run_000057","0.038461538461538464","1","5.94","0.04","0.0016","10000000","3.0125052296670005","1","7.3","0","0.038461538461538464","25","0","0.01","0.0","0.0","58","restaurant_post","0.0","53.940000000000005","210.0","7.3","0","1","1","1","1","2.9","0.21"
"0","0.288","3.1999999999999997E-4","0.0011111111111111111","1","0","0","0.99","18.6","covid19_N26","run_000051","0.038461538461538464","1","5.94","0.04","0.0016","10000000","3.0125052296670005","1","7.3","0","0.038461538461538464","25","0","0.01","0.0","0.0","51","restaurant_post","0.0","53.940000000000005","210.0","7.3","0","1","1","1","1","2.9","0.21"
"0","0.288","3.1999999999999997E-4","0.0011111111111111111","1","0","0","0.99","18.6","covid19_N26","run_000052","0.038461538461538464","1","5.94","0.04","0.0016","10000000","3.0125052296670005","1","7.3","0","0.038461538461538464","25","0","0.01","0.0","0.0","52","restaurant_post","0.0","53.940000000000005","210.0","7.3","0","1","1","1","1","2.9","0.21"
"0","0.288","3.1999999999999997E-4","0.0011111111111111111","1","0","NaN","0.99","18.6","covid19_N26","run_000058","0.07692307692307693","1","5.94","0.04","0.0016","10000000","3.0125052296670005","1","7.3","0","0.07692307692307693","25","0","0.01","0.0","0.0","59","restaurant_post","1.0","53.940000000000005","210.0","7.3","0","1","1","1","1","2.9","0.21"
"0","0.288","3.1999999999999997E-4","0.0011111111111111111","1","0","0","0.99","18.6","covid19_N26","run_000053","0.038461538461538464","1","5.94","0.04","0.0016","10000000","3.0125052296670005","1","7.3","0","0.038461538461538464","25","0","0.01","0.0","0.0","53","restaurant_post","0.0","53.940000000000005","210.0","7.3","0","1","1","1","1","2.9","0.21"
"0","0.288","3.1999999999999997E-4","0.0011111111111111111","1","0","0","0.99","18.6","covid19_N26","run_000060","0.038461538461538464","1","5.94","0.04","0.0016","10000000","3.0125052296670005","1","7.3","0","0.038461538461538464","25","0","0.01","0.0","0.0","61","restaurant_post","0.0","53.940000000000005","210.0","7.3","0","1","1","1","1","2.9","0.21"
"0","0.288","3.1999999999999997E-4","0.0011111111111111111","1","0","0","0.99","18.6","covid19_N26","run_000054","0.038461538461538464","1","5.94","0.04","0.0016","10000000","3.0125052296670005","1","7.3","0","0.038461538461538464","25","0","0.01","0.0","0.0","54","restaurant_post","0.0","53.940000000000005","210.0","7.3","0","1","1","1","1","2.9","0.21"
"0","0.288","3.1999999999999997E-4","0.0011111111111111111","1","0","0","0.99","18.6","covid19_N26","run_000059","0.038461538461538464","1","5.94","0.04","0.0016","10000000","3.0125052296670005","1","7.3","0","0.038461538461538464","25","0","0.01","0.0","0.0","60","restaurant_post","0.0","53.940000000000005","210.0","7.3","0","1","1","1","1","2.9","0.21"
"0","0.288","3.1999999999999997E-4","0.0011111111111111111","1","0","0","0.99","18.6","covid19_N26","run_000061","0.038461538461538464","1","5.94","0.04","0.0016","10000000","3.0125052296670005","1","7.3","0","0.038461538461538464","25","0","0.01","0.0","0.0","62","restaurant_post","0.0","53.940000000000005","210.0","7.3","0","1","1","1","1","2.9","0.21"
"0","0.288","3.1999999999999997E-4","0.0011111111111111111","1","0","0","0.99","18.6","covid19_N26","run_000056","0.038461538461538464","1","5.94","0.04","0.0016","10000000","3.0125052296670005","1","7.3","0","0.038461538461538464","25","0","0.01","0.0","0.0","56","restaurant_post","0.0","53.940000000000005","210.0","7.3","0","1","1","1","1","2.9","0.21"
"0","0.288","3.1999999999999997E-4","0.0011111111111111111","1","0","NaN","0.99","18.6","covid19_N26","run_000062","0.07692307692307693","1","5.94","0.04","0.0016","10000000","3.0125052296670005","1","7.3","0","0.07692307692307693","25","0","0.01","0.0","0.0","63","restaurant_post","1.0","53.940000000000005","210.0","7.3","0","1","1","1","1","2.9","0.21"
"0","0.288","3.1999999999999997E-4","0.0011111111111111111","1","0","0","0.99","18.6","covid19_N26","run_000066","0.038461538461538464","1","5.94","0.04","0.0016","10000000","3.0125052296670005","1","7.3","0","0.038461538461538464","25","0","0.01","0.0","0.0","67","restaurant_post","0.0","53.940000000000005","210.0","7.3","0","1","1","1","1","2.9","0.21"
"0","0.288","3.1999999999999997E-4","0.0011111111111111111","1","0","0","0.99","18.6","covid19_N26","run_000063","0.038461538461538464","1","5.94","0.04","0.0016","10000000","3.0125052296670005","1","7.3","0","0.038461538461538464","25","0","0.01","0.0","0.0","64","restaurant_post","0.0","53.940000000000005","210.0","7.3","0","1","1","1","1","2.9","0.21"
"0","0.288","3.1999999999999997E-4","0.0011111111111111111","1","0","0","0.99","18.6","covid19_N26","run_000064","0.038461538461538464","1","5.94","0.04","0.0016","10000000","3.0125052296670005","1","7.3","0","0.038461538461538464","25","0","0.01","0.0","0.0","65","restaurant_post","0.0","53.940000000000005","210.0","7.3","0","1","1","1","1","2.9","0.21"
"0","0.288","3.1999999999999997E-4","0.0011111111111111111","1","0","0","0.99","18.6","covid19_N26","run_000068","0.038461538461538464","1","5.94","0.04","0.0016","10000000","3.0125052296670005","1","7.3","0","0.038461538461538464","25","0","0.01","0.0","0.0","69","restaurant_post","0.0","53.940000000000005","210.0","7.3","0","1","1","1","1","2.9","0.21"
"0","0.288","3.1999999999999997E-4","0.0011111111111111111","1","0","0","0.99","18.6","covid19_N26","run_000065","0.038461538461538464","1","5.94","0.04","0.0016","10000000","3.0125052296670005","1","7.3","0","0.038461538461538464","25","0","0.01","0.0","0.0","66","restaurant_post","0.0","53.940000000000005","210.0","7.3","0","1","1","1","1","2.9","0.21"
"0","0.288","3.1999999999999997E-4","0.0011111111111111111","1","0","0","0.99","18.6","covid19_N26","run_000067","0.038461538461538464","1","5.94","0.04","0.0016","10000000","3.0125052296670005","1","7.3","0","0.038461538461538464","25","0","0.01","0.0","0.0","68","restaurant_post","0.0","53.940000000000005","210.0","7.3","0","1","1","1","1","2.9","0.21"
"0","0.288","3.1999999999999997E-4","0.0011111111111111111","1","0","0","0.99","18.6","covid19_N26","run_000069","0.038461538461538464","1","5.94","0.04","0.0016","10000000","3.0125052296670005","1","7.3","0","0.038461538461538464","25","0","0.01","0.0","0.0","70","restaurant_post","0.0","53.940000000000005","210.0","7.3","0","1","1","1","1","2.9","0.21"
"0","0.288","3.1999999999999997E-4","0.0011111111111111111","1","0","0","0.99","18.6","covid19_N26","run_000074","0.038461538461538464","1","5.94","0.04","0.0016","10000000","3.0125052296670005","1","7.3","0","0.038461538461538464","25","0","0.01","0.0","0.0","75","restaurant_post","0.0","53.940000000000005","210.0","7.3","0","1","1","1","1","2.9","0.21"
"0","0.288","3.1999999999999997E-4","0.0011111111111111111","1","0","0","0.99","18.6","covid19_N26","run_000070","0.038461538461538464","1","5.94","0.04","0.0016","10000000","3.0125052296670005","1","7.3","0","0.038461538461538464","25","0","0.01","0.0","0.0","71","restaurant_post","0.0","53.940000000000005","210.0","7.3","0","1","1","1","1","2.9","0.21"
"0","0.288","3.1999999999999997E-4","0.0011111111111111111","1","0","0","0.99","18.6","covid19_N26","run_000072","0.038461538461538464","1","5.94","0.04","0.0016","10000000","3.0125052296670005","1","7.3","0","0.038461538461538464","25","0","0.01","0.0","0.0","73","restaurant_post","0.0","53.940000000000005","210.0","7.3","0","1","1","1","1","2.9","0.21"
"0","0.288","3.1999999999999997E-4","0.0011111111111111111","1","0","0","0.99","18.6","covid19_N26","run_000071","0.038461538461538464","1","5.94","0.04","0.0016","10000000","3.0125052296670005","1","7.3","0","0.038461538461538464","25","0","0.01","0.0","0.0","72","restaurant_post","0.0","53.940000000000005","210.0","7.3","0","1","1","1","1","2.9","0.21"
"0","0.288","3.1999999999999997E-4","0.0011111111111111111","1","0","0","0.99","18.6","covid19_N26","run_000073","0.038461538461538464","1","5.94","0.04","0.0016","10000000","3.0125052296670005","1","7.3","0","0.038461538461538464","25","0","0.01","0.0","0.0","74","restaurant_post","0.0","53.940000000000005","210.0","7.3","0","1","1","1","1","2.9","0.21"
"0","0.288","3.1999999999999997E-4","0.0011111111111111111","1","0","0","0.99","18.6","covid19_N26","run_000081","0.038461538461538464","1","5.94","0.04","0.0016","10000000","3.0125052296670005","1","7.3","0","0.038461538461538464","25","0","0.01","0.0","0.0","81","restaurant_post","0.0","53.940000000000005","210.0","7.3","0","1","1","1","1","2.9","0.21"
"0","0.288","3.1999999999999997E-4","0.0011111111111111111","1","0","0","0.99","18.6","covid19_N26","run_000075","0.038461538461538464","1","5.94","0.04","0.0016","10000000","3.0125052296670005","1","7.3","0","0.038461538461538464","25","0","0.01","0.0","0.0","75","restaurant_post","0.0","53.940000000000005","210.0","7.3","0","1","1","1","1","2.9","0.21"
"0","0.288","3.1999999999999997E-4","0.0011111111111111111","1","0","0","0.99","18.6","covid19_N26","run_000076","0.038461538461538464","1","5.94","0.04","0.0016","10000000","3.0125052296670005","1","7.3","0","0.038461538461538464","25","0","0.01","0.0","0.0","76","restaurant_post","0.0","53.940000000000005","210.0","7.3","0","1","1","1","1","2.9","0.21"
"0","0.288","3.1999999999999997E-4","0.0011111111111111111","1","0","NaN","0.99","18.6","covid19_N26","run_000078","0.07692307692307693","1","5.94","0.04","0.0016","10000000","3.0125052296670005","1","7.3","0","0.07692307692307693","25","0","0.01","0.0","0.0","78","restaurant_post","1.0","53.940000000000005","210.0","7.3","0","1","1","1","1","2.9","0.21"
"0","0.288","3.1999999999999997E-4","0.0011111111111111111","1","0","0","0.99","18.6","covid19_N26","run_000077","0.038461538461538464","1","5.94","0.04","0.0016","10000000","3.0125052296670005","1","7.3","0","0.038461538461538464","25","0","0.01","0.0","0.0","77","restaurant_post","0.0","53.940000000000005","210.0","7.3","0","1","1","1","1","2.9","0.21"
"0","0.288","3.1999999999999997E-4","0.0011111111111111111","1","0","0","0.99","18.6","covid19_N26","run_000079","0.038461538461538464","1","5.94","0.04","0.0016","10000000","3.0125052296670005","1","7.3","0","0.038461538461538464","25","0","0.01","0.0","0.0","79","restaurant_post","0.0","53.940000000000005","210.0","7.3","0","1","1","1","1","2.9","0.21"
"0","0.288","3.1999999999999997E-4","0.0011111111111111111","1","0","0","0.99","18.6","covid19_N26","run_000080","0.038461538461538464","1","5.94","0.04","0.0016","10000000","3.0125052296670005","1","7.3","0","0.038461538461538464","25","0","0.01","0.0","0.0","80","restaurant_post","0.0","53.940000000000005","210.0","7.3","0","1","1","1","1","2.9","0.21"
"0","0.288","3.1999999999999997E-4","0.0011111111111111111","1","0","0","0.99","18.6","covid19_N26","run_000082","0.038461538461538464","1","5.94","0.04","0.0016","10000000","3.0125052296670005","1","7.3","0","0.038461538461538464","25","0","0.01","0.0","0.0","82","restaurant_post","0.0","53.940000000000005","210.0","7.3","0","1","1","1","1","2.9","0.21"
"0","0.288","3.1999999999999997E-4","0.0011111111111111111","1","0","0","0.99","18.6","covid19_N26","run_000083","0.038461538461538464","1","5.94","0.04","0.0016","10000000","3.0125052296670005","1","7.3","0","0.038461538461538464","25","0","0.01","0.0","0.0","83","restaurant_post","0.0","53.940000000000005","210.0","7.3","0","1","1","1","1","2.9","0.21"
"0","0.288","3.1999999999999997E-4","0.0011111111111111111","1","0","0","0.99","18.6","covid19_N26","run_000085","0.038461538461538464","1","5.94","0.04","0.0016","10000000","3.0125052296670005","1","7.3","0","0.038461538461538464","25","0","0.01","0.0","0.0","85","restaurant_post","0.0","53.940000000000005","210.0","7.3","0","1","1","1","1","2.9","0.21"
"0","0.288","3.1999999999999997E-4","0.0011111111111111111","1","0","0","0.99","18.6","covid19_N26","run_000086","0.038461538461538464","1","5.94","0.04","0.0016","10000000","3.0125052296670005","1","7.3","0","0.038461538461538464","25","0","0.01","0.0","0.0","86","restaurant_post","0.0","53.940000000000005","210.0","7.3","0","1","1","1","1","2.9","0.21"
"0","0.288","3.1999999999999997E-4","0.0011111111111111111","1","0","0","0.99","18.6","covid19_N26","run_000089","0.038461538461538464","1","5.94","0.04","0.0016","10000000","3.0125052296670005","1","7.3","0","0.038461538461538464","25","0","0.01","0.0","0.0","89","restaurant_post","0.0","53.940000000000005","210.0","7.3","0","1","1","1","1","2.9","0.21"
"0","0.288","3.1999999999999997E-4","0.0011111111111111111","1","0","0","0.99","18.6","covid19_N26","run_000084","0.038461538461538464","1","5.94","0.04","0.0016","10000000","3.0125052296670005","1","7.3","0","0.038461538461538464","25","0","0.01","0.0","0.0","84","restaurant_post","0.0","53.940000000000005","210.0","7.3","0","1","1","1","1","2.9","0.21"
"0","0.288","3.1999999999999997E-4","0.0011111111111111111","1","0","0","0.99","18.6","covid19_N26","run_000087","0.038461538461538464","1","5.94","0.04","0.0016","10000000","3.0125052296670005","1","7.3","0","0.038461538461538464","25","0","0.01","0.0","0.0","87","restaurant_post","0.0","53.940000000000005","210.0","7.3","0","1","1","1","1","2.9","0.21"
"0","0.288","3.1999999999999997E-4","0.0011111111111111111","1","0","0","0.99","18.6","covid19_N26","run_000091","0.038461538461538464","1","5.94","0.04","0.0016","10000000","3.0125052296670005","1","7.3","0","0.038461538461538464","25","0","0.01","0.0","0.0","91","restaurant_post","0.0","53.940000000000005","210.0","7.3","0","1","1","1","1","2.9","0.21"
"0","0.288","3.1999999999999997E-4","0.0011111111111111111","1","0","0","0.99","18.6","covid19_N26","run_000093","0.038461538461538464","1","5.94","0.04","0.0016","10000000","3.0125052296670005","1","7.3","0","0.038461538461538464","25","0","0.01","0.0","0.0","93","restaurant_post","0.0","53.940000000000005","210.0","7.3","0","1","1","1","1","2.9","0.21"
"0","0.288","3.1999999999999997E-4","0.0011111111111111111","1","0","0","0.99","18.6","covid19_N26","run_000095","0.038461538461538464","1","5.94","0.04","0.0016","10000000","3.0125052296670005","1","7.3","0","0.038461538461538464","25","0","0.01","0.0","0.0","95","restaurant_post","0.0","53.940000000000005","210.0","7.3","0","1","1","1","1","2.9","0.21"
"0","0.288","3.1999999999999997E-4","0.0011111111111111111","1","0","0","0.99","18.6","covid19_N26","run_000090","0.038461538461538464","1","5.94","0.04","0.0016","10000000","3.0125052296670005","1","7.3","0","0.038461538461538464","25","0","0.01","0.0","0.0","90","restaurant_post","0.0","53.940000000000005","210.0","7.3","0","1","1","1","1","2.9","0.21"
"0","0.288","3.1999999999999997E-4","0.0011111111111111111","1","0","0","0.99","18.6","covid19_N26","run_000088","0.038461538461538464","1","5.94","0.04","0.0016","10000000","3.0125052296670005","1","7.3","0","0.038461538461538464","25","0","0.01","0.0","0.0","88","restaurant_post","0.0","53.940000000000005","210.0","7.3","0","1","1","1","1","2.9","0.21"
"0","0.288","3.1999999999999997E-4","0.0011111111111111111","1","0","0","0.99","18.6","covid19_N26","run_000099","0.038461538461538464","1","5.94","0.04","0.0016","10000000","3.0125052296670005","1","7.3","0","0.038461538461538464","25","0","0.01","0.0","0.0","99","restaurant_post","0.0","53.940000000000005","210.0","7.3","0","1","1","1","1","2.9","0.21"
"0","0.288","3.1999999999999997E-4","0.0011111111111111111","1","0","NaN","0.99","18.6","covid19_N26","run_000096","0.07692307692307693","1","5.94","0.04","0.0016","10000000","3.0125052296670005","1","7.3","0","0.07692307692307693","25","0","0.01","0.0","0.0","96","restaurant_post","1.0","53.940000000000005","210.0","7.3","0","1","1","1","1","2.9","0.21"
"0","0.288","3.1999999999999997E-4","0.0011111111111111111","1","0","0","0.99","18.6","covid19_N26","run_000094","0.038461538461538464","1","5.94","0.04","0.0016","10000000","3.0125052296670005","1","7.3","0","0.038461538461538464","25","0","0.01","0.0","0.0","94","restaurant_post","0.0","53.940000000000005","210.0","7.3","0","1","1","1","1","2.9","0.21"
"0","0.288","3.1999999999999997E-4","0.0011111111111111111","1","0","NaN","0.99","18.6","covid19_N26","run_000097","0.07692307692307693","1","5.94","0.04","0.0016","10000000","3.0125052296670005","1","7.3","0","0.07692307692307693","25","0","0.01","0.0","0.0","97","restaurant_post","1.0","53.940000000000005","210.0","7.3","0","1","1","1","1","2.9","0.21"
"0","0.288","3.1999999999999997E-4","0.0011111111111111111","1","0","0","0.99","18.6","covid19_N26","run_000098","0.038461538461538464","1","5.94","0.04","0.0016","10000000","3.0125052296670005","1","7.3","0","0.038461538461538464","25","0","0.01","0.0","0.0","98","restaurant_post","0.0","53.940000000000005","210.0","7.3","0","1","1","1","1","2.9","0.21"
"0","0.288","3.1999999999999997E-4","0.0011111111111111111","1","0","0","0.99","18.6","covid19_N26","run_000092","0.038461538461538464","1","5.94","0.04","0.0016","10000000","3.0125052296670005","1","7.3","0","0.038461538461538464","25","0","0.01","0.0","0.0","92","restaurant_post","0.0","53.940000000000005","210.0","7.3","0","1","1","1","1","2.9","0.21"
