"ADULT_SYMPTOMATIC_PROB","B0","BREATHING_INHALATION_VOLUME","BREATHING_INTERVAL_TIME","D","DEAD","DIFFERENT_CELL_COMPARISSION","DURATION","EP0","EXECUTABLE","EXPERIMENT_ID","FINAL_EPIDEMIC_SIZE","FORCE_TERMINATION_AT","GRID_SIZE","H","Hr","INCUBATION_TIME_M","INFECTION_RISK","INITIAL_INFECTED","LAMBDA","LOG_LEVEL","MAX_INFECTED","NSUS","OLD_SYMPTOMATIC_PROB","OUTPUT_UPDATE_DT","R0","R0_1third","RANDOM_SEED","SCENARIO","SECONDARY_CASES","SYMPTOMATIC_EMISSION_RATE","V","VOLUME_CONCENTRATION_LAMBDA","YOUNG_SYMPTOMATIC_PROB","fE","fExfI","fI","rB","rE","secondary_cases"
"0","0.288","7.999999999999999E-4","0.0011111111111111111","2.5","0","NaN","2.49","18.6","covid19_N61","run_000007","0.819672131147541","2.5","9.32","30.0","0.5","10000000","366.9652285632828","1","0.7","0","0.819672131147541","60","0","0.01","0.0","0.0","7","skagit_choir_pre","49.0","1581.0000000000002","810.0","0.7","0","1","1","1","2.5","85","56.0"
"0","0.288","7.999999999999999E-4","0.0011111111111111111","2.5","0","-0.0","2.49","18.6","covid19_N61","run_000004","0.03278688524590164","2.5","9.32","30.0","0.5","10000000","251.44540441558811","1","0.7","0","0.03278688524590164","60","0","0.01","0.0","0.0","4","skagit_choir_pre","1.0","1581.0000000000002","810.0","0.7","0","1","1","1","2.5","85","56.0"
"0","0.288","7.999999999999999E-4","0.0011111111111111111","2.5","0","1.5675675675675675","2.49","18.6","covid19_N61","run_000006","0.6721311475409836","2.5","9.32","30.0","0.5","10000000","366.9652285632828","1","0.7","0","0.6721311475409836","60","0","0.01","0.0","0.0","6","skagit_choir_pre","40.0","1581.0000000000002","810.0","0.7","0","1","1","1","2.5","85","56.0"
"0","0.288","7.999999999999999E-4","0.0011111111111111111","2.5","0","0.8784313725490197","2.49","18.6","covid19_N61","run_000005","0.9180327868852459","2.5","9.32","30.0","0.5","10000000","366.9652285632828","1","0.7","0","0.9180327868852459","60","0","0.01","0.0","0.0","5","skagit_choir_pre","55.0","1581.0000000000002","810.0","0.7","0","1","1","1","2.5","85","56.0"
"0","0.288","7.999999999999999E-4","0.0011111111111111111","2.5","0","-0.0","2.49","18.6","covid19_N61","run_000003","0.4098360655737705","2.5","9.32","30.0","0.5","10000000","366.9652285632828","1","0.7","0","0.4098360655737705","60","0","0.01","0.0","0.0","3","skagit_choir_pre","24.0","1581.0000000000002","810.0","0.7","0","1","1","1","2.5","85","56.0"
"0","0.288","7.999999999999999E-4","0.0011111111111111111","2.5","0","NaN","2.49","18.6","covid19_N61","run_000001","0.26229508196721313","2.5","9.32","30.0","0.5","10000000","289.306704373694","1","0.7","0","0.26229508196721313","60","0","0.01","0.0","0.0","1","skagit_choir_pre","15.0","1581.0000000000002","810.0","0.7","0","1","1","1","2.5","85","56.0"
"0","0.288","7.999999999999999E-4","0.0011111111111111111","2.5","0","1.2","2.49","18.6","covid19_N61","run_000002","0.8524590163934426","2.5","9.32","30.0","0.5","10000000","366.9652285632828","1","0.7","0","0.8524590163934426","60","0","0.01","0.0","0.0","2","skagit_choir_pre","51.0","1581.0000000000002","810.0","0.7","0","1","1","1","2.5","85","56.0"
"0","0.288","7.999999999999999E-4","0.0011111111111111111","2.5","0","0.6054054054054054","2.49","18.6","covid19_N61","run_000000","0.6557377049180327","2.5","9.32","30.0","0.5","10000000","366.9652285632828","1","0.7","0","0.6557377049180327","60","0","0.01","0.0","0.0","0","skagit_choir_pre","39.0","1581.0000000000002","810.0","0.7","0","1","1","1","2.5","85","56.0"
"0","0.288","7.999999999999999E-4","0.0011111111111111111","2.5","0","NaN","2.49","18.6","covid19_N61","run_000009","0.13114754098360656","2.5","9.32","30.0","0.5","10000000","366.9652285632828","1","0.7","0","0.13114754098360656","60","0","0.01","0.0","0.0","9","skagit_choir_pre","7.0","1581.0000000000002","810.0","0.7","0","1","1","1","2.5","85","56.0"
"0","0.288","7.999999999999999E-4","0.0011111111111111111","2.5","0","-0.0","2.49","18.6","covid19_N61","run_000008","0.5081967213114754","2.5","9.32","30.0","0.5","10000000","366.9652285632828","1","0.7","0","0.5081967213114754","60","0","0.01","0.0","0.0","8","skagit_choir_pre","30.0","1581.0000000000002","810.0","0.7","0","1","1","1","2.5","85","56.0"
"0","0.288","7.999999999999999E-4","0.0011111111111111111","2.5","0","0.9430894308943091","2.49","18.6","covid19_N61","run_000010","0.7213114754098361","2.5","9.32","30.0","0.5","10000000","366.9652285632828","1","0.7","0","0.7213114754098361","60","0","0.01","0.0","0.0","10","skagit_choir_pre","43.0","1581.0000000000002","810.0","0.7","0","1","1","1","2.5","85","56.0"
"0","0.288","7.999999999999999E-4","0.0011111111111111111","2.5","0","1.935483870967742","2.49","18.6","covid19_N61","run_000011","0.5409836065573771","2.5","9.32","30.0","0.5","10000000","366.9652285632828","1","0.7","0","0.5409836065573771","60","0","0.01","0.0","0.0","11","skagit_choir_pre","32.0","1581.0000000000002","810.0","0.7","0","1","1","1","2.5","85","56.0"
"0","0.288","7.999999999999999E-4","0.0011111111111111111","2.5","0","-0.0","2.49","18.6","covid19_N61","run_000014","0.26229508196721313","2.5","9.32","30.0","0.5","10000000","366.9652285632828","1","0.7","0","0.26229508196721313","60","0","0.01","0.0","0.0","14","skagit_choir_pre","15.0","1581.0000000000002","810.0","0.7","0","1","1","1","2.5","85","56.0"
"0","0.288","7.999999999999999E-4","0.0011111111111111111","2.5","0","1.1372549019607843","2.49","18.6","covid19_N61","run_000016","0.9016393442622951","2.5","9.32","30.0","0.5","10000000","366.9652285632828","1","0.7","0","0.9016393442622951","60","0","0.01","0.0","0.0","16","skagit_choir_pre","54.0","1581.0000000000002","810.0","0.7","0","1","1","1","2.5","85","56.0"
"0","0.288","7.999999999999999E-4","0.0011111111111111111","2.5","0","-0.0","2.49","18.6","covid19_N61","run_000017","0.5737704918032787","2.5","9.32","30.0","0.5","10000000","366.9652285632828","1","0.7","0","0.5737704918032787","60","0","0.01","0.0","0.0","17","skagit_choir_pre","34.0","1581.0000000000002","810.0","0.7","0","1","1","1","2.5","85","56.0"
"0","0.288","7.999999999999999E-4","0.0011111111111111111","2.5","0","0.9833333333333333","2.49","18.6","covid19_N61","run_000018","0.5245901639344263","2.5","9.32","30.0","0.5","10000000","366.9652285632828","1","0.7","0","0.5245901639344263","60","0","0.01","0.0","0.0","18","skagit_choir_pre","31.0","1581.0000000000002","810.0","0.7","0","1","1","1","2.5","85","56.0"
"0","0.288","7.999999999999999E-4","0.0011111111111111111","2.5","0","2.85","2.49","18.6","covid19_N61","run_000013","0.11475409836065574","2.5","9.32","30.0","0.5","10000000","289.306704373694","1","0.7","0","0.11475409836065574","60","0","0.01","0.0","0.0","13","skagit_choir_pre","6.0","1581.0000000000002","810.0","0.7","0","1","1","1","2.5","85","56.0"
"0","0.288","7.999999999999999E-4","0.0011111111111111111","2.5","0","-0.0","2.49","18.6","covid19_N61","run_000019","0.3114754098360656","2.5","9.32","30.0","0.5","10000000","366.9652285632828","1","0.7","0","0.3114754098360656","60","0","0.01","0.0","0.0","19","skagit_choir_pre","18.0","1581.0000000000002","810.0","0.7","0","1","1","1","2.5","85","56.0"
"0","0.288","7.999999999999999E-4","0.0011111111111111111","2.5","0","1.0363636363636364","2.49","18.6","covid19_N61","run_000012","0.9836065573770492","2.5","9.32","30.0","0.5","10000000","366.9652285632828","1","0.7","0","0.9836065573770492","60","0","0.01","0.0","0.0","12","skagit_choir_pre","59.0","1581.0000000000002","810.0","0.7","0","1","1","1","2.5","85","56.0"
"0","0.288","7.999999999999999E-4","0.0011111111111111111","2.5","0","1.2214285714285715","2.49","18.6","covid19_N61","run_000015","0.639344262295082","2.5","9.32","30.0","0.5","10000000","366.9652285632828","1","0.7","0","0.639344262295082","60","0","0.01","0.0","0.0","15","skagit_choir_pre","38.0","1581.0000000000002","810.0","0.7","0","1","1","1","2.5","85","56.0"
"0","0.288","7.999999999999999E-4","0.0011111111111111111","2.5","0","-0.0","2.49","18.6","covid19_N61","run_000021","0.18032786885245902","2.5","9.32","30.0","0.5","10000000","366.9652285632828","1","0.7","0","0.18032786885245902","60","0","0.01","0.0","0.0","21","skagit_choir_pre","10.0","1581.0000000000002","810.0","0.7","0","1","1","1","2.5","85","56.0"
"0","0.288","7.999999999999999E-4","0.0011111111111111111","2.5","0","1.5833333333333333","2.49","18.6","covid19_N61","run_000023","0.18032786885245902","2.5","9.32","30.0","0.5","10000000","366.9652285632828","1","0.7","0","0.18032786885245902","60","0","0.01","0.0","0.0","23","skagit_choir_pre","10.0","1581.0000000000002","810.0","0.7","0","1","1","1","2.5","85","56.0"
"0","0.288","7.999999999999999E-4","0.0011111111111111111","2.5","0","-0.0","2.49","18.6","covid19_N61","run_000026","0.4918032786885246","2.5","9.32","30.0","0.5","10000000","366.9652285632828","1","0.7","0","0.4918032786885246","60","0","0.01","0.0","0.0","26","skagit_choir_pre","29.0","1581.0000000000002","810.0","0.7","0","1","1","1","2.5","85","56.0"
"0","0.288","7.999999999999999E-4","0.0011111111111111111","2.5","0","1.0943396226415094","2.49","18.6","covid19_N61","run_000022","0.9344262295081968","2.5","9.32","30.0","0.5","10000000","366.9652285632828","1","0.7","0","0.9344262295081968","60","0","0.01","0.0","0.0","22","skagit_choir_pre","56.0","1581.0000000000002","810.0","0.7","0","1","1","1","2.5","85","56.0"
"0","0.288","7.999999999999999E-4","0.0011111111111111111","2.5","0","-0.0","2.49","18.6","covid19_N61","run_000020","0.3770491803278688","2.5","9.32","30.0","0.5","10000000","366.9652285632828","1","0.7","0","0.3770491803278688","60","0","0.01","0.0","0.0","20","skagit_choir_pre","22.0","1581.0000000000002","810.0","0.7","0","1","1","1","2.5","85","56.0"
"0","0.288","7.999999999999999E-4","0.0011111111111111111","2.5","0","1.3255813953488371","2.49","18.6","covid19_N61","run_000032","0.7868852459016393","2.5","9.32","30.0","0.5","10000000","366.9652285632828","1","0.7","0","0.7868852459016393","60","0","0.01","0.0","0.0","32","skagit_choir_pre","47.0","1581.0000000000002","810.0","0.7","0","1","1","1","2.5","85","56.0"
"0","0.288","7.999999999999999E-4","0.0011111111111111111","2.5","0","-0.0","2.49","18.6","covid19_N61","run_000024","0.03278688524590164","2.5","9.32","30.0","0.5","10000000","251.44540441558811","1","0.7","0","0.03278688524590164","60","0","0.01","0.0","0.0","24","skagit_choir_pre","1.0","1581.0000000000002","810.0","0.7","0","1","1","1","2.5","85","56.0"
"0","0.288","7.999999999999999E-4","0.0011111111111111111","2.5","0","NaN","2.49","18.6","covid19_N61","run_000027","0.8360655737704918","2.5","9.32","30.0","0.5","10000000","366.9652285632828","1","0.7","0","0.8360655737704918","60","0","0.01","0.0","0.0","27","skagit_choir_pre","50.0","1581.0000000000002","810.0","0.7","0","1","1","1","2.5","85","56.0"
"0","0.288","7.999999999999999E-4","0.0011111111111111111","2.5","0","-0.0","2.49","18.6","covid19_N61","run_000025","0.4426229508196721","2.5","9.32","30.0","0.5","10000000","366.9652285632828","1","0.7","0","0.4426229508196721","60","0","0.01","0.0","0.0","25","skagit_choir_pre","26.0","1581.0000000000002","810.0","0.7","0","1","1","1","2.5","85","56.0"
"0","0.288","7.999999999999999E-4","0.0011111111111111111","2.5","0","1.4285714285714284","2.49","18.6","covid19_N61","run_000035","0.7213114754098361","2.5","9.32","30.0","0.5","10000000","366.9652285632828","1","0.7","0","0.7213114754098361","60","0","0.01","0.0","0.0","35","skagit_choir_pre","43.0","1581.0000000000002","810.0","0.7","0","1","1","1","2.5","85","56.0"
"0","0.288","7.999999999999999E-4","0.0011111111111111111","2.5","0","-0.0","2.49","18.6","covid19_N61","run_000028","0.13114754098360656","2.5","9.32","30.0","0.5","10000000","366.9652285632828","1","0.7","0","0.13114754098360656","60","0","0.01","0.0","0.0","28","skagit_choir_pre","7.0","1581.0000000000002","810.0","0.7","0","1","1","1","2.5","85","56.0"
"0","0.288","7.999999999999999E-4","0.0011111111111111111","2.5","0","0.5566037735849056","2.49","18.6","covid19_N61","run_000030","0.9016393442622951","2.5","9.32","30.0","0.5","10000000","366.9652285632828","1","0.7","0","0.9016393442622951","60","0","0.01","0.0","0.0","30","skagit_choir_pre","54.0","1581.0000000000002","810.0","0.7","0","1","1","1","2.5","85","56.0"
"0","0.288","7.999999999999999E-4","0.0011111111111111111","2.5","0","-0.0","2.49","18.6","covid19_N61","run_000029","0.09836065573770492","2.5","9.32","30.0","0.5","10000000","366.9652285632828","1","0.7","0","0.09836065573770492","60","0","0.01","0.0","0.0","29","skagit_choir_pre","5.0","1581.0000000000002","810.0","0.7","0","1","1","1","2.5","85","56.0"
"0","0.288","7.999999999999999E-4","0.0011111111111111111","2.5","0","1.4871794871794872","2.49","18.6","covid19_N61","run_000031","0.2459016393442623","2.5","9.32","30.0","0.5","10000000","289.306704373694","1","0.7","0","0.2459016393442623","60","0","0.01","0.0","0.0","31","skagit_choir_pre","14.0","1581.0000000000002","810.0","0.7","0","1","1","1","2.5","85","56.0"
"0","0.288","7.999999999999999E-4","0.0011111111111111111","2.5","0","NaN","2.49","18.6","covid19_N61","run_000039","0.4918032786885246","2.5","9.32","30.0","0.5","10000000","366.9652285632828","1","0.7","0","0.4918032786885246","60","0","0.01","0.0","0.0","39","skagit_choir_pre","29.0","1581.0000000000002","810.0","0.7","0","1","1","1","2.5","85","56.0"
"0","0.288","7.999999999999999E-4","0.0011111111111111111","2.5","0","2.0","2.49","18.6","covid19_N61","run_000036","0.5245901639344263","2.5","9.32","30.0","0.5","10000000","366.9652285632828","1","0.7","0","0.5245901639344263","60","0","0.01","0.0","0.0","36","skagit_choir_pre","31.0","1581.0000000000002","810.0","0.7","0","1","1","1","2.5","85","56.0"
"0","0.288","7.999999999999999E-4","0.0011111111111111111","2.5","0","2.6363636363636362","2.49","18.6","covid19_N61","run_000042","0.4262295081967213","2.5","9.32","30.0","0.5","10000000","366.9652285632828","1","0.7","0","0.4262295081967213","60","0","0.01","0.0","0.0","42","skagit_choir_pre","25.0","1581.0000000000002","810.0","0.7","0","1","1","1","2.5","85","56.0"
"0","0.288","7.999999999999999E-4","0.0011111111111111111","2.5","0","3.5294117647058822","2.49","18.6","covid19_N61","run_000037","0.3114754098360656","2.5","9.32","30.0","0.5","10000000","366.9652285632828","1","0.7","0","0.3114754098360656","60","0","0.01","0.0","0.0","37","skagit_choir_pre","18.0","1581.0000000000002","810.0","0.7","0","1","1","1","2.5","85","56.0"
"0","0.288","7.999999999999999E-4","0.0011111111111111111","2.5","0","-0.0","2.49","18.6","covid19_N61","run_000041","0.03278688524590164","2.5","9.32","30.0","0.5","10000000","366.9652285632828","1","0.7","0","0.03278688524590164","60","0","0.01","0.0","0.0","41","skagit_choir_pre","1.0","1581.0000000000002","810.0","0.7","0","1","1","1","2.5","85","56.0"
"0","0.288","7.999999999999999E-4","0.0011111111111111111","2.5","0","0.8724489795918368","2.49","18.6","covid19_N61","run_000033","0.8688524590163934","2.5","9.32","30.0","0.5","10000000","366.9652285632828","1","0.7","0","0.8688524590163934","60","0","0.01","0.0","0.0","33","skagit_choir_pre","52.0","1581.0000000000002","810.0","0.7","0","1","1","1","2.5","85","56.0"
"0","0.288","7.999999999999999E-4","0.0011111111111111111","2.5","0","2.9743589743589745","2.49","18.6","covid19_N61","run_000044","0.26229508196721313","2.5","9.32","30.0","0.5","10000000","366.9652285632828","1","0.7","0","0.26229508196721313","60","0","0.01","0.0","0.0","44","skagit_choir_pre","15.0","1581.0000000000002","810.0","0.7","0","1","1","1","2.5","85","56.0"
"0","0.288","7.999999999999999E-4","0.0011111111111111111","2.5","0","1.5526315789473684","2.49","18.6","covid19_N61","run_000040","0.3442622950819672","2.5","9.32","30.0","0.5","10000000","293.9155878258511","1","0.7","0","0.3442622950819672","60","0","0.01","0.0","0.0","40","skagit_choir_pre","20.0","1581.0000000000002","810.0","0.7","0","1","1","1","2.5","85","56.0"
"0","0.288","7.999999999999999E-4","0.0011111111111111111","2.5","0","1.7575757575757576","2.49","18.6","covid19_N61","run_000034","0.4098360655737705","2.5","9.32","30.0","0.5","10000000","366.9652285632828","1","0.7","0","0.4098360655737705","60","0","0.01","0.0","0.0","34","skagit_choir_pre","24.0","1581.0000000000002","810.0","0.7","0","1","1","1","2.5","85","56.0"
"0","0.288","7.999999999999999E-4","0.0011111111111111111","2.5","0","2.375","2.49","18.6","covid19_N61","run_000048","0.13114754098360656","2.5","9.32","30.0","0.5","10000000","366.9652285632828","1","0.7","0","0.13114754098360656","60","0","0.01","0.0","0.0","48","skagit_choir_pre","7.0","1581.0000000000002","810.0","0.7","0","1","1","1","2.5","85","56.0"
"0","0.288","7.999999999999999E-4","0.0011111111111111111","2.5","0","3.0555555555555554","2.49","18.6","covid19_N61","run_000038","0.08196721311475409","2.5","9.32","30.0","0.5","10000000","251.44540441558811","1","0.7","0","0.08196721311475409","60","0","0.01","0.0","0.0","38","skagit_choir_pre","4.0","1581.0000000000002","810.0","0.7","0","1","1","1","2.5","85","56.0"
"0","0.288","7.999999999999999E-4","0.0011111111111111111","2.5","0","1.2291666666666665","2.49","18.6","covid19_N61","run_000050","0.8360655737704918","2.5","9.32","30.0","0.5","10000000","366.9652285632828","1","0.7","0","0.8360655737704918","60","0","0.01","0.0","0.0","50","skagit_choir_pre","50.0","1581.0000000000002","810.0","0.7","0","1","1","1","2.5","85","56.0"
"0","0.288","7.999999999999999E-4","0.0011111111111111111","2.5","0","NaN","2.49","18.6","covid19_N61","run_000046","0.9016393442622951","2.5","9.32","30.0","0.5","10000000","366.9652285632828","1","0.7","0","0.9016393442622951","60","0","0.01","0.0","0.0","46","skagit_choir_pre","54.0","1581.0000000000002","810.0","0.7","0","1","1","1","2.5","85","56.0"
"0","0.288","7.999999999999999E-4","0.0011111111111111111","2.5","0","2.5","2.49","18.6","covid19_N61","run_000043","0.4262295081967213","2.5","9.32","30.0","0.5","10000000","366.9652285632828","1","0.7","0","0.4262295081967213","60","0","0.01","0.0","0.0","43","skagit_choir_pre","25.0","1581.0000000000002","810.0","0.7","0","1","1","1","2.5","85","56.0"
"0","0.288","7.999999999999999E-4","0.0011111111111111111","2.5","0","1.1047619047619046","2.49","18.6","covid19_N61","run_000049","0.6229508196721312","2.5","9.32","30.0","0.5","10000000","366.9652285632828","1","0.7","0","0.6229508196721312","60","0","0.01","0.0","0.0","49","skagit_choir_pre","37.0","1581.0000000000002","810.0","0.7","0","1","1","1","2.5","85","56.0"
"0","0.288","7.999999999999999E-4","0.0011111111111111111","2.5","0","1.5833333333333333","2.49","18.6","covid19_N61","run_000054","0.18032786885245902","2.5","9.32","30.0","0.5","10000000","366.9652285632828","1","0.7","0","0.18032786885245902","60","0","0.01","0.0","0.0","54","skagit_choir_pre","10.0","1581.0000000000002","810.0","0.7","0","1","1","1","2.5","85","56.0"
"0","0.288","7.999999999999999E-4","0.0011111111111111111","2.5","0","0.4453125","2.49","18.6","covid19_N61","run_000053","0.5573770491803278","2.5","9.32","30.0","0.5","10000000","366.9652285632828","1","0.7","0","0.5573770491803278","60","0","0.01","0.0","0.0","53","skagit_choir_pre","33.0","1581.0000000000002","810.0","0.7","0","1","1","1","2.5","85","56.0"
"0","0.288","7.999999999999999E-4","0.0011111111111111111","2.5","0","1.153846153846154","2.49","18.6","covid19_N61","run_000045","0.8852459016393442","2.5","9.32","30.0","0.5","10000000","366.9652285632828","1","0.7","0","0.8852459016393442","60","0","0.01","0.0","0.0","45","skagit_choir_pre","53.0","1581.0000000000002","810.0","0.7","0","1","1","1","2.5","85","56.0"
"0","0.288","7.999999999999999E-4","0.0011111111111111111","2.5","0","-0.0","2.49","18.6","covid19_N61","run_000055","0.3114754098360656","2.5","9.32","30.0","0.5","10000000","366.9652285632828","1","0.7","0","0.3114754098360656","60","0","0.01","0.0","0.0","55","skagit_choir_pre","18.0","1581.0000000000002","810.0","0.7","0","1","1","1","2.5","85","56.0"
"0","0.288","7.999999999999999E-4","0.0011111111111111111","2.5","0","-0.0","2.49","18.6","covid19_N61","run_000047","0.29508196721311475","2.5","9.32","30.0","0.5","10000000","289.306704373694","1","0.7","0","0.29508196721311475","60","0","0.01","0.0","0.0","47","skagit_choir_pre","17.0","1581.0000000000002","810.0","0.7","0","1","1","1","2.5","85","56.0"
"0","0.288","7.999999999999999E-4","0.0011111111111111111","2.5","0","1.3333333333333333","2.49","18.6","covid19_N61","run_000052","0.5245901639344263","2.5","9.32","30.0","0.5","10000000","298.41599351230604","1","0.7","0","0.5245901639344263","60","0","0.01","0.0","0.0","52","skagit_choir_pre","31.0","1581.0000000000002","810.0","0.7","0","1","1","1","2.5","85","56.0"
"0","0.288","7.999999999999999E-4","0.0011111111111111111","2.5","0","-0.0","2.49","18.6","covid19_N61","run_000057","0.13114754098360656","2.5","9.32","30.0","0.5","10000000","366.9652285632828","1","0.7","0","0.13114754098360656","60","0","0.01","0.0","0.0","58","skagit_choir_pre","7.0","1581.0000000000002","810.0","0.7","0","1","1","1","2.5","85","56.0"
"0","0.288","7.999999999999999E-4","0.0011111111111111111","2.5","0","1.163265306122449","2.49","18.6","covid19_N61","run_000058","0.8852459016393442","2.5","9.32","30.0","0.5","10000000","366.9652285632828","1","0.7","0","0.8852459016393442","60","0","0.01","0.0","0.0","59","skagit_choir_pre","53.0","1581.0000000000002","810.0","0.7","0","1","1","1","2.5","85","56.0"
"0","0.288","7.999999999999999E-4","0.0011111111111111111","2.5","0","1.2061403508771928","2.49","18.6","covid19_N61","run_000059","0.7213114754098361","2.5","9.32","30.0","0.5","10000000","366.9652285632828","1","0.7","0","0.7213114754098361","60","0","0.01","0.0","0.0","60","skagit_choir_pre","43.0","1581.0000000000002","810.0","0.7","0","1","1","1","2.5","85","56.0"
"0","0.288","7.999999999999999E-4","0.0011111111111111111","2.5","0","1.2083333333333333","2.49","18.6","covid19_N61","run_000051","0.8524590163934426","2.5","9.32","30.0","0.5","10000000","366.9652285632828","1","0.7","0","0.8524590163934426","60","0","0.01","0.0","0.0","51","skagit_choir_pre","51.0","1581.0000000000002","810.0","0.7","0","1","1","1","2.5","85","56.0"
"0","0.288","7.999999999999999E-4","0.0011111111111111111","2.5","0","1.183673469387755","2.49","18.6","covid19_N61","run_000060","0.8688524590163934","2.5","9.32","30.0","0.5","10000000","366.9652285632828","1","0.7","0","0.8688524590163934","60","0","0.01","0.0","0.0","61","skagit_choir_pre","52.0","1581.0000000000002","810.0","0.7","0","1","1","1","2.5","85","56.0"
"0","0.288","7.999999999999999E-4","0.0011111111111111111","2.5","0","-0.0","2.49","18.6","covid19_N61","run_000063","0.13114754098360656","2.5","9.32","30.0","0.5","10000000","366.9652285632828","1","0.7","0","0.13114754098360656","60","0","0.01","0.0","0.0","64","skagit_choir_pre","7.0","1581.0000000000002","810.0","0.7","0","1","1","1","2.5","85","56.0"
"0","0.288","7.999999999999999E-4","0.0011111111111111111","2.5","0","0.6236559139784946","2.49","18.6","covid19_N61","run_000056","0.5409836065573771","2.5","9.32","30.0","0.5","10000000","366.9652285632828","1","0.7","0","0.5409836065573771","60","0","0.01","0.0","0.0","56","skagit_choir_pre","32.0","1581.0000000000002","810.0","0.7","0","1","1","1","2.5","85","56.0"
"0","0.288","7.999999999999999E-4","0.0011111111111111111","2.5","0","-0.0","2.49","18.6","covid19_N61","run_000065","0.16393442622950818","2.5","9.32","30.0","0.5","10000000","366.9652285632828","1","0.7","0","0.16393442622950818","60","0","0.01","0.0","0.0","66","skagit_choir_pre","9.0","1581.0000000000002","810.0","0.7","0","1","1","1","2.5","85","56.0"
"0","0.288","7.999999999999999E-4","0.0011111111111111111","2.5","0","1.0175438596491226","2.49","18.6","covid19_N61","run_000062","0.6721311475409836","2.5","9.32","30.0","0.5","10000000","366.9652285632828","1","0.7","0","0.6721311475409836","60","0","0.01","0.0","0.0","63","skagit_choir_pre","40.0","1581.0000000000002","810.0","0.7","0","1","1","1","2.5","85","56.0"
"0","0.288","7.999999999999999E-4","0.0011111111111111111","2.5","0","0.8194444444444444","2.49","18.6","covid19_N61","run_000061","0.6229508196721312","2.5","9.32","30.0","0.5","10000000","366.9652285632828","1","0.7","0","0.6229508196721312","60","0","0.01","0.0","0.0","62","skagit_choir_pre","37.0","1581.0000000000002","810.0","0.7","0","1","1","1","2.5","85","56.0"
"0","0.288","7.999999999999999E-4","0.0011111111111111111","2.5","0","0.4393939393939394","2.49","18.6","covid19_N61","run_000067","0.7540983606557377","2.5","9.32","30.0","0.5","10000000","366.9652285632828","1","0.7","0","0.7540983606557377","60","0","0.01","0.0","0.0","68","skagit_choir_pre","45.0","1581.0000000000002","810.0","0.7","0","1","1","1","2.5","85","56.0"
"0","0.288","7.999999999999999E-4","0.0011111111111111111","2.5","0","NaN","2.49","18.6","covid19_N61","run_000070","0.9344262295081968","2.5","9.32","30.0","0.5","10000000","366.9652285632828","1","0.7","0","0.9344262295081968","60","0","0.01","0.0","0.0","71","skagit_choir_pre","56.0","1581.0000000000002","810.0","0.7","0","1","1","1","2.5","85","56.0"
"0","0.288","7.999999999999999E-4","0.0011111111111111111","2.5","0","-0.0","2.49","18.6","covid19_N61","run_000064","0.19672131147540983","2.5","9.32","30.0","0.5","10000000","366.9652285632828","1","0.7","0","0.19672131147540983","60","0","0.01","0.0","0.0","65","skagit_choir_pre","11.0","1581.0000000000002","810.0","0.7","0","1","1","1","2.5","85","56.0"
"0","0.288","7.999999999999999E-4","0.0011111111111111111","2.5","0","4.583333333333333","2.49","18.6","covid19_N61","run_000071","0.06557377049180328","2.5","9.32","30.0","0.5","10000000","366.9652285632828","1","0.7","0","0.06557377049180328","60","0","0.01","0.0","0.0","72","skagit_choir_pre","3.0","1581.0000000000002","810.0","0.7","0","1","1","1","2.5","85","56.0"
"0","0.288","7.999999999999999E-4","0.0011111111111111111","2.5","0","-0.0","2.49","18.6","covid19_N61","run_000074","0.26229508196721313","2.5","9.32","30.0","0.5","10000000","366.9652285632828","1","0.7","0","0.26229508196721313","60","0","0.01","0.0","0.0","75","skagit_choir_pre","15.0","1581.0000000000002","810.0","0.7","0","1","1","1","2.5","85","56.0"
"0","0.288","7.999999999999999E-4","0.0011111111111111111","2.5","0","0.5588235294117647","2.49","18.6","covid19_N61","run_000068","0.8852459016393442","2.5","9.32","30.0","0.5","10000000","366.9652285632828","1","0.7","0","0.8852459016393442","60","0","0.01","0.0","0.0","69","skagit_choir_pre","53.0","1581.0000000000002","810.0","0.7","0","1","1","1","2.5","85","56.0"
"0","0.288","7.999999999999999E-4","0.0011111111111111111","2.5","0","1.0754716981132075","2.49","18.6","covid19_N61","run_000076","0.9508196721311475","2.5","9.32","30.0","0.5","10000000","366.9652285632828","1","0.7","0","0.9508196721311475","60","0","0.01","0.0","0.0","76","skagit_choir_pre","57.0","1581.0000000000002","810.0","0.7","0","1","1","1","2.5","85","56.0"
"0","0.288","7.999999999999999E-4","0.0011111111111111111","2.5","0","1.156862745098039","2.49","18.6","covid19_N61","run_000066","0.8852459016393442","2.5","9.32","30.0","0.5","10000000","366.9652285632828","1","0.7","0","0.8852459016393442","60","0","0.01","0.0","0.0","67","skagit_choir_pre","53.0","1581.0000000000002","810.0","0.7","0","1","1","1","2.5","85","56.0"
"0","0.288","7.999999999999999E-4","0.0011111111111111111","2.5","0","0.5087719298245613","2.49","18.6","covid19_N61","run_000069","0.6557377049180327","2.5","9.32","30.0","0.5","10000000","366.9652285632828","1","0.7","0","0.6557377049180327","60","0","0.01","0.0","0.0","70","skagit_choir_pre","39.0","1581.0000000000002","810.0","0.7","0","1","1","1","2.5","85","56.0"
"0","0.288","7.999999999999999E-4","0.0011111111111111111","2.5","0","0.6555555555555556","2.49","18.6","covid19_N61","run_000079","0.7704918032786885","2.5","9.32","30.0","0.5","10000000","366.9652285632828","1","0.7","0","0.7704918032786885","60","0","0.01","0.0","0.0","79","skagit_choir_pre","46.0","1581.0000000000002","810.0","0.7","0","1","1","1","2.5","85","56.0"
"0","0.288","7.999999999999999E-4","0.0011111111111111111","2.5","0","0.9914529914529915","2.49","18.6","covid19_N61","run_000078","0.6885245901639344","2.5","9.32","30.0","0.5","10000000","366.9652285632828","1","0.7","0","0.6885245901639344","60","0","0.01","0.0","0.0","78","skagit_choir_pre","41.0","1581.0000000000002","810.0","0.7","0","1","1","1","2.5","85","56.0"
"0","0.288","7.999999999999999E-4","0.0011111111111111111","2.5","0","1.3176470588235294","2.49","18.6","covid19_N61","run_000082","0.639344262295082","2.5","9.32","30.0","0.5","10000000","366.9652285632828","1","0.7","0","0.639344262295082","60","0","0.01","0.0","0.0","82","skagit_choir_pre","38.0","1581.0000000000002","810.0","0.7","0","1","1","1","2.5","85","56.0"
"0","0.288","7.999999999999999E-4","0.0011111111111111111","2.5","0","-0.0","2.49","18.6","covid19_N61","run_000075","0.26229508196721313","2.5","9.32","30.0","0.5","10000000","366.9652285632828","1","0.7","0","0.26229508196721313","60","0","0.01","0.0","0.0","75","skagit_choir_pre","15.0","1581.0000000000002","810.0","0.7","0","1","1","1","2.5","85","56.0"
"0","0.288","7.999999999999999E-4","0.0011111111111111111","2.5","0","1.475","2.49","18.6","covid19_N61","run_000072","0.7049180327868853","2.5","9.32","30.0","0.5","10000000","366.9652285632828","1","0.7","0","0.7049180327868853","60","0","0.01","0.0","0.0","73","skagit_choir_pre","42.0","1581.0000000000002","810.0","0.7","0","1","1","1","2.5","85","56.0"
"0","0.288","7.999999999999999E-4","0.0011111111111111111","2.5","0","NaN","2.49","18.6","covid19_N61","run_000077","0.45901639344262296","2.5","9.32","30.0","0.5","10000000","366.9652285632828","1","0.7","0","0.45901639344262296","60","0","0.01","0.0","0.0","77","skagit_choir_pre","27.0","1581.0000000000002","810.0","0.7","0","1","1","1","2.5","85","56.0"
"0","0.288","7.999999999999999E-4","0.0011111111111111111","2.5","0","NaN","2.49","18.6","covid19_N61","run_000085","0.4098360655737705","2.5","9.32","30.0","0.5","10000000","366.9652285632828","1","0.7","0","0.4098360655737705","60","0","0.01","0.0","0.0","85","skagit_choir_pre","24.0","1581.0000000000002","810.0","0.7","0","1","1","1","2.5","85","56.0"
"0","0.288","7.999999999999999E-4","0.0011111111111111111","2.5","0","2.375","2.49","18.6","covid19_N61","run_000084","0.2459016393442623","2.5","9.32","30.0","0.5","10000000","366.9652285632828","1","0.7","0","0.2459016393442623","60","0","0.01","0.0","0.0","84","skagit_choir_pre","14.0","1581.0000000000002","810.0","0.7","0","1","1","1","2.5","85","56.0"
"0","0.288","7.999999999999999E-4","0.0011111111111111111","2.5","0","NaN","2.49","18.6","covid19_N61","run_000088","0.26229508196721313","2.5","9.32","30.0","0.5","10000000","366.9652285632828","1","0.7","0","0.26229508196721313","60","0","0.01","0.0","0.0","88","skagit_choir_pre","15.0","1581.0000000000002","810.0","0.7","0","1","1","1","2.5","85","56.0"
"0","0.288","7.999999999999999E-4","0.0011111111111111111","2.5","0","3.2777777777777777","2.49","18.6","covid19_N61","run_000083","0.18032786885245902","2.5","9.32","30.0","0.5","10000000","298.41599351230604","1","0.7","0","0.18032786885245902","60","0","0.01","0.0","0.0","83","skagit_choir_pre","10.0","1581.0000000000002","810.0","0.7","0","1","1","1","2.5","85","56.0"
"0","0.288","7.999999999999999E-4","0.0011111111111111111","2.5","0","0.921875","2.49","18.6","covid19_N61","run_000080","0.5573770491803278","2.5","9.32","30.0","0.5","10000000","366.9652285632828","1","0.7","0","0.5573770491803278","60","0","0.01","0.0","0.0","80","skagit_choir_pre","33.0","1581.0000000000002","810.0","0.7","0","1","1","1","2.5","85","56.0"
"0","0.288","7.999999999999999E-4","0.0011111111111111111","2.5","0","1.4741379310344827","2.49","18.6","covid19_N61","run_000086","0.5409836065573771","2.5","9.32","30.0","0.5","10000000","366.9652285632828","1","0.7","0","0.5409836065573771","60","0","0.01","0.0","0.0","86","skagit_choir_pre","32.0","1581.0000000000002","810.0","0.7","0","1","1","1","2.5","85","56.0"
"0","0.288","7.999999999999999E-4","0.0011111111111111111","2.5","0","NaN","2.49","18.6","covid19_N61","run_000090","0.7213114754098361","2.5","9.32","30.0","0.5","10000000","366.9652285632828","1","0.7","0","0.7213114754098361","60","0","0.01","0.0","0.0","90","skagit_choir_pre","43.0","1581.0000000000002","810.0","0.7","0","1","1","1","2.5","85","56.0"
"0","0.288","7.999999999999999E-4","0.0011111111111111111","2.5","0","NaN","2.49","18.6","covid19_N61","run_000092","0.6557377049180327","2.5","9.32","30.0","0.5","10000000","366.9652285632828","1","0.7","0","0.6557377049180327","60","0","0.01","0.0","0.0","92","skagit_choir_pre","39.0","1581.0000000000002","810.0","0.7","0","1","1","1","2.5","85","56.0"
"0","0.288","7.999999999999999E-4","0.0011111111111111111","2.5","0","-0.0","2.49","18.6","covid19_N61","run_000073","0.04918032786885246","2.5","9.32","30.0","0.5","10000000","366.9652285632828","1","0.7","0","0.04918032786885246","60","0","0.01","0.0","0.0","74","skagit_choir_pre","2.0","1581.0000000000002","810.0","0.7","0","1","1","1","2.5","85","56.0"
"0","0.288","7.999999999999999E-4","0.0011111111111111111","2.5","0","-0.0","2.49","18.6","covid19_N61","run_000089","0.47540983606557374","2.5","9.32","30.0","0.5","10000000","366.9652285632828","1","0.7","0","0.47540983606557374","60","0","0.01","0.0","0.0","89","skagit_choir_pre","28.0","1581.0000000000002","810.0","0.7","0","1","1","1","2.5","85","56.0"
"0","0.288","7.999999999999999E-4","0.0011111111111111111","2.5","0","1.1153846153846154","2.49","18.6","covid19_N61","run_000081","0.9180327868852459","2.5","9.32","30.0","0.5","10000000","366.9652285632828","1","0.7","0","0.9180327868852459","60","0","0.01","0.0","0.0","81","skagit_choir_pre","55.0","1581.0000000000002","810.0","0.7","0","1","1","1","2.5","85","56.0"
"0","0.288","7.999999999999999E-4","0.0011111111111111111","2.5","0","NaN","2.49","18.6","covid19_N61","run_000091","0.6557377049180327","2.5","9.32","30.0","0.5","10000000","366.9652285632828","1","0.7","0","0.6557377049180327","60","0","0.01","0.0","0.0","91","skagit_choir_pre","39.0","1581.0000000000002","810.0","0.7","0","1","1","1","2.5","85","56.0"
"0","0.288","7.999999999999999E-4","0.0011111111111111111","2.5","0","0.6904761904761904","2.49","18.6","covid19_N61","run_000094","0.4918032786885246","2.5","9.32","30.0","0.5","10000000","366.9652285632828","1","0.7","0","0.4918032786885246","60","0","0.01","0.0","0.0","94","skagit_choir_pre","29.0","1581.0000000000002","810.0","0.7","0","1","1","1","2.5","85","56.0"
"0","0.288","7.999999999999999E-4","0.0011111111111111111","2.5","0","-0.0","2.49","18.6","covid19_N61","run_000087","0.5081967213114754","2.5","9.32","30.0","0.5","10000000","366.9652285632828","1","0.7","0","0.5081967213114754","60","0","0.01","0.0","0.0","87","skagit_choir_pre","30.0","1581.0000000000002","810.0","0.7","0","1","1","1","2.5","85","56.0"
"0","0.288","7.999999999999999E-4","0.0011111111111111111","2.5","0","1.16","2.49","18.6","covid19_N61","run_000096","0.8852459016393442","2.5","9.32","30.0","0.5","10000000","366.9652285632828","1","0.7","0","0.8852459016393442","60","0","0.01","0.0","0.0","96","skagit_choir_pre","53.0","1581.0000000000002","810.0","0.7","0","1","1","1","2.5","85","56.0"
"0","0.288","7.999999999999999E-4","0.0011111111111111111","2.5","0","NaN","2.49","18.6","covid19_N61","run_000097","0.16393442622950818","2.5","9.32","30.0","0.5","10000000","366.9652285632828","1","0.7","0","0.16393442622950818","60","0","0.01","0.0","0.0","97","skagit_choir_pre","9.0","1581.0000000000002","810.0","0.7","0","1","1","1","2.5","85","56.0"
"0","0.288","7.999999999999999E-4","0.0011111111111111111","2.5","0","-0.0","2.49","18.6","covid19_N61","run_000093","0.11475409836065574","2.5","9.32","30.0","0.5","10000000","366.9652285632828","1","0.7","0","0.11475409836065574","60","0","0.01","0.0","0.0","93","skagit_choir_pre","6.0","1581.0000000000002","810.0","0.7","0","1","1","1","2.5","85","56.0"
"0","0.288","7.999999999999999E-4","0.0011111111111111111","2.5","0","NaN","2.49","18.6","covid19_N61","run_000095","0.5409836065573771","2.5","9.32","30.0","0.5","10000000","366.9652285632828","1","0.7","0","0.5409836065573771","60","0","0.01","0.0","0.0","95","skagit_choir_pre","32.0","1581.0000000000002","810.0","0.7","0","1","1","1","2.5","85","56.0"
"0","0.288","7.999999999999999E-4","0.0011111111111111111","2.5","0","8.285714285714285","2.49","18.6","covid19_N61","run_000098","0.18032786885245902","2.5","9.32","30.0","0.5","10000000","366.9652285632828","1","0.7","0","0.18032786885245902","60","0","0.01","0.0","0.0","98","skagit_choir_pre","10.0","1581.0000000000002","810.0","0.7","0","1","1","1","2.5","85","56.0"
"0","0.288","7.999999999999999E-4","0.0011111111111111111","2.5","0","-0.0","2.49","18.6","covid19_N61","run_000099","0.47540983606557374","2.5","9.32","30.0","0.5","10000000","366.9652285632828","1","0.7","0","0.47540983606557374","60","0","0.01","0.0","0.0","99","skagit_choir_pre","28.0","1581.0000000000002","810.0","0.7","0","1","1","1","2.5","85","56.0"
